[
    {
        "nid": "Player",
        "name": "Player's Group",
        "leader": "Player"
    },
    {
        "nid": "Reserves",
        "name": "Reserves",
        "leader": "Player"
    },
    {
        "nid": "Flex",
        "name": "Flex",
        "leader": "_____________________________________"
    },
    {
        "nid": "Shuffle",
        "name": "Shuffle",
        "leader": "Player"
    }
]