[
    {
        "nid": "Citizen",
        "name": "Citizen",
        "desc": "An ordinary commoner.",
        "tier": 0,
        "movement_group": "Light Foot",
        "promotes_from": null,
        "turns_into": [],
        "tags": [],
        "max_level": 10,
        "bases": {
            "HP": 10,
            "STR": 0,
            "MAG": 0,
            "SKL": 0,
            "SPD": 0,
            "LCK": 0,
            "DEF": 0,
            "CON": 5,
            "MOV": 5,
            "RES": 0
        },
        "growths": {
            "HP": 65,
            "STR": 0,
            "MAG": 0,
            "SKL": 0,
            "SPD": 0,
            "LCK": 0,
            "DEF": 0,
            "CON": 0,
            "MOV": 0,
            "RES": 0
        },
        "growth_bonus": {
            "HP": 0,
            "STR": 0,
            "MAG": 0,
            "SKL": 0,
            "SPD": 0,
            "LCK": 0,
            "DEF": 0,
            "CON": 0,
            "MOV": 0,
            "RES": 0
        },
        "promotion": {
            "HP": 0,
            "STR": 0,
            "MAG": 0,
            "SKL": 0,
            "SPD": 0,
            "LCK": 0,
            "DEF": 0,
            "CON": 0,
            "MOV": 0,
            "RES": 0
        },
        "max_stats": {
            "HP": 60,
            "STR": 20,
            "MAG": 20,
            "SKL": 20,
            "SPD": 20,
            "LCK": 30,
            "DEF": 20,
            "CON": 20,
            "MOV": 15,
            "RES": 20
        },
        "learned_skills": [],
        "wexp_gain": {
            "Sword": [
                0,
                0,
                251
            ],
            "Lance": [
                false,
                0,
                251
            ],
            "Axe": [
                0,
                0,
                251
            ],
            "Bow": [
                false,
                0,
                251
            ],
            "Knife": [
                false,
                0,
                251
            ],
            "Anima": [
                false,
                0,
                251
            ],
            "Light": [
                false,
                0,
                251
            ],
            "Dark": [
                false,
                0,
                251
            ],
            "Staff": [
                false,
                0,
                251
            ],
            "Stone": [
                false,
                0,
                251
            ],
            "Default": [
                false,
                0,
                251
            ],
            "Dragonstone": [
                false,
                0,
                251
            ]
        },
        "icon_nid": "Generic_Portrait_Citizen",
        "icon_index": [
            0,
            0
        ],
        "map_sprite_nid": "Citizen",
        "combat_anim_nid": "Myrmidon",
        "fields": []
    }
]