[
    {
        "nid": "Dread_Fighter",
        "name": "Dread Fighter",
        "desc": "Wielders of sword arts, dark arts, and knives.",
        "tier": 2,
        "movement_group": "Mages",
        "promotes_from": "Citizen",
        "turns_into": [],
        "tags": [
            "Magical",
            "Infantry"
        ],
        "max_level": 40,
        "bases": {
            "HP": 20,
            "STR": 0,
            "MAG": 5,
            "SKL": 6,
            "SPD": 5,
            "LCK": 0,
            "DEF": 5,
            "RES": 6,
            "CON": 7,
            "MOV": 5
        },
        "growths": {
            "HP": 45,
            "STR": 0,
            "MAG": 45,
            "SKL": 30,
            "SPD": 25,
            "LCK": 15,
            "DEF": 10,
            "RES": 40,
            "CON": 0,
            "MOV": 0
        },
        "growth_bonus": {
            "HP": 0,
            "STR": 0,
            "MAG": 0,
            "SKL": 0,
            "SPD": 0,
            "LCK": 0,
            "DEF": 0,
            "RES": 0,
            "CON": 0,
            "MOV": 0
        },
        "promotion": {
            "HP": 3,
            "STR": 2,
            "MAG": 2,
            "SKL": 0,
            "SPD": 1,
            "LCK": 0,
            "DEF": 1,
            "RES": 1,
            "CON": 1,
            "MOV": -99
        },
        "max_stats": {
            "HP": 60,
            "STR": 30,
            "MAG": 30,
            "SKL": 30,
            "SPD": 30,
            "LCK": 30,
            "DEF": 30,
            "RES": 30,
            "CON": 20,
            "MOV": 15
        },
        "learned_skills": [],
        "wexp_gain": {
            "Sword": [
                true,
                0,
                251
            ],
            "Lance": [
                false,
                0,
                251
            ],
            "Axe": [
                false,
                0,
                251
            ],
            "Bow": [
                false,
                0,
                251
            ],
            "Knife": [
                true,
                0,
                251
            ],
            "Anima": [
                false,
                0,
                251
            ],
            "Light": [
                false,
                0,
                251
            ],
            "Dark": [
                true,
                0,
                251
            ],
            "Staff": [
                false,
                0,
                251
            ],
            "Stone": [
                false,
                0,
                251
            ],
            "Default": [
                false,
                0,
                251
            ],
            "Dragonstone": [
                false,
                0,
                251
            ]
        },
        "icon_nid": "Generic_Portrait_Sage",
        "icon_index": [
            0,
            0
        ],
        "map_sprite_nid": "Dread Fighter (F) {Nuramon}-stand",
        "combat_anim_nid": null,
        "fields": []
    }
]