[
    {
        "nid": "Elder_Bael",
        "name": "Elder Bael",
        "desc": "Giant poison spiders. They roam the fog, attacking with deadly venom.",
        "tier": 2,
        "movement_group": "Heavy Cav",
        "promotes_from": "Bael",
        "turns_into": [],
        "tags": [
            "Monster"
        ],
        "max_level": 40,
        "bases": {
            "HP": 36,
            "STR": 8,
            "MAG": 0,
            "SKL": 5,
            "SPD": 5,
            "LCK": 0,
            "DEF": 9,
            "RES": 4,
            "CON": 15,
            "MOV": 5
        },
        "growths": {
            "HP": 85,
            "STR": 45,
            "MAG": 5,
            "SKL": 25,
            "SPD": 20,
            "LCK": 10,
            "DEF": 20,
            "RES": 15,
            "CON": 0,
            "MOV": 0
        },
        "growth_bonus": {
            "HP": 0,
            "STR": 0,
            "MAG": 0,
            "SKL": 0,
            "SPD": 0,
            "LCK": 0,
            "DEF": 0,
            "RES": 0,
            "CON": 0,
            "MOV": 0
        },
        "promotion": {
            "HP": 3,
            "STR": 2,
            "MAG": 1,
            "SKL": 0,
            "SPD": 0,
            "LCK": 0,
            "DEF": 3,
            "RES": 1,
            "CON": 3,
            "MOV": -99
        },
        "max_stats": {
            "HP": 60,
            "STR": 30,
            "MAG": 30,
            "SKL": 30,
            "SPD": 30,
            "LCK": 30,
            "DEF": 30,
            "RES": 30,
            "CON": 25,
            "MOV": 15
        },
        "learned_skills": [],
        "wexp_gain": {
            "Sword": [
                false,
                0,
                251
            ],
            "Lance": [
                false,
                0,
                251
            ],
            "Axe": [
                false,
                0,
                251
            ],
            "Bow": [
                false,
                0,
                251
            ],
            "Knife": [
                false,
                0,
                251
            ],
            "Anima": [
                false,
                0,
                251
            ],
            "Light": [
                false,
                0,
                251
            ],
            "Dark": [
                false,
                0,
                251
            ],
            "Staff": [
                false,
                0,
                251
            ],
            "Stone": [
                true,
                0,
                251
            ],
            "Default": [
                false,
                0,
                251
            ],
            "Dragonstone": [
                false,
                0,
                251
            ]
        },
        "icon_nid": "Bael Elder {IS}",
        "icon_index": [
            0,
            0
        ],
        "map_sprite_nid": "Bael (U) Elder {IS}-stand",
        "combat_anim_nid": "Mauthe_Doog",
        "fields": []
    }
]