[
    {
        "nid": "Mercenary",
        "name": "Mercenary",
        "desc": "Professional soldiers for hire. Well-balanced, with superior abilities all around.",
        "tier": 1,
        "movement_group": "Light Foot",
        "promotes_from": null,
        "turns_into": [
            "Hero",
            "Ranger"
        ],
        "tags": [
            "Sword",
            "Infantry"
        ],
        "max_level": 40,
        "bases": {
            "HP": 18,
            "STR": 4,
            "MAG": 2,
            "SKL": 8,
            "SPD": 6,
            "LCK": 0,
            "DEF": 4,
            "RES": 0,
            "CON": 9,
            "MOV": 4
        },
        "growths": {
            "HP": 80,
            "STR": 40,
            "MAG": 20,
            "SKL": 40,
            "SPD": 32,
            "LCK": 30,
            "DEF": 18,
            "RES": 30,
            "CON": 0,
            "MOV": 0
        },
        "growth_bonus": {
            "HP": 0,
            "STR": 0,
            "MAG": 0,
            "SKL": 0,
            "SPD": 0,
            "LCK": 0,
            "DEF": 0,
            "RES": 0,
            "CON": 0,
            "MOV": 0
        },
        "promotion": {
            "HP": 0,
            "STR": 0,
            "MAG": 0,
            "SKL": 0,
            "SPD": 0,
            "LCK": 0,
            "DEF": 0,
            "RES": 0,
            "CON": 0,
            "MOV": 0
        },
        "max_stats": {
            "HP": 60,
            "STR": 20,
            "MAG": 20,
            "SKL": 20,
            "SPD": 20,
            "LCK": 30,
            "DEF": 20,
            "RES": 20,
            "CON": 20,
            "MOV": 15
        },
        "learned_skills": [],
        "wexp_gain": {
            "Sword": [
                true,
                31,
                251
            ],
            "Lance": [
                false,
                0,
                251
            ],
            "Axe": [
                false,
                0,
                251
            ],
            "Bow": [
                false,
                0,
                251
            ],
            "Knife": [
                false,
                0,
                251
            ],
            "Anima": [
                false,
                0,
                251
            ],
            "Light": [
                false,
                0,
                251
            ],
            "Dark": [
                false,
                0,
                251
            ],
            "Staff": [
                false,
                0,
                251
            ],
            "Stone": [
                false,
                0,
                251
            ],
            "Default": [
                false,
                0,
                251
            ],
            "Dragonstone": [
                false,
                0,
                251
            ]
        },
        "icon_nid": "Generic_Portrait_Mercenary",
        "icon_index": [
            0,
            0
        ],
        "map_sprite_nid": "Mercenary",
        "combat_anim_nid": "Mercenary",
        "fields": []
    }
]