[
    {
        "nid": "Mogall",
        "name": "Mogall",
        "desc": "Floating eyes filled with dark power. Simply seeing one is considered an ill omen.",
        "tier": 1,
        "movement_group": "Fliers",
        "promotes_from": null,
        "turns_into": [
            "Arch_Mogall"
        ],
        "tags": [
            "Flying",
            "Monster",
            "Magical"
        ],
        "max_level": 40,
        "bases": {
            "HP": 15,
            "STR": 0,
            "MAG": 2,
            "SKL": 1,
            "SPD": 2,
            "LCK": 0,
            "DEF": 2,
            "RES": 4,
            "CON": 4,
            "MOV": 5
        },
        "growths": {
            "HP": 50,
            "STR": 0,
            "MAG": 45,
            "SKL": 32,
            "SPD": 30,
            "LCK": 30,
            "DEF": 10,
            "RES": 28,
            "CON": 0,
            "MOV": 0
        },
        "growth_bonus": {
            "HP": 0,
            "STR": 0,
            "MAG": 0,
            "SKL": 0,
            "SPD": 0,
            "LCK": 0,
            "DEF": 0,
            "RES": 0,
            "CON": 0,
            "MOV": 0
        },
        "promotion": {
            "HP": 0,
            "STR": 0,
            "MAG": 0,
            "SKL": 0,
            "SPD": 0,
            "LCK": 0,
            "DEF": 0,
            "RES": 0,
            "CON": 0,
            "MOV": 0
        },
        "max_stats": {
            "HP": 60,
            "STR": 20,
            "MAG": 20,
            "SKL": 20,
            "SPD": 20,
            "LCK": 30,
            "DEF": 20,
            "RES": 20,
            "CON": 20,
            "MOV": 15
        },
        "learned_skills": [
            [
                1,
                "Flying"
            ]
        ],
        "wexp_gain": {
            "Sword": [
                false,
                0,
                251
            ],
            "Lance": [
                false,
                0,
                251
            ],
            "Axe": [
                false,
                0,
                251
            ],
            "Bow": [
                false,
                0,
                251
            ],
            "Knife": [
                false,
                0,
                251
            ],
            "Anima": [
                false,
                0,
                251
            ],
            "Light": [
                false,
                0,
                251
            ],
            "Dark": [
                true,
                1,
                251
            ],
            "Staff": [
                false,
                0,
                251
            ],
            "Stone": [
                false,
                0,
                251
            ],
            "Default": [
                false,
                0,
                251
            ],
            "Dragonstone": [
                false,
                0,
                251
            ]
        },
        "icon_nid": "Generic_Portrait_Mogall",
        "icon_index": [
            0,
            0
        ],
        "map_sprite_nid": "Mogall",
        "combat_anim_nid": null,
        "fields": []
    }
]