[
    {
        "nid": "Outlaw",
        "name": "Outlaw",
        "desc": "Expert in stealth and subterfuge. Possess weak attacks but many other skills.",
        "tier": 1,
        "movement_group": "Light Foot",
        "promotes_from": null,
        "turns_into": [
            "Assassin",
            "Rogue"
        ],
        "tags": [
            "Sword",
            "Infantry"
        ],
        "max_level": 40,
        "bases": {
            "HP": 16,
            "STR": 3,
            "MAG": 3,
            "SKL": 1,
            "SPD": 9,
            "LCK": 0,
            "DEF": 2,
            "RES": 0,
            "CON": 6,
            "MOV": 4
        },
        "growths": {
            "HP": 50,
            "STR": 5,
            "MAG": 5,
            "SKL": 45,
            "SPD": 40,
            "LCK": 40,
            "DEF": 5,
            "RES": 20,
            "CON": 0,
            "MOV": 0
        },
        "growth_bonus": {
            "HP": 0,
            "STR": 0,
            "MAG": 0,
            "SKL": 0,
            "SPD": 0,
            "LCK": 0,
            "DEF": 0,
            "RES": 0,
            "CON": 0,
            "MOV": 0
        },
        "promotion": {
            "HP": 0,
            "STR": 0,
            "MAG": 0,
            "SKL": 0,
            "SPD": 0,
            "LCK": 0,
            "DEF": 0,
            "RES": 0,
            "CON": 0,
            "MOV": 0
        },
        "max_stats": {
            "HP": 60,
            "STR": 20,
            "MAG": 20,
            "SKL": 20,
            "SPD": 20,
            "LCK": 30,
            "DEF": 20,
            "RES": 20,
            "CON": 20,
            "MOV": 15
        },
        "learned_skills": [],
        "wexp_gain": {
            "Sword": [
                false,
                0,
                251
            ],
            "Lance": [
                false,
                0,
                251
            ],
            "Axe": [
                false,
                0,
                251
            ],
            "Bow": [
                true,
                1,
                251
            ],
            "Knife": [
                false,
                0,
                251
            ],
            "Anima": [
                false,
                0,
                251
            ],
            "Light": [
                false,
                0,
                251
            ],
            "Dark": [
                false,
                0,
                251
            ],
            "Staff": [
                false,
                0,
                251
            ],
            "Stone": [
                false,
                0,
                251
            ],
            "Default": [
                false,
                0,
                251
            ],
            "Dragonstone": [
                false,
                0,
                251
            ]
        },
        "icon_nid": "Generic_Portrait_Thief",
        "icon_index": [
            0,
            0
        ],
        "map_sprite_nid": "Archer (M) FE14-Style Thief Bow {Rasdel}-stand",
        "combat_anim_nid": null,
        "fields": []
    }
]