[
    {
        "nid": "Tent",
        "name": "Tent",
        "desc": "",
        "tier": 1,
        "movement_group": "Light Foot",
        "promotes_from": null,
        "turns_into": [],
        "tags": [],
        "max_level": 40,
        "bases": {
            "HP": 25,
            "STR": 0,
            "MAG": 0,
            "SKL": 0,
            "SPD": 40,
            "LCK": 0,
            "DEF": 0,
            "RES": 0,
            "CON": 0,
            "MOV": 0
        },
        "growths": {
            "HP": 0,
            "STR": 0,
            "MAG": 0,
            "SKL": 0,
            "SPD": 0,
            "LCK": 0,
            "DEF": 0,
            "RES": 0,
            "CON": 0,
            "MOV": 0
        },
        "growth_bonus": {
            "HP": 0,
            "STR": 0,
            "MAG": 0,
            "SKL": 0,
            "SPD": 0,
            "LCK": 0,
            "DEF": 0,
            "RES": 0,
            "CON": 0,
            "MOV": 0
        },
        "promotion": {
            "HP": 0,
            "STR": 0,
            "MAG": 0,
            "SKL": 0,
            "SPD": 0,
            "LCK": 0,
            "DEF": 0,
            "RES": 0,
            "CON": 0,
            "MOV": 0
        },
        "max_stats": {
            "HP": 30,
            "STR": 30,
            "MAG": 30,
            "SKL": 30,
            "SPD": 40,
            "LCK": 30,
            "DEF": 30,
            "RES": 30,
            "CON": 30,
            "MOV": 30
        },
        "learned_skills": [
            [
                1,
                "NoAvoid"
            ],
            [
                1,
                "Void Curse"
            ]
        ],
        "wexp_gain": {
            "Sword": [
                false,
                0,
                251
            ],
            "Lance": [
                false,
                0,
                251
            ],
            "Axe": [
                false,
                0,
                251
            ],
            "Bow": [
                false,
                0,
                251
            ],
            "Knife": [
                false,
                0,
                251
            ],
            "Anima": [
                false,
                0,
                251
            ],
            "Light": [
                false,
                0,
                251
            ],
            "Dark": [
                false,
                0,
                251
            ],
            "Staff": [
                false,
                0,
                251
            ],
            "Stone": [
                false,
                0,
                251
            ],
            "Default": [
                false,
                0,
                251
            ],
            "Dragonstone": [
                false,
                0,
                251
            ]
        },
        "icon_nid": "Generic_Portrait_Citizen",
        "icon_index": [
            0,
            0
        ],
        "map_sprite_nid": "Transporter",
        "combat_anim_nid": null,
        "fields": []
    }
]