[
    {
        "nid": "Vigilante",
        "name": "Vigilante",
        "desc": "Radical dudes who fight crime.",
        "tier": 2,
        "movement_group": "Pirates",
        "promotes_from": "Pirate",
        "turns_into": [],
        "tags": [
            "Infantry"
        ],
        "max_level": 40,
        "bases": {
            "HP": 24,
            "STR": 7,
            "MAG": 0,
            "SKL": 6,
            "SPD": 7,
            "LCK": 0,
            "DEF": 6,
            "RES": 0,
            "CON": 13,
            "MOV": 5
        },
        "growths": {
            "HP": 75,
            "STR": 50,
            "MAG": 0,
            "SKL": 35,
            "SPD": 25,
            "LCK": 15,
            "DEF": 10,
            "RES": 13,
            "CON": 0,
            "MOV": 0
        },
        "growth_bonus": {
            "HP": 0,
            "STR": 0,
            "MAG": 0,
            "SKL": 0,
            "SPD": 0,
            "LCK": 0,
            "DEF": 0,
            "RES": 0,
            "CON": 0,
            "MOV": 0
        },
        "promotion": {
            "HP": 4,
            "STR": 1,
            "MAG": 0,
            "SKL": 1,
            "SPD": 1,
            "LCK": 0,
            "DEF": 2,
            "RES": 2,
            "CON": 3,
            "MOV": -99
        },
        "max_stats": {
            "HP": 60,
            "STR": 30,
            "MAG": 30,
            "SKL": 30,
            "SPD": 30,
            "LCK": 30,
            "DEF": 30,
            "RES": 30,
            "CON": 25,
            "MOV": 15
        },
        "learned_skills": [],
        "wexp_gain": {
            "Sword": [
                false,
                0,
                251
            ],
            "Lance": [
                false,
                0,
                251
            ],
            "Axe": [
                true,
                0,
                251
            ],
            "Bow": [
                false,
                0,
                251
            ],
            "Knife": [
                true,
                0,
                251
            ],
            "Anima": [
                false,
                0,
                251
            ],
            "Light": [
                false,
                0,
                251
            ],
            "Dark": [
                false,
                0,
                251
            ],
            "Staff": [
                false,
                0,
                251
            ],
            "Stone": [
                false,
                0,
                251
            ],
            "Default": [
                false,
                0,
                251
            ],
            "Dragonstone": [
                false,
                0,
                251
            ]
        },
        "icon_nid": "Berserker",
        "icon_index": [
            0,
            0
        ],
        "map_sprite_nid": "Berserker (M) Hawkzerker Axe {NYZgamer3}-stand",
        "combat_anim_nid": "Berserker",
        "fields": []
    }
]