[
    {
        "nid": "Aconite_Poison",
        "name": "Aconite Poison",
        "desc": "Inflicts SPD-4 after every attack.",
        "icon_nid": "LTSkillIconSheet",
        "icon_index": [
            5,
            37
        ],
        "components": [
            [
                "give_status_after_combat_on_hit",
                "SPD_minus_4"
            ],
            [
                "combat_condition",
                "skill_system.check_enemy(unit, target)"
            ]
        ]
    }
]