[
    {
        "nid": "Affinity_Raven",
        "name": "Affinity Raven",
        "desc": "Unit has weapon triangle advantage vs. Knives and Bows.",
        "icon_nid": "LTSkillIconSheet",
        "icon_index": [
            1,
            49
        ],
        "components": [
            [
                "class_skill",
                null
            ],
            [
                "combat_condition",
                "target.get_weapon() and item_system.weapon_type(target, target.get_weapon()) in ['Knife', 'Bow']"
            ],
            [
                "hit",
                20
            ],
            [
                "avoid",
                20
            ],
            [
                "damage",
                2
            ],
            [
                "attack_speed",
                99
            ]
        ]
    }
]