[
    {
        "nid": "Animus_Strike",
        "name": "Animus Strike",
        "desc": "Fire-type tomes inflict <blue>Burning</>.\nIce-type tomes inflict <blue>Chill</>.\nThunder-type tomes inflict <blue>Dazzle</>.",
        "icon_nid": "LTSkillIconSheet",
        "icon_index": [
            5,
            49
        ],
        "components": [
            [
                "class_skill",
                null
            ],
            [
                "copysafe",
                [
                    "Burn_Strike",
                    "Ice_Strike",
                    "Thunder_Strike"
                ]
            ]
        ]
    }
]