[
    {
        "nid": "Apple",
        "name": "Apple",
        "desc": "All non-boss enemies will Pursue.\nUnit will Provoke enemies.",
        "icon_nid": "{Dark} Minecraft Apple",
        "icon_index": [
            0,
            0
        ],
        "components": [
            [
                "modify_ai_priority",
                99.0
            ],
            [
                "upkeep_event",
                "Global Item_Apple"
            ]
        ]
    }
]