[
    {
        "nid": "Arcane_Tyrant",
        "name": "Arcane Tyrant",
        "desc": "Inflicts -5 MAG to ALL units within 2 spaces.",
        "icon_nid": "LTSkillIconSheet",
        "icon_index": [
            0,
            41
        ],
        "components": [
            [
                "aura",
                "Mag_Minus_5"
            ],
            [
                "aura_range",
                2
            ],
            [
                "aura_target",
                "unit"
            ],
            [
                "class_skill",
                null
            ],
            [
                "copysafe",
                []
            ]
        ]
    }
]