[
    {
        "nid": "ArcaneRestrictions",
        "name": "Arcane Restrictions",
        "desc": "This unit:\n- Cannot use the same magic type more than once per turn.\n- Cannot double from outspeeding the enemy.\n- Cannot counterattack.",
        "icon_nid": "LTSkillIconSheet",
        "icon_index": [
            5,
            14
        ],
        "components": [
            [
                "class_skill",
                null
            ],
            [
                "shit",
                null
            ],
            [
                "cannot_double",
                null
            ],
            [
                "item_override",
                "Cannot_Counter_Override"
            ],
            [
                "event_after_initiated_combat",
                "Global Ability_MinkRestrict"
            ]
        ]
    }
]