[
    {
        "nid": "Armor_Strikes",
        "name": "Armor Strikes",
        "desc": "Deals additional damage equal to half of unit's DEF.",
        "icon_nid": "LTSkillIconSheet",
        "icon_index": [
            5,
            0
        ],
        "components": [
            [
                "dynamic_damage",
                "unit.get_stat('DEF') // 2 if not 'TrueDamage' in item.tags else 0"
            ]
        ]
    }
]