[
    {
        "nid": "Armored_Wall",
        "name": "Armored Wall",
        "desc": "Each allied armor can block one attack for an ally, once per map.",
        "icon_nid": "LTSkillIconSheet",
        "icon_index": [
            3,
            37
        ],
        "components": [
            [
                "condition",
                "'Armor' in unit.tags"
            ],
            [
                "drain_charge",
                1
            ],
            [
                "ability",
                "Armored_Wall"
            ],
            [
                "hidden_if_inactive",
                null
            ]
        ]
    }
]