[
    {
        "nid": "Armor_March",
        "name": "Armor March",
        "desc": "During upkeep, if adjacent to an allied armored unit, self and all adjacent armored allies gain MOV +1.",
        "icon_nid": "LTSkillIconSheet",
        "icon_index": [
            0,
            21
        ],
        "components": [
            [
                "class_skill",
                null
            ],
            [
                "upkeep_event",
                "Global Ability_Armor_March"
            ],
            [
                "copysafe",
                []
            ]
        ]
    }
]