[
    {
        "nid": "Assimilate",
        "name": "Assimilate",
        "desc": "Kill an adjacent allied unit.\nPermanently learn one of their skills.\nCertain skills cannot be copied. Must have fewer than 6 Class Skills to use.",
        "icon_nid": "Skills",
        "icon_index": [
            3,
            2
        ],
        "components": [
            [
                "class_skill",
                null
            ],
            [
                "ability",
                "Assimilate"
            ]
        ]
    }
]