[
    {
        "nid": "Beacon_Move_3",
        "name": "Beacon Move 3",
        "desc": "",
        "icon_nid": null,
        "icon_index": [
            0,
            0
        ],
        "components": [
            [
                "stat_change",
                [
                    [
                        "MOV",
                        3
                    ]
                ]
            ],
            [
                "hidden",
                null
            ],
            [
                "condition",
                "has_skill(unit, 'Pathlight')"
            ]
        ]
    }
]