[
    {
        "nid": "Blessings",
        "name": "Blessings",
        "desc": "Heals 3 HP for an adjacent unit, and gives them Def/Res +3.",
        "icon_nid": "Skills",
        "icon_index": [
            1,
            2
        ],
        "components": [
            [
                "class_skill",
                null
            ],
            [
                "drain_charge",
                2
            ],
            [
                "ability",
                "Blessings"
            ],
            [
                "copysafe",
                []
            ],
            [
                "tether_parameters",
                {
                    "cost": 30,
                    "level": 3
                }
            ]
        ]
    }
]