[
    {
        "nid": "Blindside_Conditional",
        "name": "Blindside",
        "desc": "",
        "icon_nid": "LTSkillIconSheet",
        "icon_index": [
            2,
            41
        ],
        "components": [
            [
                "give_status_after_combat",
                "Blindsided"
            ],
            [
                "hidden",
                null
            ],
            [
                "combat_condition",
                "not combat_calcs.can_counterattack(unit, item, target, target.get_weapon())"
            ]
        ]
    }
]