[
    {
        "nid": "Blindsided",
        "name": "Blindsided",
        "desc": "Hit -30 per stack.",
        "icon_nid": "LTSkillIconSheet",
        "icon_index": [
            3,
            24
        ],
        "components": [
            [
                "hit",
                -30
            ],
            [
                "stack",
                2
            ],
            [
                "lost_on_endstep",
                null
            ],
            [
                "blinded",
                null
            ],
            [
                "negative",
                null
            ]
        ]
    }
]