[
    {
        "nid": "Blitz_Strike",
        "name": "Blitz Strike",
        "desc": "Unit moves again on a crit\nthe first time per map.",
        "icon_nid": "Skills",
        "icon_index": [
            0,
            0
        ],
        "components": [
            [
                "hidden",
                null
            ],
            [
                "drain_charge",
                1
            ],
            [
                "item_override",
                "BlitzStrikeOverride"
            ],
            [
                "condition",
                "game.phase.get_current() == unit.team"
            ]
        ]
    }
]