[
    {
        "nid": "Bloodlust_Stack",
        "name": "Bloodlust",
        "desc": "STR +2 per stack.",
        "icon_nid": "LTSkillIconSheet",
        "icon_index": [
            0,
            8
        ],
        "components": [
            [
                "stack",
                5
            ],
            [
                "stat_change",
                [
                    [
                        "STR",
                        2
                    ]
                ]
            ],
            [
                "lost_on_end_chapter",
                null
            ]
        ]
    }
]