[
    {
        "nid": "BodySnatch",
        "name": "Body Snatch",
        "desc": "Combat art. If attack is lethal, steal the enemy's body, taking their stats, class, and inventory.",
        "icon_nid": "LTSkillIconSheet",
        "icon_index": [
            0,
            46
        ],
        "components": [
            [
                "combat_art",
                "BodySnatch_Child"
            ],
            [
                "class_skill",
                null
            ],
            [
                "drain_charge",
                1
            ]
        ]
    }
]