[
    {
        "nid": "Boundless_Blade_proc",
        "name": "Boundless Blade",
        "desc": "",
        "icon_nid": "LTSkillIconSheet",
        "icon_index": [
            0,
            3
        ],
        "components": [
            [
                "combat_art_proc",
                null
            ],
            [
                "eval_damage",
                "max(0, utils.calculate_distance(unit.position, unit.previous_position)) * 0.5 if not 'TrueDamage' in item.tags else 0"
            ],
            [
                "eval_max_range",
                "max(0, utils.calculate_distance(unit.position, unit.previous_position)) * 0.5"
            ]
        ]
    }
]