[
    {
        "nid": "Brittle",
        "name": "Brittle",
        "desc": "Unit is treated as an Armored unit.",
        "icon_nid": "LTSkillIconSheet",
        "icon_index": [
            4,
            29
        ],
        "components": [
            [
                "class_skill",
                null
            ],
            [
                "has_tags",
                [
                    "Armor"
                ]
            ],
            [
                "copysafe",
                []
            ]
        ]
    }
]