[
    {
        "nid": "BrothersInArms_Alexander",
        "name": "Brothers In Arms",
        "desc": "When Isaac, Elias, and Alexander are within 2 tiles of each other, they always crit.",
        "icon_nid": "LTSkillIconSheet",
        "icon_index": [
            6,
            50
        ],
        "components": [
            [
                "crit",
                500
            ],
            [
                "class_skill",
                null
            ],
            [
                "condition",
                "len(get_units_within_distance(unit.position, dist=2, nid='Isaac')) + len(get_units_within_distance(unit.position, dist=2, nid='Elias')) >= 2"
            ]
        ]
    }
]