[
    {
        "nid": "CaptureAura",
        "name": "Capture_Aura",
        "desc": "Grants allies the Capture ability.",
        "icon_nid": "Skills",
        "icon_index": [
            0,
            0
        ],
        "components": [
            [
                "hidden",
                null
            ],
            [
                "aura",
                "Capture"
            ],
            [
                "aura_range",
                99
            ],
            [
                "aura_target",
                "ally"
            ],
            [
                "hide_aura",
                null
            ]
        ]
    }
]