[
    {
        "nid": "Capture_Piece",
        "name": "Capture Piece",
        "desc": "Combat Art.\nIf lethal, move to the spot the enemy was occupying.",
        "icon_nid": "LTSkillIconSheet",
        "icon_index": [
            1,
            6
        ],
        "components": [
            [
                "class_skill",
                null
            ],
            [
                "copysafe",
                []
            ],
            [
                "tether_parameters",
                {
                    "cost": 10,
                    "level": 1
                }
            ],
            [
                "combat_art",
                "ChessmanStep_Child"
            ]
        ]
    }
]