[
    {
        "nid": "Checkmated_Buff",
        "name": "Checkmated",
        "desc": "All enemies on the map gain +5 to all stats.",
        "icon_nid": "LTSkillIconSheet",
        "icon_index": [
            6,
            45
        ],
        "components": [
            [
                "stat_change",
                [
                    [
                        "STR",
                        5
                    ],
                    [
                        "MAG",
                        5
                    ],
                    [
                        "SKL",
                        5
                    ],
                    [
                        "SPD",
                        5
                    ],
                    [
                        "LCK",
                        5
                    ],
                    [
                        "DEF",
                        5
                    ],
                    [
                        "RES",
                        5
                    ]
                ]
            ],
            [
                "unit_anim",
                "OverchargeAura"
            ],
            [
                "lost_on_end_chapter",
                null
            ]
        ]
    }
]