[
    {
        "nid": "CheeryVisage",
        "name": "Cheery Visage",
        "desc": "Allies within 2 tiles of this unit get +2 AS.",
        "icon_nid": "LTSkillIconSheet",
        "icon_index": [
            3,
            41
        ],
        "components": [
            [
                "aura",
                "CheeryVisage_Child"
            ],
            [
                "aura_range",
                2
            ],
            [
                "aura_target",
                "ally"
            ],
            [
                "class_skill",
                null
            ],
            [
                "copysafe",
                []
            ]
        ]
    }
]