[
    {
        "nid": "CleanFight",
        "name": "Clean Fight",
        "desc": "When initiating combat, if both units are at full HP, always double and enemy cannot double.",
        "icon_nid": "LTSkillIconSheet",
        "icon_index": [
            2,
            44
        ],
        "components": [
            [
                "combat_condition",
                "(unit.get_hp() == unit.get_max_hp()) and (target.get_hp() == target.get_max_hp())"
            ],
            [
                "class_skill",
                null
            ],
            [
                "attack_pre_proc",
                "CleanFight_Proc"
            ],
            [
                "proc_rate",
                "ONE_HUNDRED"
            ],
            [
                "copysafe",
                []
            ],
            [
                "attack_speed",
                99
            ],
            [
                "defense_speed",
                99
            ]
        ]
    }
]