[
    {
        "nid": "Cold_Snap",
        "name": "Cold Snap",
        "desc": "Unleashes a magical attack against any <blue>Chilled</> or <blue>Frozen</> foe.\n5 Mt, 80 Hit. Can attack after use. Cannot perform follow-up attacks.",
        "icon_nid": "Skills",
        "icon_index": [
            3,
            8
        ],
        "components": [
            [
                "drain_charge",
                3
            ],
            [
                "ability",
                "Snapdragon"
            ],
            [
                "class_skill",
                null
            ],
            [
                "copysafe",
                []
            ],
            [
                "tether_parameters",
                {
                    "cost": 35,
                    "level": 3
                }
            ]
        ]
    }
]