[
    {
        "nid": "Consumed_Blood_Child",
        "name": "Consuming",
        "desc": "Gain <blue>Consumed Blood</> on kill.",
        "icon_nid": "LTSkillIconSheet",
        "icon_index": [
            3,
            40
        ],
        "components": [
            [
                "gain_skill_after_active_kill",
                "Consumed_Blood"
            ]
        ]
    }
]