[
    {
        "nid": "Crimson_Scatter",
        "name": "Scatter, O Blades of Crimson",
        "desc": "Adds (3 to the power of <blue>Crimson</> stacks) damage.\nOn use, ends the <blue>Blade Dance</> state.",
        "icon_nid": "Skills",
        "icon_index": [
            10,
            5
        ],
        "components": [
            [
                "class_skill",
                null
            ],
            [
                "combat_art",
                "Crimson_Scatter_Proc"
            ],
            [
                "allowed_weapons",
                "item_system.is_weapon(unit, item)"
            ],
            [
                "condition",
                "has_skill(unit, 'Crimson')"
            ]
        ]
    }
]