[
    {
        "nid": "Critical_Proc",
        "name": "Critical",
        "desc": "Charges each combat based on SKL.\nWhen full, can unleash a guaranteed Critical attack.",
        "icon_nid": "Skills",
        "icon_index": [
            10,
            5
        ],
        "components": [
            [
                "combat_art_proc",
                null
            ],
            [
                "crit",
                999
            ]
        ]
    }
]