[
    {
        "nid": "Dark_Energy_Skill",
        "name": "Dark Energy",
        "desc": "",
        "icon_nid": "Skills",
        "icon_index": [
            8,
            7
        ],
        "components": [
            [
                "hidden",
                null
            ],
            [
                "condition",
                "item_system.weapon_type(unit, item) == 'Dark'"
            ],
            [
                "event_after_combat",
                "Global Ability_DarkEnergy"
            ]
        ]
    }
]