[
    {
        "nid": "DetonatePlus",
        "name": "Detonate+",
        "desc": "Target an ally within 4 tiles. Cast a powerful AoE 1 explosion that inflicts Poison at their position, killing them.",
        "icon_nid": "LTSkillIconSheet",
        "icon_index": [
            0,
            0
        ],
        "components": [
            [
                "class_skill",
                null
            ],
            [
                "drain_charge",
                3
            ],
            [
                "ability",
                "DetonatePlus_Target"
            ],
            [
                "copysafe",
                []
            ]
        ]
    }
]