[
    {
        "nid": "Devils_Reversal",
        "name": "Devil's Reversal",
        "desc": "(31 - LCK)% chance to also damage self when Striking.",
        "icon_nid": "LTSkillIconSheet",
        "icon_index": [
            1,
            41
        ],
        "components": [
            [
                "attack_proc",
                "Devils_Reversal_Proc"
            ],
            [
                "proc_rate",
                "DEVIL_REVERSAL"
            ]
        ]
    }
]