[
    {
        "nid": "Disincorporate_S",
        "name": "Disincorporate",
        "desc": "Unit's max HP is lowered\nby 1 per stack.",
        "icon_nid": "LTSkillIconSheet",
        "icon_index": [
            2,
            29
        ],
        "components": [
            [
                "negative",
                null
            ],
            [
                "lost_on_end_chapter",
                null
            ],
            [
                "stat_change",
                [
                    [
                        "HP",
                        -1
                    ]
                ]
            ],
            [
                "stack",
                999
            ]
        ]
    }
]