[
    {
        "nid": "Distant_Counter",
        "name": "Distant Counter",
        "desc": "Unit can counterattack regardless of range.",
        "icon_nid": "LTSkillIconSheet",
        "icon_index": [
            6,
            36
        ],
        "components": [
            [
                "distant_counter",
                null
            ]
        ]
    }
]