[
    {
        "nid": "DivineArsenal",
        "name": "Divine Arsenal",
        "desc": "Combat art. Consume no durability with a staff that regenerates uses after the chapter.",
        "icon_nid": "LTSkillIconSheet",
        "icon_index": [
            2,
            34
        ],
        "components": [
            [
                "allowed_weapons",
                "item.components.get('c_uses') and item_system.weapon_type(unit, item) == 'Staff'"
            ],
            [
                "combat_art",
                "DivineArsenal_Proc"
            ],
            [
                "class_skill",
                null
            ],
            [
                "drain_charge",
                2
            ],
            [
                "copysafe",
                []
            ]
        ]
    }
]