[
    {
        "nid": "Divine_Missive",
        "name": "Divine Missive",
        "desc": "+5 HIT and CRIT AVOID for each\nbonus unit currently deployed.\n+5 HIT, CRIT, AVOID, C. AVOID\nif this unit is a bonus unit.",
        "icon_nid": "LTSkillIconSheet",
        "icon_index": [
            7,
            42
        ],
        "components": [
            [
                "class_skill",
                null
            ],
            [
                "dynamic_accuracy",
                "5 * len([unitx.nid for unitx in game.get_player_units() if unitx.nid in v('bonus_units')]) + (5 if unit.nid in v('bonus_units') else 0)"
            ],
            [
                "dynamic_crit_avoid",
                "5 * len([unitx.nid for unitx in game.get_player_units() if unitx.nid in v('bonus_units')]) + (5 if unit.nid in v('bonus_units') else 0)"
            ],
            [
                "dynamic_crit_accuracy",
                "5 if unit.nid in v('bonus_units') else 0"
            ],
            [
                "dynamic_avoid",
                "5 if unit.nid in v('bonus_units') else 0"
            ],
            [
                "copysafe",
                []
            ],
            [
                "tether_parameters",
                {
                    "cost": 20,
                    "level": 1
                }
            ]
        ]
    }
]