[
    {
        "nid": "Divide",
        "name": "Divide",
        "desc": "Create a generic clone of this unit, halving this unit's current hit points and making those the clone's hit points.",
        "icon_nid": "LTSkillIconSheet",
        "icon_index": [
            3,
            32
        ],
        "components": [
            [
                "class_skill",
                null
            ],
            [
                "ability",
                "Divide"
            ],
            [
                "condition",
                "unit.get_hp() > 1"
            ],
            [
                "drain_charge",
                2
            ]
        ]
    }
]