[
    {
        "nid": "DivineArsenal_Proc",
        "name": "Divine Arsenal",
        "desc": "Combat art. Twice per chapter, consume no durability with a staff that regenerates uses after the chapter.",
        "icon_nid": "LTSkillIconSheet",
        "icon_index": [
            2,
            34
        ],
        "components": [
            [
                "combat_art_proc",
                null
            ],
            [
                "event_before_combat",
                "Global Ability_Armsthrift_Patcher"
            ]
        ]
    }
]