[
    {
        "nid": "Dragonforme_S",
        "name": "Dragonforme",
        "desc": "All stats +4 and gain\nDragon typing.\nTake 4 damage on upkeep.",
        "icon_nid": "LTSkillIconSheet",
        "icon_index": [
            2,
            43
        ],
        "components": [
            [
                "upkeep_event",
                "Global Ability_Dragonforme"
            ],
            [
                "stat_change",
                [
                    [
                        "STR",
                        4
                    ],
                    [
                        "MAG",
                        4
                    ],
                    [
                        "SKL",
                        4
                    ],
                    [
                        "SPD",
                        4
                    ],
                    [
                        "LCK",
                        4
                    ],
                    [
                        "DEF",
                        4
                    ],
                    [
                        "RES",
                        4
                    ]
                ]
            ],
            [
                "lost_on_end_chapter",
                null
            ],
            [
                "time",
                3
            ],
            [
                "has_tags",
                [
                    "Dragon"
                ]
            ]
        ]
    }
]