[
    {
        "nid": "Duality",
        "name": "Duality",
        "desc": "+3 STR if number of magical allies exceeds number of other allies within 2 spaces, otherwise +3 MAG.",
        "icon_nid": "LTSkillIconSheet",
        "icon_index": [
            1,
            48
        ],
        "components": [
            [
                "class_skill",
                null
            ],
            [
                "stat_change_expression",
                [
                    [
                        "STR",
                        "3 if len([u for u in get_allies_within_distance(unit.position, 2) if 'Magical' in u.tags and u.nid != unit.nid]) > len([u for u in get_allies_within_distance(unit.position, 2) if not 'Magical' in u.tags and u.nid != unit.nid]) else 0"
                    ],
                    [
                        "MAG",
                        "3 if len([u for u in get_allies_within_distance(unit.position, 2) if 'Magical' in u.tags and u.nid != unit.nid]) < len([u for u in get_allies_within_distance(unit.position, 2) if not 'Magical' in u.tags and u.nid != unit.nid]) else 0"
                    ]
                ]
            ],
            [
                "copysafe",
                []
            ]
        ]
    }
]