[
    {
        "nid": "DualCast",
        "name": "Act Twice",
        "desc": "The first action this unit takes each turn is a free action.\nDoes not stack with items and abilities that are already free actions.",
        "icon_nid": "LTSkillIconSheet",
        "icon_index": [
            7,
            46
        ],
        "components": [
            [
                "class_skill",
                null
            ],
            [
                "item_override",
                "DualCastOverride"
            ],
            [
                "condition",
                "not has_skill(unit,'DualCastSpent')"
            ],
            [
                "copysafe",
                []
            ],
            [
                "event_after_initiated_combat",
                "Global Ability_DualCast"
            ]
        ]
    }
]