[
    {
        "nid": "Elemental_Attunement",
        "name": "Elemental Attunement",
        "desc": "This unit is also treated as having Fire, Ice, and Thunder affinities in addition to their own affinity.",
        "icon_nid": "LTSkillIconSheet",
        "icon_index": [
            1,
            49
        ],
        "components": [
            [
                "has_affinities",
                [
                    "Fire",
                    "Thunder",
                    "Ice"
                ]
            ],
            [
                "class_skill",
                null
            ],
            [
                "copysafe",
                []
            ]
        ]
    }
]