[
    {
        "nid": "Empowered",
        "name": "Empowered",
        "desc": "+6 damage dealt in the next combat.",
        "icon_nid": "LTSkillIconSheet",
        "icon_index": [
            2,
            47
        ],
        "components": [
            [
                "dynamic_damage",
                "6 if not 'TrueDamage' in item.tags else 0"
            ],
            [
                "lost_on_end_chapter",
                null
            ],
            [
                "lost_on_end_combat2",
                {
                    "lost_on_self": false,
                    "lost_on_ally": false,
                    "lost_on_enemy": true,
                    "lost_on_splash": true
                }
            ]
        ]
    }
]