[
    {
        "nid": "Endless_Epidemic",
        "name": "Endless Epidemic",
        "desc": "At the start of each turn, inflict 1 stack of <blue>Toxin</> to enemies within 2 spaces of a unit with <blue>Toxin</>.\nThen, inflict 1 stack of <blue>Toxin</> to a random enemy.\nDoes not effect enemies that already have <blue>Toxin</>.",
        "icon_nid": "LTSkillIconSheet",
        "icon_index": [
            2,
            40
        ],
        "components": [
            [
                "class_skill",
                null
            ],
            [
                "copysafe",
                []
            ]
        ]
    }
]