[
    {
        "nid": "Ephemeral_3",
        "name": "Ephemeral",
        "desc": "When status expires, this unit will die.",
        "icon_nid": "LTSkillIconSheet",
        "icon_index": [
            7,
            34
        ],
        "components": [
            [
                "class_skill",
                null
            ],
            [
                "combined_time",
                3
            ],
            [
                "event_on_remove",
                "Global Ability_Ephemeral"
            ]
        ]
    }
]