[
    {
        "nid": "Evasion_Penalty",
        "name": "Evasion Penalty",
        "desc": "",
        "icon_nid": "Skills",
        "icon_index": [
            0,
            0
        ],
        "components": [
            [
                "hidden",
                null
            ],
            [
                "avoid",
                -15
            ],
            [
                "stack",
                999
            ],
            [
                "lost_on_upkeep",
                null
            ],
            [
                "eval_hit",
                "10 if has_skill(unit,'CombatReflexes') else 0"
            ],
            [
                "eval_crit",
                "10 if has_skill(unit,'CombatReflexes') else 0"
            ]
        ]
    }
]