[
    {
        "nid": "FadeOut",
        "name": "Fade Out",
        "desc": "Whenever a non-generic or temporary player unit dies, summon a Ghost at the spot where they died.",
        "icon_nid": "Skills",
        "icon_index": [
            0,
            0
        ],
        "components": [
            [
                "hidden",
                null
            ]
        ]
    }
]