[
    {
        "nid": "Farswap_Scroll",
        "name": "Farswap Scroll",
        "desc": "All stats -2 while held.\nAllows the user to swap positions with an ally within 5 spaces.",
        "icon_nid": "tactics_ogre",
        "icon_index": [
            11,
            6
        ],
        "components": [
            [
                "stat_change",
                [
                    [
                        "STR",
                        -2
                    ],
                    [
                        "MAG",
                        -2
                    ],
                    [
                        "SKL",
                        -2
                    ],
                    [
                        "SPD",
                        -2
                    ],
                    [
                        "LCK",
                        -2
                    ],
                    [
                        "DEF",
                        -2
                    ],
                    [
                        "RES",
                        -2
                    ]
                ]
            ],
            [
                "ability",
                "Farswap"
            ]
        ]
    }
]