[
    {
        "nid": "Feat_EOTF",
        "name": "Feat",
        "desc": "Every 4th level, gain a feat. Choose from among 10 random copy-safe skills to obtain.",
        "icon_nid": "Skills",
        "icon_index": [
            5,
            1
        ],
        "components": [
            [
                "class_skill",
                null
            ]
        ]
    }
]