[
    {
        "nid": "First_Strike_child",
        "name": "First Strike",
        "desc": "The first attack each combat has +100 Crit.",
        "icon_nid": "LTSkillIconSheet",
        "icon_index": [
            5,
            38
        ],
        "components": []
    }
]