[
    {
        "nid": "Frigid_Blow",
        "name": "Frigid Blow",
        "desc": "When initiating, deals 20% current HP damage and inflicts <blue>Chill</> on foes within 2 spaces of target after combat.",
        "icon_nid": "LTSkillIconSheet",
        "icon_index": [
            4,
            0
        ],
        "components": [
            [
                "savage_status",
                {
                    "status": "Chilled",
                    "range": 2
                }
            ],
            [
                "savage_blow_fates",
                2
            ],
            [
                "combat_condition",
                "game.phase.get_current() == unit.team"
            ],
            [
                "hidden",
                null
            ]
        ]
    }
]