[
    {
        "nid": "FungalPuppetry",
        "name": "Fungal Puppetry",
        "desc": "Upon initiating and killing an enemy, create a generic allied copy of that enemy with 1 maximum HP and the Monstrous Nature skill. Max of 3 Fungal Puppets at a time.",
        "icon_nid": "LTSkillIconSheet",
        "icon_index": [
            0,
            48
        ],
        "components": [
            [
                "class_skill",
                null
            ],
            [
                "copysafe",
                []
            ]
        ]
    }
]