[
    {
        "nid": "Fusillade_Plus_Proc",
        "name": "Fusillade",
        "desc": "Combat Art. Make a bow attack that gains AoE 2.",
        "icon_nid": "Skills",
        "icon_index": [
            4,
            1
        ],
        "components": [
            [
                "item_override",
                "Fusillade_AoE_Override_2"
            ],
            [
                "combat_art_proc",
                null
            ]
        ]
    }
]