[
    {
        "nid": "Galeforce_Status",
        "name": "Galeforce",
        "desc": "Refreshes the unit on unit wait.",
        "icon_nid": "LTSkillIconSheet",
        "icon_index": [
            0,
            47
        ],
        "components": [
            [
                "hidden",
                null
            ],
            [
                "lost_on_end_chapter",
                null
            ]
        ]
    }
]