[
    {
        "nid": "Gemini_Swap",
        "name": "Gemini Swap",
        "desc": "Switches the on-field Gemini for the off-field Gemini.",
        "icon_nid": "LTSkillIconSheet",
        "icon_index": [
            1,
            36
        ],
        "components": [
            [
                "class_skill",
                null
            ],
            [
                "ability",
                "Gemini_Swap"
            ],
            [
                "condition",
                "get_skill(unit, 'Together').data['charge'] >= 1"
            ]
        ]
    }
]