[
    {
        "nid": "GlitterOfGold",
        "name": "Glitter of Gold",
        "desc": "Unit's Hit/Avoid/Crit/Crit Avoid are boosted by (party's gold / 100).\nMax 50.",
        "icon_nid": "LTSkillIconSheet",
        "icon_index": [
            1,
            50
        ],
        "components": [
            [
                "class_skill",
                null
            ],
            [
                "eval_hit",
                "min(game.get_money() // 100, 50)"
            ],
            [
                "eval_avoid",
                "min(game.get_money() // 100, 50)"
            ],
            [
                "eval_crit",
                "min(game.get_money() // 100, 50)"
            ],
            [
                "dynamic_crit_avoid",
                "min(game.get_money() // 100, 50)"
            ],
            [
                "copysafe",
                []
            ]
        ]
    }
]