[
    {
        "nid": "Guerilla_Movement",
        "name": "Guerilla Movement",
        "desc": "All infantry units gain Canter 1.",
        "icon_nid": "Skills",
        "icon_index": [
            0,
            0
        ],
        "components": [
            [
                "hidden",
                null
            ],
            [
                "condition",
                "'Infantry' in unit.tags"
            ],
            [
                "canter",
                1
            ]
        ]
    }
]