[
    {
        "nid": "Gun",
        "name": "Gun",
        "desc": "At the start of battle, instantly sets\none generic enemy unit to 1 HP.",
        "icon_nid": "Skills",
        "icon_index": [
            0,
            0
        ],
        "components": [
            [
                "hidden",
                null
            ]
        ]
    }
]