[
    {
        "nid": "Haymaker",
        "name": "Haymaker",
        "desc": "A standard bare-handed attack.",
        "icon_nid": "LTSkillIconSheet",
        "icon_index": [
            5,
            42
        ],
        "components": [
            [
                "class_skill",
                null
            ],
            [
                "drain_charge",
                6
            ],
            [
                "ability_attack_charge",
                "Haymaker"
            ]
        ]
    }
]