[
    {
        "nid": "Heaven_Rain_EX",
        "name": "Heaven's Downpour",
        "desc": "Every turn, Ouranos will prepare an AoE attack.\nOn the next turn, this attack will fire, dealing 10 true damage to all allies in range.",
        "icon_nid": "Skills",
        "icon_index": [
            4,
            1
        ],
        "components": [
            [
                "class_skill",
                null
            ]
        ]
    }
]