[
    {
        "nid": "Hex_Child",
        "name": "Hexed",
        "desc": "-15% avoid and crit avoid.",
        "icon_nid": "LTSkillIconSheet",
        "icon_index": [
            0,
            46
        ],
        "components": [
            [
                "avoid",
                -15
            ],
            [
                "crit_avoid",
                -15
            ]
        ]
    }
]