[
    {
        "nid": "Hidden_No_Stone",
        "name": "Hidden No Sword",
        "desc": "",
        "icon_nid": "LTSkillIconSheet",
        "icon_index": [
            0,
            30
        ],
        "components": [
            [
                "hidden",
                null
            ],
            [
                "wexp_unusable_skill",
                "Stone"
            ]
        ]
    }
]