[
    {
        "nid": "Hit_by_ChDe",
        "name": "Hit by ChDe",
        "desc": "",
        "icon_nid": "Skills",
        "icon_index": [
            0,
            0
        ],
        "components": [
            [
                "hidden",
                null
            ],
            [
                "lost_on_endstep",
                null
            ],
            [
                "lost_on_end_chapter",
                null
            ],
            [
                "lost_on_upkeep",
                null
            ]
        ]
    }
]