[
    {
        "nid": "Horseforce_Plus",
        "name": "Horseforce+",
        "desc": "Immediately take another turn.",
        "icon_nid": "Skills",
        "icon_index": [
            3,
            1
        ],
        "components": [
            [
                "class_skill",
                null
            ],
            [
                "copysafe",
                []
            ],
            [
                "ability",
                "Horseforce"
            ],
            [
                "drain_charge",
                3
            ]
        ]
    }
]