[
    {
        "nid": "Hound_Protection",
        "name": "Hound's Protection",
        "desc": "While Lupus is alive, this unit cannot be damaged.",
        "icon_nid": "LTSkillIconSheet",
        "icon_index": [
            2,
            41
        ],
        "components": [
            [
                "class_skill",
                null
            ],
            [
                "ignore_damage",
                null
            ],
            [
                "condition",
                "not is_dead('Lupus_B')"
            ]
        ]
    }
]