[
    {
        "nid": "Inadequate_Instruction_Child",
        "name": "Inadequately Instructed",
        "desc": "-3 to all stats.",
        "icon_nid": "LTSkillIconSheet",
        "icon_index": [
            5,
            20
        ],
        "components": [
            [
                "negative",
                null
            ],
            [
                "stat_change",
                [
                    [
                        "STR",
                        -3
                    ],
                    [
                        "MAG",
                        -3
                    ],
                    [
                        "SKL",
                        -3
                    ],
                    [
                        "SPD",
                        -3
                    ],
                    [
                        "LCK",
                        -3
                    ],
                    [
                        "DEF",
                        -3
                    ],
                    [
                        "RES",
                        -3
                    ]
                ]
            ],
            [
                "lost_on_upkeep",
                null
            ]
        ]
    }
]