[
    {
        "nid": "Launch",
        "name": "Launch",
        "desc": "As a free action, move any adjacent enemy unit to another tile within 3 range of this unit.",
        "icon_nid": "LTSkillIconSheet",
        "icon_index": [
            0,
            36
        ],
        "components": [
            [
                "ability",
                "Launch"
            ],
            [
                "class_skill",
                null
            ],
            [
                "drain_charge",
                2
            ],
            [
                "copysafe",
                []
            ]
        ]
    }
]