[
    {
        "nid": "Leadership_Child",
        "name": "Leadership",
        "desc": "+10 Hit.",
        "icon_nid": "LTSkillIconSheet",
        "icon_index": [
            7,
            42
        ],
        "components": [
            [
                "hit",
                10
            ]
        ]
    }
]