[
    {
        "nid": "LightRestrict",
        "name": "Light Restrict",
        "desc": "Restricted from using Light tomes.",
        "icon_nid": "LTSkillIconSheet",
        "icon_index": [
            2,
            11
        ],
        "components": [
            [
                "lost_on_endstep",
                null
            ],
            [
                "wexp_unusable_skill",
                "Light"
            ]
        ]
    }
]