[
    {
        "nid": "Luck_Plus_5",
        "name": "LCK +5",
        "desc": "Grants LCK +5.",
        "icon_nid": "Skills",
        "icon_index": [
            11,
            8
        ],
        "components": [
            [
                "stat_change",
                [
                    [
                        "LCK",
                        5
                    ]
                ]
            ]
        ]
    }
]