[
    {
        "nid": "MansplitterDebuff",
        "name": "MansplitterDebuff",
        "desc": "",
        "icon_nid": null,
        "icon_index": [
            0,
            0
        ],
        "components": [
            [
                "hidden",
                null
            ],
            [
                "stat_change_expression",
                [
                    [
                        "DEF",
                        "-1 * unit.stats['DEF']"
                    ]
                ]
            ],
            [
                "condition",
                "item.nid == 'Mansplitter'"
            ]
        ]
    }
]