[
    {
        "nid": "Master_Shove",
        "name": "Master Shove",
        "desc": "Push an adjacent unit 1 tile away. User can attack after use.",
        "icon_nid": "LTSkillIconSheet",
        "icon_index": [
            0,
            36
        ],
        "components": [
            [
                "class_skill",
                null
            ],
            [
                "ability",
                "Master_Shove"
            ],
            [
                "copysafe",
                []
            ]
        ]
    }
]