[
    {
        "nid": "Mighty_Gale",
        "name": "Mighty Gale",
        "desc": "Allies within 3 spaces gain +4 SPD and +2 MOV.",
        "icon_nid": "LTSkillIconSheet",
        "icon_index": [
            3,
            2
        ],
        "components": [
            [
                "aura",
                "Mighty_Gale_Child"
            ],
            [
                "aura_range",
                3
            ],
            [
                "aura_target",
                "ally"
            ],
            [
                "time",
                1
            ],
            [
                "hidden",
                null
            ],
            [
                "lost_on_end_chapter",
                null
            ]
        ]
    }
]