[
    {
        "nid": "Mimic",
        "name": "Mimic",
        "desc": "Permanently copies one class skill from an adjacent ally, and removes a stack of this skill.\nNot all skills can be copied.",
        "icon_nid": "LTSkillIconSheet",
        "icon_index": [
            1,
            41
        ],
        "components": [
            [
                "class_skill",
                null
            ],
            [
                "stack",
                999
            ],
            [
                "ability",
                "Mimic"
            ],
            [
                "copysafe",
                []
            ]
        ]
    }
]