[
    {
        "nid": "Miracle",
        "name": "Miracle",
        "desc": "Survive a lethal combat with 1 HP.",
        "icon_nid": "LTSkillIconSheet",
        "icon_index": [
            7,
            33
        ],
        "components": [
            [
                "class_skill",
                null
            ],
            [
                "copysafe",
                []
            ],
            [
                "TrueMiracle",
                null
            ],
            [
                "drain_charge",
                1
            ],
            [
                "condition",
                "not has_skill(unit, 'Paper_Charm_A')"
            ]
        ]
    }
]