[
    {
        "nid": "Monstrous_Crown",
        "name": "Monstrous Crown",
        "desc": "Gain +1 to all stats for each monster within 2 tiles (regardless of faction, including the user).\nGrants +2 to all stats to monsters within 2 tiles.",
        "icon_nid": "LTSkillIconSheet",
        "icon_index": [
            2,
            46
        ],
        "components": [
            [
                "stat_change_expression",
                [
                    [
                        "STR",
                        "len(get_units_within_distance(unit, 2, tag='Monster'))"
                    ],
                    [
                        "MAG",
                        "len(get_units_within_distance(unit, 2, tag='Monster'))"
                    ],
                    [
                        "SKL",
                        "len(get_units_within_distance(unit, 2, tag='Monster'))"
                    ],
                    [
                        "SPD",
                        "len(get_units_within_distance(unit, 2, tag='Monster'))"
                    ],
                    [
                        "LCK",
                        "len(get_units_within_distance(unit, 2, tag='Monster'))"
                    ],
                    [
                        "DEF",
                        "len(get_units_within_distance(unit, 2, tag='Monster'))"
                    ],
                    [
                        "RES",
                        "len(get_units_within_distance(unit, 2, tag='Monster'))"
                    ]
                ]
            ],
            [
                "aura",
                "Monstrous_Subjects"
            ],
            [
                "aura_range",
                2
            ],
            [
                "aura_target",
                "ally"
            ]
        ]
    }
]