[
    {
        "nid": "MoraleBoost",
        "name": "Morale Boost",
        "desc": "Allies within 2 tiles get +25% Hit and Avoid this turn.",
        "icon_nid": "Skills",
        "icon_index": [
            1,
            9
        ],
        "components": [
            [
                "ability",
                "MoraleBoost"
            ],
            [
                "class_skill",
                null
            ],
            [
                "drain_charge",
                1
            ],
            [
                "copysafe",
                []
            ],
            [
                "tether_parameters",
                {
                    "cost": 25,
                    "level": 1
                }
            ]
        ]
    }
]