[
    {
        "nid": "Mov_3",
        "name": "Mov 3",
        "desc": "",
        "icon_nid": null,
        "icon_index": [
            0,
            0
        ],
        "components": [
            [
                "hidden",
                null
            ],
            [
                "end_time",
                2
            ],
            [
                "stat_change",
                [
                    [
                        "MOV",
                        3
                    ]
                ]
            ]
        ]
    }
]