[
    {
        "nid": "Mutton_Chop",
        "name": "Mutton Chop",
        "desc": "Combat Art.\nAttack will ignore 100% of target's DEF.\nUnit will be <blue>Poisoned</> after combat.",
        "icon_nid": "Skills",
        "icon_index": [
            3,
            4
        ],
        "components": [
            [
                "combat_art",
                "Mutton_Chop_Proc"
            ],
            [
                "class_skill",
                null
            ],
            [
                "drain_charge",
                2
            ],
            [
                "allowed_weapons",
                "item_system.is_weapon(unit, item) and not item_funcs.is_magic(unit, item)"
            ],
            [
                "copysafe",
                []
            ]
        ]
    }
]