[
    {
        "nid": "Night_Terror",
        "name": "Night Terror",
        "desc": "At the start of battle, summons a Nightmare.\nThis Nightmare grows in power for every cast of <blue>Sweet Dreams</> the unit has done.",
        "icon_nid": "LTSkillIconSheet",
        "icon_index": [
            2,
            41
        ],
        "components": [
            [
                "class_skill",
                null
            ],
            [
                "copysafe",
                [
                    "Sleep_Autumn"
                ]
            ]
        ]
    }
]