[
    {
        "nid": "No_Lateral",
        "name": "No Lateral",
        "desc": "Used to prevent Bishop from counterattacking laterally.",
        "icon_nid": "Skills",
        "icon_index": [
            0,
            0
        ],
        "components": [
            [
                "combat_condition",
                "item.nid == 'PapalFerula' and not((unit.position[0] - target.position[0] == unit.position[1] - target.position[1]) or (unit.position[0] - target.position[0] == -1 * (unit.position[1] - target.position[1])))"
            ],
            [
                "item_override",
                "Cannot_Counter_Override"
            ],
            [
                "hidden",
                null
            ]
        ]
    }
]