[
    {
        "nid": "Nothing",
        "name": "Nothing",
        "desc": "No skill equipped.",
        "icon_nid": "Skills",
        "icon_index": [
            0,
            0
        ],
        "components": [
            [
                "hidden",
                null
            ],
            [
                "stack",
                999
            ]
        ]
    }
]