[
    {
        "nid": "Nullify",
        "name": "Nullify",
        "desc": "Unit does not take effective damage.",
        "icon_nid": "LTSkillIconSheet",
        "icon_index": [
            1,
            39
        ],
        "components": [
            [
                "negate_tags",
                [
                    "Flying",
                    "Magical",
                    "Horse",
                    "Armor",
                    "Infantry",
                    "Dragon",
                    "Beast"
                ]
            ],
            [
                "class_skill",
                null
            ],
            [
                "copysafe",
                []
            ],
            [
                "tether_parameters",
                {
                    "cost": 25,
                    "level": 3
                }
            ]
        ]
    }
]