[
    {
        "nid": "Observe",
        "name": "Observe",
        "desc": "When initiating combat, if unit didn't move, unit adds MOV to maximum range.",
        "icon_nid": "LTSkillIconSheet",
        "icon_index": [
            4,
            32
        ],
        "components": [
            [
                "eval_range",
                "unit.stats['MOV']"
            ],
            [
                "class_skill",
                null
            ],
            [
                "condition",
                "(utils.calculate_distance(unit.position, unit.previous_position) == 0) and (game.phase.get_current() == unit.team) and (item_system.is_weapon(unit, item)) and not any(s.unselectable for s in unit.skills)"
            ],
            [
                "copysafe",
                []
            ]
        ]
    }
]