[
    {
        "nid": "Outdoors",
        "name": "Outdoors",
        "desc": "This unit is standing outside like a dumbass",
        "icon_nid": "Skills",
        "icon_index": [
            0,
            0
        ],
        "components": [
            [
                "hidden",
                null
            ],
            [
                "lost_on_end_chapter",
                null
            ]
        ]
    }
]