[
    {
        "nid": "Overrun",
        "name": "Overrun",
        "desc": "All cavalry units have Pass.",
        "icon_nid": "Skills",
        "icon_index": [
            0,
            0
        ],
        "components": [
            [
                "hidden",
                null
            ],
            [
                "condition",
                "'Horse' in unit.tags"
            ],
            [
                "pass",
                null
            ]
        ]
    }
]