[
    {
        "nid": "Poison_Strikes",
        "name": "Poison Strikes",
        "desc": "The next 3 strikes will inflict Poison.",
        "icon_nid": "Skills",
        "icon_index": [
            3,
            4
        ],
        "components": [
            [
                "drain_charge",
                3
            ],
            [
                "give_status_after_hit",
                "Poisoned"
            ],
            [
                "combat_condition",
                "not target or target.team in ['enemy', 'enemy2']"
            ],
            [
                "lost_on_end_chapter",
                null
            ]
        ]
    }
]