[
    {
        "nid": "PowerModulation",
        "name": "Power Modulation",
        "desc": "Gain +2 to a standard stat of your choice for the remainder of the chapter. Free action, stacking. Costs 1 stack of Modular to use.",
        "icon_nid": "LTSkillIconSheet",
        "icon_index": [
            0,
            5
        ],
        "components": [
            [
                "class_skill",
                null
            ],
            [
                "condition",
                "len([s for s in unit.skills if s.nid == 'Modular']) >= 1"
            ],
            [
                "ability",
                "PowerModulation"
            ]
        ]
    }
]