[
    {
        "nid": "ProfaneHeart_Permanent",
        "name": "Profane Heart",
        "desc": "Unit has devoured the Profane Heart. +10% Hit/Avoid.",
        "icon_nid": "nikolas_datura_items",
        "icon_index": [
            4,
            0
        ],
        "components": [
            [
                "class_skill",
                null
            ],
            [
                "copysafe",
                []
            ],
            [
                "hit",
                10
            ],
            [
                "avoid",
                10
            ]
        ]
    }
]