[
    {
        "nid": "Protocol_HUNT",
        "name": "Protocol: HUNT",
        "desc": "Inflict -50 Avoid/C.Avoid  on 1 enemy on the map that's at least 5 spaces away. Refreshes when target is dead.\nWhile target is alive, unit cannot crit against non-target units.",
        "icon_nid": "LTSkillIconSheet",
        "icon_index": [
            3,
            40
        ],
        "components": [
            [
                "ability_attack_charge",
                "Protocol_HUNT"
            ],
            [
                "drain_charge",
                1
            ],
            [
                "class_skill",
                null
            ]
        ]
    }
]