[
    {
        "nid": "Queen_Command",
        "name": "Queen's Command",
        "desc": "Gain +1 to all stats for each allied Chess piece within 3 tiles (excluding the user).",
        "icon_nid": "LTSkillIconSheet",
        "icon_index": [
            6,
            45
        ],
        "components": [
            [
                "stat_change_expression",
                [
                    [
                        "STR",
                        "len([x for x in get_allies_within_distance(unit, 3) if 'Chess' in x.tags and x.nid != unit.nid])"
                    ],
                    [
                        "MAG",
                        "len([x for x in get_allies_within_distance(unit, 3) if 'Chess' in x.tags and x.nid != unit.nid])"
                    ],
                    [
                        "SKL",
                        "len([x for x in get_allies_within_distance(unit, 3) if 'Chess' in x.tags and x.nid != unit.nid])"
                    ],
                    [
                        "SPD",
                        "len([x for x in get_allies_within_distance(unit, 3) if 'Chess' in x.tags and x.nid != unit.nid])"
                    ],
                    [
                        "LCK",
                        "len([x for x in get_allies_within_distance(unit, 3) if 'Chess' in x.tags and x.nid != unit.nid])"
                    ],
                    [
                        "DEF",
                        "len([x for x in get_allies_within_distance(unit, 3) if 'Chess' in x.tags and x.nid != unit.nid])"
                    ],
                    [
                        "RES",
                        "len([x for x in get_allies_within_distance(unit, 3) if 'Chess' in x.tags and x.nid != unit.nid])"
                    ]
                ]
            ],
            [
                "class_skill",
                null
            ],
            [
                "copysafe",
                []
            ]
        ]
    }
]