[
    {
        "nid": "Quick_Reposte",
        "name": "Quick Reposte",
        "desc": "If foe initiates combat, unit performs a follow-up attack.",
        "icon_nid": "LTSkillIconSheet",
        "icon_index": [
            2,
            32
        ],
        "components": [
            [
                "class_skill",
                null
            ],
            [
                "combat_condition",
                "mode == 'defense'"
            ],
            [
                "attack_speed",
                99
            ],
            [
                "copysafe",
                []
            ],
            [
                "tether_parameters",
                {
                    "cost": 40,
                    "level": 3
                }
            ]
        ]
    }
]