[
    {
        "nid": "Radiant_Stance",
        "name": "Radiant Stance",
        "desc": "During enemy phase,\nbonus damage equal to\ntriple number of ailments.",
        "icon_nid": "Skills",
        "icon_index": [
            4,
            6
        ],
        "components": [
            [
                "class_skill",
                null
            ],
            [
                "copysafe",
                []
            ],
            [
                "dynamic_damage",
                "get_debuff_count(unit) * 3 if mode != 'attack' else 0"
            ]
        ]
    }
]