[
    {
        "nid": "Riposte_Arc_Nerf",
        "name": "Riposte Arc Effective Power Loss",
        "desc": "",
        "icon_nid": "Skills",
        "icon_index": [
            0,
            0
        ],
        "components": [
            [
                "hidden",
                null
            ],
            [
                "dynamic_damage",
                "-2 * unit.get_weapon().damage.value if mode == 'attack' and not 'TrueDamage' in item.tags and item.effective_damage and any([tag in item.effective_damage.tags for tag in target.tags]) else 0"
            ]
        ]
    }
]