[
    {
        "nid": "Rivalry",
        "name": "Rivalry",
        "desc": "If another ally kills a unit before this unit, +30 hit and +3 Move. ",
        "icon_nid": "LTSkillIconSheet",
        "icon_index": [
            2,
            44
        ],
        "components": [
            [
                "aura",
                "Rivalry_Child"
            ],
            [
                "aura_range",
                99
            ],
            [
                "aura_target",
                "ally"
            ],
            [
                "hide_aura",
                null
            ],
            [
                "class_skill",
                null
            ],
            [
                "copysafe",
                []
            ]
        ]
    }
]