[
    {
        "nid": "Rivalry_Child",
        "name": "Rivalry",
        "desc": "If unit kills before the main unit, main unit gains +30 hit/+3 Move.",
        "icon_nid": "LTSkillIconSheet",
        "icon_index": [
            2,
            44
        ],
        "components": [
            [
                "event_after_kill",
                "Global Ability_Rivalry"
            ]
        ]
    }
]