[
    {
        "nid": "Rot_Aura_S",
        "name": "Rot Aura",
        "desc": "Foes starting turn or waiting\nwithin aura gain a Toxin stack.",
        "icon_nid": "LTSkillIconSheet",
        "icon_index": [
            1,
            40
        ],
        "components": [
            [
                "aura",
                "Rot_Aura_A"
            ],
            [
                "aura_range",
                3
            ],
            [
                "aura_target",
                "enemy"
            ],
            [
                "time",
                3
            ]
        ]
    }
]