[
    {
        "nid": "Rusty_Strike",
        "name": "Rusty Strike",
        "desc": "Inflicts <blue>Toxin</> after every attack.",
        "icon_nid": "Skills",
        "icon_index": [
            10,
            8
        ],
        "components": [
            [
                "give_status_after_combat_on_hit",
                "Toxin"
            ],
            [
                "combat_condition",
                "skill_system.check_enemy(unit, target)"
            ]
        ]
    }
]