[
    {
        "nid": "Save_the_Queen",
        "name": "Save the Queen",
        "desc": "Moves an ally within 5 spaces to any tile within 3 spaces.",
        "icon_nid": "Skills",
        "icon_index": [
            7,
            7
        ],
        "components": [
            [
                "class_skill",
                null
            ],
            [
                "ability",
                "Save_the_Queen"
            ],
            [
                "drain_charge",
                2
            ],
            [
                "copysafe",
                []
            ],
            [
                "tether_parameters",
                {
                    "cost": 10,
                    "level": 4
                }
            ]
        ]
    }
]