[
    {
        "nid": "Scorched_Skies",
        "name": "Scorched Skies",
        "desc": "Flying allies within 3 spaces ignore effectiveness.\nDuring upkeep, inflict <Blue>Burning</> on all foes within 3 spaces.",
        "icon_nid": "LTSkillIconSheet",
        "icon_index": [
            2,
            50
        ],
        "components": [
            [
                "class_skill",
                null
            ],
            [
                "aura",
                "Winged_Guard"
            ],
            [
                "aura_range",
                3
            ],
            [
                "aura_target",
                "ally"
            ],
            [
                "copysafe",
                []
            ],
            [
                "upkeep_aoe_skill_gain",
                {
                    "skill": "Burning",
                    "range": 3,
                    "affect_self": false,
                    "target": "enemy"
                }
            ],
            [
                "tether_parameters",
                {
                    "cost": 35,
                    "level": 3
                }
            ]
        ]
    }
]