[
    {
        "nid": "Serial_Status",
        "name": "Serial",
        "desc": "Lethal attacks will allow unit to act again.",
        "icon_nid": "Skills",
        "icon_index": [
            4,
            3
        ],
        "components": [
            [
                "item_override",
                "Serial_Tag_Override"
            ],
            [
                "lost_on_endstep",
                null
            ],
            [
                "lost_on_end_chapter",
                null
            ]
        ]
    }
]