[
    {
        "nid": "ShadowSlip",
        "name": "Shadow Slip",
        "desc": "Once per turn, as a free action, Beau can swap positions with the paired unit.",
        "icon_nid": "Skills",
        "icon_index": [
            9,
            3
        ],
        "components": [
            [
                "charges_per_turn",
                1
            ],
            [
                "ability",
                "ShadowSlip"
            ],
            [
                "class_skill",
                null
            ]
        ]
    }
]