[
    {
        "nid": "Shield_Order_Child",
        "name": "Shield Order",
        "desc": "+2 DEF/RES/LCK and <blue>Wary Fighter</>.",
        "icon_nid": "LTSkillIconSheet",
        "icon_index": [
            4,
            2
        ],
        "components": [
            [
                "stat_change",
                [
                    [
                        "DEF",
                        2
                    ],
                    [
                        "RES",
                        2
                    ],
                    [
                        "LCK",
                        2
                    ]
                ]
            ],
            [
                "attack_speed",
                -99
            ],
            [
                "defense_speed",
                99
            ],
            [
                "time",
                1
            ]
        ]
    }
]