[
    {
        "nid": "Show_Off",
        "name": "Show-Off",
        "desc": "Combat Art. Requires enemy HP above 75% and an ally within 2 spaces.\n-25 Hit/Avoid and -3/+3 damage dealt/taken.\n<blue>Desperation</>. Foes always perform a follow-up attack.\nOn kill gain stacking +5 Hit and +2 damage dealt.",
        "icon_nid": "LTSkillIconSheet",
        "icon_index": [
            0,
            42
        ],
        "components": [
            [
                "class_skill",
                null
            ],
            [
                "combat_art",
                "Show_Off_Child"
            ],
            [
                "allowed_weapons",
                "item_system.is_weapon(unit, item)"
            ],
            [
                "condition",
                "len([u for u in get_allies_within_distance(unit.position, 2)]) > 1"
            ],
            [
                "copysafe",
                []
            ]
        ]
    }
]