[
    {
        "nid": "Sixth_Armor",
        "name": "Sixth Armor",
        "desc": "Fuels some of unit's other skills.\nWhen defeating a foe, gain +1 charge.\nUnit is treated as an <violet>Armor</>.",
        "icon_nid": "LTSkillIconSheet",
        "icon_index": [
            4,
            37
        ],
        "components": [
            [
                "class_skill",
                null
            ],
            [
                "drain_charge",
                6
            ],
            [
                "kill_charge_increase",
                1
            ],
            [
                "copysafe",
                [
                    "Combat_Order",
                    "Shield_Order"
                ]
            ],
            [
                "has_tags",
                [
                    "Armor"
                ]
            ],
            [
                "tether_parameters",
                {
                    "cost": 50,
                    "level": 4
                }
            ]
        ]
    }
]