[
    {
        "nid": "Soak",
        "name": "Soak",
        "desc": "As a free action, select 3 valid tiles to convert into sea tiles.",
        "icon_nid": "LTSkillIconSheet",
        "icon_index": [
            5,
            8
        ],
        "components": [
            [
                "ability",
                "Soak"
            ],
            [
                "copysafe",
                []
            ],
            [
                "class_skill",
                null
            ],
            [
                "charges_per_turn",
                1
            ]
        ]
    }
]