[
    {
        "nid": "Soul_For_Soul",
        "name": "Soul_For_Soul",
        "desc": "When surrounding a permanent party\nmember with four allies that are\nadjacent to no other units,\nthat party member can sacrifice itself\nto revive another unit.",
        "icon_nid": "Skills",
        "icon_index": [
            0,
            0
        ],
        "components": [
            [
                "hidden",
                null
            ],
            [
                "condition",
                "any([u for u in game.get_all_units_in_party() if is_dead(u.nid) and 'Banished' not in u.tags]) and len([u for u in get_allies_within_distance(unit, 1) if len(get_units_within_distance(u)) == 2]) == 4 and not unit.generic"
            ],
            [
                "ability",
                "Soul_For_Soul"
            ]
        ]
    }
]