[
    {
        "nid": "Spark_Buddies_Plus_Sub",
        "name": "Spark Buddies!+",
        "desc": "",
        "icon_nid": "LTSkillIconSheet",
        "icon_index": [
            2,
            4
        ],
        "components": [
            [
                "hidden",
                null
            ],
            [
                "aura",
                "Spark_Buddies_Plus_Sub_A"
            ],
            [
                "aura_range",
                99
            ],
            [
                "aura_target",
                "ally"
            ],
            [
                "hide_aura",
                null
            ]
        ]
    }
]