[
    {
        "nid": "SpiritChanneler",
        "name": "Spirit Channeler",
        "desc": "Allies within 2 spaces gain a stat bonus dependent on their affinity.",
        "icon_nid": "LTSkillIconSheet",
        "icon_index": [
            2,
            43
        ],
        "components": [
            [
                "copysafe",
                []
            ],
            [
                "class_skill",
                null
            ],
            [
                "aura",
                "SpiritChanneler_Child"
            ],
            [
                "aura_range",
                2
            ],
            [
                "aura_target",
                "ally"
            ],
            [
                "tether_parameters",
                {
                    "cost": 30,
                    "level": 2
                }
            ]
        ]
    }
]