[
    {
        "nid": "SpurDamage",
        "name": "Spur Damage",
        "desc": "+3 Strength/Magic to adjacent allies.",
        "icon_nid": "LTSkillIconSheet",
        "icon_index": [
            1,
            13
        ],
        "components": [
            [
                "class_skill",
                null
            ],
            [
                "aura",
                "SpurDamage_Child"
            ],
            [
                "aura_range",
                1
            ],
            [
                "aura_target",
                "ally"
            ],
            [
                "copysafe",
                []
            ],
            [
                "tether_parameters",
                {
                    "cost": 30,
                    "level": 1
                }
            ]
        ]
    }
]