[
    {
        "nid": "Stonefaire",
        "name": "Stonefaire",
        "desc": "+4 damage dealt with Stones.",
        "icon_nid": "LTSkillIconSheet",
        "icon_index": [
            5,
            31
        ],
        "components": [
            [
                "class_skill",
                null
            ],
            [
                "damage",
                4
            ],
            [
                "combat_condition",
                "unit.get_weapon() and item_system.weapon_type(unit, unit.get_weapon()) == 'Stone' and not 'TrueDamage' in item.tags"
            ],
            [
                "copysafe",
                []
            ]
        ]
    }
]