[
    {
        "nid": "SturdyClaws",
        "name": "Sturdy Claws",
        "desc": "When initiating combat, unit cannot be crit or doubled, and inflicts Weakened on the foe after combat.",
        "icon_nid": "Skills",
        "icon_index": [
            10,
            8
        ],
        "components": [
            [
                "class_skill",
                null
            ],
            [
                "combat_condition",
                "mode == 'attack' and skill_system.check_enemy(unit, target)"
            ],
            [
                "defense_speed",
                99
            ],
            [
                "crit_avoid",
                999
            ],
            [
                "item_override",
                "SturdyClawsOverride"
            ],
            [
                "copysafe",
                []
            ]
        ]
    }
]