[
    {
        "nid": "Swift_As_Lightning",
        "name": "Swift As Lightning",
        "desc": "Attack twice when initiating if both:\n- Target cannot counter OR unit is charged\n- Thunder or Fire Dragon ally is within 3 spaces",
        "icon_nid": "LTSkillIconSheet",
        "icon_index": [
            2,
            6
        ],
        "components": [
            [
                "class_skill",
                null
            ],
            [
                "copysafe",
                []
            ],
            [
                "dynamic_multiattacks",
                "1 if mode == 'attack' and (not combat_calcs.can_counterattack(unit, item, target, target.get_weapon()) or has_skill(unit, 'Charged')) else 0"
            ],
            [
                "condition",
                "any([u for u in game.get_player_units() if (u.affinity == 'Thunder' or any([s.has_affinities and 'Thunder' in s.has_affinities.value for s in u.skills])) and u.nid != unit.nid and utils.calculate_distance(unit.position, u.position) <= 3]) or any([u for u in game.get_player_units() if (u.affinity == 'Fire' or any([s.has_affinities and 'Fire' in s.has_affinities.value for s in u.skills])) and 'Dragon' in u.tags and utils.calculate_distance(unit.position, u.position) <= 3 and u.nid != unit.nid])"
            ],
            [
                "combat_condition",
                "item_system.weapon_type(unit, item) != 'Staff' and not item_system.is_spell(unit, item) and not item.usable and not item.usable_in_base"
            ]
        ]
    }
]