[
    {
        "nid": "Sword_Magician",
        "name": "Sword Magician",
        "desc": "This unit can use any Magic Sword, regardless of weapon rank.\nIf using a Magic Sword, +10 Hit during combat.",
        "icon_nid": "LTSkillIconSheet",
        "icon_index": [
            0,
            31
        ],
        "components": [
            [
                "class_skill",
                null
            ],
            [
                "has_tags",
                [
                    "Magician"
                ]
            ],
            [
                "copysafe",
                []
            ],
            [
                "dynamic_accuracy",
                "10 if item.magic_weapon_rank and item.weapon_type and item.weapon_type.value == 'Sword' else 0"
            ]
        ]
    }
]