[
    {
        "nid": "ThanatosBoon",
        "name": "Thanatos's Boon",
        "desc": "If unit dies, all other deployed units gain 1 to each stat.\nOnly triggers once.",
        "icon_nid": "LTSkillIconSheet",
        "icon_index": [
            1,
            41
        ],
        "components": []
    }
]