[
    {
        "nid": "The_Hunt",
        "name": "The Hunt",
        "desc": "Allies within 2 spaces deal 5 <green>Non-Combat Damage</> to foes after combat.",
        "icon_nid": "LTSkillIconSheet",
        "icon_index": [
            2,
            46
        ],
        "components": [
            [
                "class_skill",
                null
            ],
            [
                "copysafe",
                []
            ],
            [
                "aura",
                "The_Hunt_Child"
            ],
            [
                "aura_range",
                2
            ],
            [
                "aura_target",
                "ally"
            ],
            [
                "post_combat_damage",
                5
            ]
        ]
    }
]