[
    {
        "nid": "Thundering_Clap_Child",
        "name": "Thundering Clap",
        "desc": "Combat art. Strike from 3 range.",
        "icon_nid": "LTSkillIconSheet",
        "icon_index": [
            2,
            3
        ],
        "components": [
            [
                "item_override",
                "Three_Range_Override"
            ],
            [
                "combat_art_proc",
                null
            ]
        ]
    }
]