[
    {
        "nid": "Tidal_Surge",
        "name": "Tidal Surge",
        "desc": "When allies' HP changes as the result of an <green>interaction</> or <brown>ailments</>:\nAll allies gain a stacking +1 bonus to Damage Dealt (Max 10).\nIf recast, buff resets.",
        "icon_nid": "LTSkillIconSheet",
        "icon_index": [
            5,
            2
        ],
        "components": [
            [
                "lost_on_end_chapter",
                null
            ],
            [
                "time",
                3
            ],
            [
                "event_on_remove",
                "Global Ability_Tidal_Surge_Remove"
            ],
            [
                "event_before_combat",
                "Global Ability_Tidal_Surge_Start"
            ],
            [
                "event_after_combat",
                "Global Ability_Tidal_Surge_End"
            ]
        ]
    }
]