[
    {
        "nid": "Unstoppable",
        "name": "Unstoppable",
        "desc": "At 1 range, if STR is more than target's STR, unit doubles and cannot be doubled.",
        "icon_nid": "LTSkillIconSheet",
        "icon_index": [
            6,
            42
        ],
        "components": [
            [
                "class_skill",
                null
            ],
            [
                "copysafe",
                []
            ],
            [
                "combat_condition",
                "((unit.get_stat('STR') > target.get_stat('STR')) and (utils.calculate_distance(unit.position, target.position) == 1))"
            ],
            [
                "attack_speed",
                99
            ],
            [
                "defense_speed",
                99
            ],
            [
                "tether_parameters",
                {
                    "cost": 40,
                    "level": 4
                }
            ]
        ]
    }
]