[
    {
        "nid": "Unyielding_Defense_Child",
        "name": "Unyielding Defense",
        "desc": "+5 DEF/RES",
        "icon_nid": "LTSkillIconSheet",
        "icon_index": [
            4,
            45
        ],
        "components": [
            [
                "stat_change",
                [
                    [
                        "DEF",
                        5
                    ],
                    [
                        "RES",
                        5
                    ]
                ]
            ],
            [
                "time",
                1
            ],
            [
                "lost_on_end_chapter",
                null
            ]
        ]
    }
]