[
    {
        "nid": "VantagePlus",
        "name": "Vantage+",
        "desc": "Unit always attacks first.",
        "icon_nid": "Skills",
        "icon_index": [
            1,
            7
        ],
        "components": [
            [
                "class_skill",
                null
            ],
            [
                "vantage",
                null
            ],
            [
                "copysafe",
                []
            ]
        ]
    }
]