[
    {
        "nid": "Vitalizing_Smite_Proc",
        "name": "Vitalizing Smite",
        "desc": "",
        "icon_nid": "ZessDynamiteSkillsys",
        "icon_index": [
            3,
            9
        ],
        "components": [
            [
                "combat_art_proc",
                null
            ],
            [
                "ally_lifelink_target",
                0.5
            ],
            [
                "dynamic_damage",
                "unit.get_stat('MAG')"
            ]
        ]
    }
]