[
    {
        "nid": "Voices_On_High_Proc",
        "name": "Voices On High",
        "desc": "LCK% chance for effective damage against all foes, and to gain another Verse.",
        "icon_nid": "LTSkillIconSheet",
        "icon_index": [
            0,
            43
        ],
        "components": [
            [
                "item_override",
                "Omni_Effective_Override"
            ],
            [
                "event_after_combat",
                "Global Ability_Scripture"
            ]
        ]
    }
]