[
    {
        "nid": "War_Cry_Ally",
        "name": "War Cried",
        "desc": "+5 Str/Mag and <blue>Berserked</> .",
        "icon_nid": "LTSkillIconSheet",
        "icon_index": [
            0,
            2
        ],
        "components": [
            [
                "stat_change",
                [
                    [
                        "STR",
                        5
                    ],
                    [
                        "MAG",
                        5
                    ]
                ]
            ],
            [
                "ignore_alliances",
                null
            ],
            [
                "change_ai",
                "Pursue"
            ],
            [
                "time",
                1
            ],
            [
                "unselectable",
                null
            ],
            [
                "lost_on_upkeep",
                null
            ],
            [
                "unit_anim",
                "MapBerserk"
            ],
            [
                "modify_ai_priority",
                0.5
            ]
        ]
    }
]