[
    {
        "nid": "We_Wont_Give_Up",
        "name": "We Won't Give Up!",
        "desc": "If Basil is deployed and survives\na chapter while this unit dies,\nrevive this unit, taking half of\nBasil's health.",
        "icon_nid": "LTSkillIconSheet",
        "icon_index": [
            4,
            43
        ],
        "components": [
            [
                "class_skill",
                null
            ]
        ]
    }
]