[
    {
        "nid": "Weaver_Plus",
        "name": "Weaver+",
        "desc": "Adjacent allies can warp to other allies.",
        "icon_nid": "Skills",
        "icon_index": [
            10,
            4
        ],
        "components": [
            [
                "class_skill",
                null
            ],
            [
                "copysafe",
                []
            ],
            [
                "aura",
                "WeaverStatus"
            ],
            [
                "aura_range",
                2
            ],
            [
                "aura_target",
                "ally"
            ]
        ]
    }
]