[
    {
        "nid": "WhiteVisage_Child",
        "name": "White Visage",
        "desc": "+10% Hit.",
        "icon_nid": "LTSkillIconSheet",
        "icon_index": [
            1,
            41
        ],
        "components": [
            [
                "hit",
                10
            ]
        ]
    }
]