[
    {
        "nid": "WindwardFieldPlus",
        "name": "Windward Field+",
        "desc": "Allies within 3 tiles gain +1 MOV and Canto+.",
        "icon_nid": "LTSkillIconSheet",
        "icon_index": [
            4,
            33
        ],
        "components": [
            [
                "class_skill",
                null
            ],
            [
                "aura",
                "WindwardField_Child"
            ],
            [
                "aura_range",
                3
            ],
            [
                "aura_target",
                "ally"
            ],
            [
                "copysafe",
                []
            ]
        ]
    }
]