[
    {
        "nid": "X_Plague",
        "name": "X Plague",
        "desc": "All enemies inflict <blue>Toxin</> on their attackers when struck during player phase.",
        "icon_nid": "Skills",
        "icon_index": [
            0,
            0
        ],
        "components": [
            [
                "hidden",
                null
            ],
            [
                "condition",
                "unit.team in ['enemy','enemy2'] and game.game_vars.get('Active_Stratagems') and 'X_Plague' in game.game_vars.get('Active_Stratagems')"
            ],
            [
                "global",
                null
            ],
            [
                "combat_condition",
                "mode != 'attack'"
            ],
            [
                "give_status_on_take_hit",
                "Toxin"
            ]
        ]
    }
]