[
    {
        "nid": "BehindYou",
        "name": "Behind You...",
        "desc": "+50 hit against enemies adjacent to an ally.",
        "icon_nid": "{LordGlenn} {ArchaneaIconProject} 2019",
        "icon_index": [
            15,
            4
        ],
        "components": [
            [
                "weapon",
                null
            ],
            [
                "target_enemy",
                null
            ],
            [
                "min_range",
                2
            ],
            [
                "max_range",
                2
            ],
            [
                "damage",
                12
            ],
            [
                "hit",
                50
            ],
            [
                "crit",
                0
            ],
            [
                "weight",
                11
            ],
            [
                "weapon_type",
                "Dark"
            ],
            [
                "weapon_rank",
                "D"
            ],
            [
                "map_hit_add_blend",
                [
                    72,
                    0,
                    65
                ]
            ],
            [
                "magic",
                null
            ],
            [
                "value",
                200
            ],
            [
                "status_on_equip",
                "BackupBow"
            ]
        ]
    }
]