[
    {
        "nid": "Blessings",
        "name": "Blessings",
        "desc": "Heals 3 HP for an adjacent unit, and gives them Def/Res +3.",
        "icon_nid": "Skills",
        "icon_index": [
            1,
            2
        ],
        "components": [
            [
                "spell",
                null
            ],
            [
                "min_range",
                1
            ],
            [
                "max_range",
                1
            ],
            [
                "magic",
                null
            ],
            [
                "target_ally",
                null
            ],
            [
                "heal",
                3
            ],
            [
                "status_on_hit",
                "Blessings_Buff"
            ],
            [
                "item_tags",
                [
                    "AbilityItem"
                ]
            ]
        ]
    }
]