[
    {
        "nid": "Blizzard_Stone",
        "name": "Blizzard Stone",
        "desc": "Cannot perform follow-up attacks.\n<violet>Dragon</>: Magical. Strikes the weaker of DEF or RES.",
        "icon_nid": "Batima_Stones",
        "icon_index": [
            13,
            0
        ],
        "components": [
            [
                "weapon",
                null
            ],
            [
                "eval_dragon",
                "'Dragon' in unit.tags or 'FellDragon' in unit.tags"
            ],
            [
                "target_enemy",
                null
            ],
            [
                "value",
                400
            ],
            [
                "damage",
                9
            ],
            [
                "hit",
                75
            ],
            [
                "crit",
                0
            ],
            [
                "min_range",
                4
            ],
            [
                "max_range",
                4
            ],
            [
                "transform",
                null
            ],
            [
                "weapon_type",
                "Stone"
            ],
            [
                "weapon_rank",
                "B"
            ],
            [
                "weight",
                14
            ],
            [
                "no_double",
                null
            ]
        ]
    }
]