[
    {
        "nid": "Call_Lads",
        "name": "Call Lads",
        "desc": "Calls the lads.",
        "icon_nid": "LTSkillIconSheet",
        "icon_index": [
            7,
            42
        ],
        "components": [
            [
                "target_tile",
                null
            ],
            [
                "min_range",
                0
            ],
            [
                "max_range",
                0
            ],
            [
                "event_on_hit",
                "Global Ability_Call_Lads"
            ],
            [
                "spell",
                null
            ],
            [
                "item_tags",
                [
                    "AbilityItem"
                ]
            ]
        ]
    }
]