[
    {
        "nid": "Chest_Key",
        "name": "Chest Key",
        "desc": "Opens chests.",
        "icon_nid": "Consumable",
        "icon_index": [
            0,
            6
        ],
        "components": [
            [
                "value",
                50
            ],
            [
                "uses",
                1
            ],
            [
                "uses_options",
                {
                    "lose_uses_on_miss": false,
                    "one_loss_per_combat": false
                }
            ],
            [
                "can_unlock",
                "region.nid.startswith('Chest') or region.nid.startswith('chest')"
            ]
        ]
    }
]