[
    {
        "nid": "Cluster_Bomb",
        "name": "Cluster Bomb",
        "desc": "Ignores user's STR/MAG and foe's DEF/RES.\nDeals 10 flat damage. Inflicts Burning.\nMultitarget 2. AoE 2.",
        "icon_nid": "LTSkillIconSheet",
        "icon_index": [
            0,
            10
        ],
        "components": [
            [
                "spell",
                null
            ],
            [
                "magic",
                null
            ],
            [
                "target_enemy",
                null
            ],
            [
                "min_range",
                1
            ],
            [
                "max_range",
                5
            ],
            [
                "damage",
                10
            ],
            [
                "hit",
                100
            ],
            [
                "alternate_damage_formula",
                "ZERO"
            ],
            [
                "alternate_resist_formula",
                "ZERO"
            ],
            [
                "enemy_blast_aoe",
                2
            ],
            [
                "multi_target",
                2
            ],
            [
                "status_on_hit",
                "Burning"
            ],
            [
                "item_tags",
                [
                    "TrueDamage",
                    "Gun",
                    "AbilityItem"
                ]
            ]
        ]
    }
]