[
    {
        "nid": "Dazzle_After_Combat",
        "name": "Dazzle After Combat",
        "desc": "",
        "icon_nid": "Skills",
        "icon_index": [
            0,
            0
        ],
        "components": [
            [
                "status_after_combat_on_hit",
                "Dazzled"
            ]
        ]
    }
]