[
    {
        "nid": "Deactivate_Field",
        "name": "Deactivate Field",
        "desc": "Retracts the unit's defensive field.\nFree action.",
        "icon_nid": "LTSkillIconSheet",
        "icon_index": [
            5,
            25
        ],
        "components": [
            [
                "spell",
                null
            ],
            [
                "target_ally",
                null
            ],
            [
                "attack_after_combat",
                null
            ],
            [
                "restore_specific",
                "Defensive_Field_S"
            ],
            [
                "item_tags",
                [
                    "AbilityItem"
                ]
            ]
        ]
    }
]