[
    {
        "nid": "Decaying_Mist_Plus",
        "name": "Decaying Mist+",
        "desc": "Fell Dragon only. Magic.\nInflicts <blue>Enfeebled</>, <blue>Poisoned</>, and 2 stacks of <blue>Toxin</> on foes within 3 spaces.\n2 turn cooldown.",
        "icon_nid": "RWDragonstones",
        "icon_index": [
            7,
            0
        ],
        "components": [
            [
                "spell",
                null
            ],
            [
                "magic",
                null
            ],
            [
                "target_tile",
                null
            ],
            [
                "min_range",
                0
            ],
            [
                "max_range",
                0
            ],
            [
                "weapon_type",
                "Stone"
            ],
            [
                "prf_unit",
                [
                    "Libra_False",
                    "Libra"
                ]
            ],
            [
                "locked",
                null
            ],
            [
                "enemy_blast_aoe",
                3
            ],
            [
                "map_cast_anim",
                "AOE_Blizzard"
            ],
            [
                "event_after_combat_even_miss",
                "Global Item_Decaying_Mist"
            ],
            [
                "statuses_on_hit",
                [
                    "Poisoned",
                    "Enfeebled",
                    "Toxin",
                    "Toxin"
                ]
            ],
            [
                "cooldown",
                2
            ],
            [
                "damage",
                8
            ],
            [
                "hit",
                65
            ],
            [
                "unstealable",
                null
            ]
        ]
    }
]