[
    {
        "nid": "Deliverance",
        "name": "Deliverance",
        "desc": "Lockson only. Effective vs. monsters.",
        "icon_nid": "jellyunicorns item icons ltinsert",
        "icon_index": [
            10,
            3
        ],
        "components": [
            [
                "weapon",
                null
            ],
            [
                "target_enemy",
                null
            ],
            [
                "min_range",
                1
            ],
            [
                "max_range",
                1
            ],
            [
                "damage",
                15
            ],
            [
                "hit",
                85
            ],
            [
                "crit",
                0
            ],
            [
                "weight",
                13
            ],
            [
                "weapon_type",
                "Sword"
            ],
            [
                "prf_unit",
                [
                    "Lockson"
                ]
            ],
            [
                "effective_damage",
                {
                    "effective_tags": [
                        "Monster"
                    ],
                    "effective_multiplier": 3,
                    "effective_bonus_damage": 0,
                    "show_effectiveness_flash": true
                }
            ]
        ]
    }
]