[
    {
        "nid": "Desperand_Relic",
        "name": "Desperand Relic",
        "desc": "<indigo>Accessory</>.\nUnit can perform a follow-up attack before a foe's counter.\nAll foes will perform a follow-up attack against this unit.",
        "icon_nid": "tactics_ogre",
        "icon_index": [
            16,
            0
        ],
        "components": [
            [
                "accessory",
                null
            ],
            [
                "value",
                200
            ],
            [
                "status_on_hold",
                "Desperand"
            ]
        ]
    }
]