[
    {
        "nid": "DismountDivebomb",
        "name": "Dismount Divebomb",
        "desc": "Refreshes unit's turn on use. Unit loses all Mov above 4, cannot fly, ignores mounted / flying effectiveness, and gains + (Mov lost) to all stats until next turn. Next turn, unit can Mount Up to return to normal.",
        "icon_nid": "LTSkillIconSheet",
        "icon_index": [
            6,
            48
        ],
        "components": [
            [
                "target_ally",
                null
            ],
            [
                "min_range",
                0
            ],
            [
                "max_range",
                0
            ],
            [
                "event_after_combat_on_hit",
                "Global Ability_DismountDivebomb"
            ],
            [
                "self_status_on_hit",
                "Galeforce_Status"
            ],
            [
                "spell",
                null
            ],
            [
                "eval_available",
                "not has_skill(unit, 'Dismounted')"
            ],
            [
                "item_tags",
                [
                    "AbilityItem"
                ]
            ]
        ]
    }
]