[
    {
        "nid": "Draw_Back_Override",
        "name": "Draw Back Override",
        "desc": "",
        "icon_nid": "Skills",
        "icon_index": [
            0,
            0
        ],
        "components": [
            [
                "draw_back_on_end_combat_initiate",
                1
            ]
        ]
    }
]