[
    {
        "nid": "DualCastOverride",
        "name": "DualCastOverride",
        "desc": "",
        "icon_nid": "Skills",
        "icon_index": [
            0,
            0
        ],
        "components": [
            [
                "attack_after_combat",
                null
            ]
        ]
    }
]