[
    {
        "nid": "EarthenWall",
        "name": "Earthen Wall",
        "desc": "Creates a magic barrier on the target tile that is impassable to enemies.",
        "icon_nid": "Staff",
        "icon_index": [
            0,
            11
        ],
        "components": [
            [
                "target_tile",
                null
            ],
            [
                "empty_tile_target_restrict",
                null
            ],
            [
                "spell",
                null
            ],
            [
                "event_after_use",
                "Global Item_Wall_Staff"
            ],
            [
                "min_range",
                1
            ],
            [
                "max_range",
                1
            ],
            [
                "map_hit_add_blend",
                [
                    96,
                    144,
                    232
                ]
            ],
            [
                "item_tags",
                [
                    "AbilityItem"
                ]
            ]
        ]
    }
]