[
    {
        "nid": "Ereshkiblaze",
        "name": "Ereshkiblaze",
        "desc": "Athostopheles only.\nBrave.\nRequires and consumes a stack of <blue>Dark Favor</> on use.",
        "icon_nid": "{2WB} (Vanilla + Blitz) Ereshkigal",
        "icon_index": [
            0,
            0
        ],
        "components": [
            [
                "weapon",
                null
            ],
            [
                "target_enemy",
                null
            ],
            [
                "min_range",
                2
            ],
            [
                "max_range",
                2
            ],
            [
                "damage",
                11
            ],
            [
                "hit",
                65
            ],
            [
                "crit",
                0
            ],
            [
                "weight",
                14
            ],
            [
                "weapon_type",
                "Dark"
            ],
            [
                "prf_unit",
                [
                    "Athostopheles"
                ]
            ],
            [
                "eval_available",
                "has_skill(unit, 'Dark_Favor')"
            ],
            [
                "event_after_combat_even_miss",
                "Global Item_Ereshkiblaze"
            ],
            [
                "brave_on_attack",
                null
            ],
            [
                "magic",
                null
            ]
        ]
    }
]