[
    {
        "nid": "Fae_Acius",
        "name": "Fae Acius",
        "desc": "Aemulus only.",
        "icon_nid": "{Ereshkigal} Sprite Sheet V1.4 Converted",
        "icon_index": [
            23,
            1
        ],
        "components": [
            [
                "weapon",
                null
            ],
            [
                "value",
                0
            ],
            [
                "target_enemy",
                null
            ],
            [
                "min_range",
                1
            ],
            [
                "max_range",
                1
            ],
            [
                "damage",
                5
            ],
            [
                "hit",
                90
            ],
            [
                "crit",
                0
            ],
            [
                "weight",
                5
            ],
            [
                "weapon_type",
                "Lance"
            ],
            [
                "prf_unit",
                [
                    "Aemulus"
                ]
            ]
        ]
    }
]