[
    {
        "nid": "Flash",
        "name": "Flash",
        "desc": "After combat, if a hit was landed, <blue>Blinds</> foe.",
        "icon_nid": "{LordGlenn} All Icons LordGlenn Pack 1",
        "icon_index": [
            4,
            6
        ],
        "components": [
            [
                "weapon",
                null
            ],
            [
                "value",
                100
            ],
            [
                "target_enemy",
                null
            ],
            [
                "min_range",
                2
            ],
            [
                "max_range",
                2
            ],
            [
                "damage",
                1
            ],
            [
                "hit",
                105
            ],
            [
                "crit",
                0
            ],
            [
                "weight",
                3
            ],
            [
                "weapon_type",
                "Light"
            ],
            [
                "weapon_rank",
                "E"
            ],
            [
                "map_hit_add_blend",
                [
                    255,
                    255,
                    0
                ]
            ],
            [
                "magic",
                null
            ],
            [
                "status_after_combat_on_hit",
                "Blinded"
            ]
        ]
    }
]