[
    {
        "nid": "Force",
        "name": "Force",
        "desc": "Moudrost's spells.\nCan be used to manipulate foe's position.",
        "icon_nid": "{Beansy} Divine",
        "icon_index": [
            0,
            0
        ],
        "components": [
            [
                "prf_unit",
                [
                    "Moudrost"
                ]
            ],
            [
                "multi_item",
                [
                    "Vortex",
                    "Whirl"
                ]
            ],
            [
                "weapon_type",
                "Light"
            ]
        ]
    }
]