[
    {
        "nid": "Fortify",
        "name": "Fortify",
        "desc": "Restores 12 HP to all allies within range.",
        "icon_nid": "Staff",
        "icon_index": [
            0,
            4
        ],
        "components": [
            [
                "spell",
                null
            ],
            [
                "target_ally",
                null
            ],
            [
                "weapon_type",
                "Staff"
            ],
            [
                "weapon_rank",
                "A"
            ],
            [
                "magic",
                null
            ],
            [
                "uses",
                4
            ],
            [
                "uses_options",
                {
                    "lose_uses_on_miss": false,
                    "one_loss_per_combat": false
                }
            ],
            [
                "value",
                600
            ],
            [
                "magic_heal",
                12
            ],
            [
                "ally_blast_aoe",
                7
            ]
        ]
    }
]