[
    {
        "nid": "Fragrance",
        "name": "Fragrance",
        "desc": "<indigo>Accessory</>.\nIf held by a female unit grants +10 Hit and +3 damage dealt to all units within 2 spaces.\nOtherwise grants -10 Hit and -3 damage dealt.",
        "icon_nid": "Consumable",
        "icon_index": [
            0,
            9
        ],
        "components": [
            [
                "accessory",
                null
            ],
            [
                "status_on_hold",
                "Fragrance_Aura"
            ]
        ]
    }
]