[
    {
        "nid": "Frost_Fangs",
        "name": "Frost Fangs",
        "desc": "Magic weapon.\nAfter combat, if a hit was landed, inflicts <blue>Chill</> and <blue>Toxin</> on the target.",
        "icon_nid": "{Ereshkigal} Sprite Sheet V1.4 Converted",
        "icon_index": [
            15,
            6
        ],
        "components": [
            [
                "weapon",
                null
            ],
            [
                "value",
                300
            ],
            [
                "target_enemy",
                null
            ],
            [
                "min_range",
                2
            ],
            [
                "max_range",
                2
            ],
            [
                "damage",
                8
            ],
            [
                "hit",
                85
            ],
            [
                "crit",
                0
            ],
            [
                "weight",
                5
            ],
            [
                "weapon_type",
                "Knife"
            ],
            [
                "weapon_rank",
                "C"
            ],
            [
                "magic",
                null
            ],
            [
                "statuses_after_combat_on_hit",
                [
                    "Chilled",
                    "Toxin"
                ]
            ]
        ]
    }
]