[
    {
        "nid": "Fuluminous_Blade",
        "name": "Fulminous Edge",
        "desc": "Effective vs Magic. Ryland only.",
        "icon_nid": "Fuluminous",
        "icon_index": [
            0,
            0
        ],
        "components": [
            [
                "weapon_type",
                "Sword"
            ],
            [
                "weapon",
                null
            ],
            [
                "value",
                500
            ],
            [
                "target_enemy",
                null
            ],
            [
                "min_range",
                4
            ],
            [
                "max_range",
                4
            ],
            [
                "damage",
                7
            ],
            [
                "hit",
                95
            ],
            [
                "crit",
                0
            ],
            [
                "weight",
                10
            ],
            [
                "prf_unit",
                [
                    "Ryland"
                ]
            ],
            [
                "effective_damage",
                {
                    "effective_tags": [
                        "Magical"
                    ],
                    "effective_multiplier": 3,
                    "effective_bonus_damage": 0,
                    "show_effectiveness_flash": true
                }
            ]
        ]
    }
]