[
    {
        "nid": "Fusillade_AoE_Override_2",
        "name": "Fusillade AoE Override",
        "desc": "",
        "icon_nid": "Skills",
        "icon_index": [
            0,
            0
        ],
        "components": [
            [
                "enemy_blast_aoe",
                2
            ]
        ]
    }
]