[
    {
        "nid": "Grigol_Brand",
        "name": "Grigol's Brand",
        "desc": "Effective against dragons, beasts and monsters.\nWhen initiating, deals 20% current HP damage and inflicts <blue>Chill</> on foes within 2 spaces of target after combat.",
        "icon_nid": "{Ereshkigal} Sprite Sheet V1.4 Converted",
        "icon_index": [
            21,
            0
        ],
        "components": [
            [
                "weapon",
                null
            ],
            [
                "target_enemy",
                null
            ],
            [
                "damage",
                17
            ],
            [
                "hit",
                85
            ],
            [
                "weapon_type",
                "Sword"
            ],
            [
                "weapon_rank",
                "S"
            ],
            [
                "weight",
                10
            ],
            [
                "crit",
                0
            ],
            [
                "min_range",
                1
            ],
            [
                "max_range",
                1
            ],
            [
                "effective_damage",
                {
                    "effective_tags": [
                        "Dragon",
                        "Monster",
                        "Beast"
                    ],
                    "effective_multiplier": 3,
                    "effective_bonus_damage": 0,
                    "show_effectiveness_flash": true
                }
            ],
            [
                "value",
                600
            ],
            [
                "status_on_equip",
                "Frigid_Blow"
            ]
        ]
    }
]