[
    {
        "nid": "Halberd_Plus",
        "name": "Halberd+",
        "desc": "Effective against horseback units.",
        "icon_nid": "Axe",
        "icon_index": [
            0,
            6
        ],
        "components": [
            [
                "weapon",
                null
            ],
            [
                "target_enemy",
                null
            ],
            [
                "damage",
                12
            ],
            [
                "hit",
                60
            ],
            [
                "weapon_type",
                "Axe"
            ],
            [
                "weapon_rank",
                "B"
            ],
            [
                "weight",
                16
            ],
            [
                "crit",
                0
            ],
            [
                "value",
                400
            ],
            [
                "min_range",
                1
            ],
            [
                "max_range",
                1
            ],
            [
                "effective_damage",
                {
                    "effective_tags": [
                        "Horse",
                        "Beast"
                    ],
                    "effective_multiplier": 3,
                    "effective_bonus_damage": 0,
                    "show_effectiveness_flash": true
                }
            ]
        ]
    }
]