[
    {
        "nid": "Harden",
        "name": "Harden",
        "desc": "For one turn, target has doubled defense, but SPD and MOV are reduced to 0.\nThe target will also be treated as an Armor unit.\nUses refresh after battle.",
        "icon_nid": "{Ereshkigal} Staves",
        "icon_index": [
            5,
            2
        ],
        "components": [
            [
                "spell",
                null
            ],
            [
                "target_unit",
                null
            ],
            [
                "weapon_type",
                "Staff"
            ],
            [
                "weapon_rank",
                "C"
            ],
            [
                "magic",
                null
            ],
            [
                "status_on_hit",
                "Hardened"
            ],
            [
                "min_range",
                1
            ],
            [
                "max_range",
                3
            ],
            [
                "c_uses",
                2
            ],
            [
                "uses_options",
                {
                    "lose_uses_on_miss": true,
                    "one_loss_per_combat": true
                }
            ],
            [
                "value",
                300
            ]
        ]
    }
]