[
    {
        "nid": "HarmonyMeleeOverride",
        "name": "HarmonyMeleeOverride",
        "desc": "",
        "icon_nid": "Skills",
        "icon_index": [
            0,
            0
        ],
        "components": [
            [
                "event_after_combat_even_miss",
                "Global Ability_Harmony_MeleeUpdate"
            ]
        ]
    }
]