[
    {
        "nid": "HeavySlam_Hub",
        "name": "Heavy Slam",
        "desc": "Warp to a space within 3 spaces, then perform a AoE attack (Mt = CON) centered on target location. Free action.",
        "icon_nid": null,
        "icon_index": [
            0,
            0
        ],
        "components": [
            [
                "attack_after_combat",
                null
            ],
            [
                "no_ai",
                null
            ],
            [
                "target_tile",
                null
            ],
            [
                "min_range",
                0
            ],
            [
                "max_range",
                0
            ],
            [
                "sequence_item",
                [
                    "HeavySlam_1",
                    "HeavySlam_2"
                ]
            ],
            [
                "event_after_combat_even_miss",
                "Global Skill_HeavySlam"
            ],
            [
                "spell",
                null
            ],
            [
                "item_tags",
                [
                    "AbilityItem"
                ]
            ]
        ]
    }
]