[
    {
        "nid": "Heavensward",
        "name": "Heavensward",
        "desc": "The protection of light. Grants +5 RES.",
        "icon_nid": "{LordGlenn} {ArchaneaIconProject} 2019",
        "icon_index": [
            1,
            4
        ],
        "components": [
            [
                "weapon",
                null
            ],
            [
                "target_enemy",
                null
            ],
            [
                "damage",
                7
            ],
            [
                "hit",
                75
            ],
            [
                "weapon_type",
                "Light"
            ],
            [
                "weapon_rank",
                "C"
            ],
            [
                "magic",
                null
            ],
            [
                "weight",
                10
            ],
            [
                "crit",
                0
            ],
            [
                "value",
                300
            ],
            [
                "min_range",
                2
            ],
            [
                "max_range",
                2
            ],
            [
                "map_hit_add_blend",
                [
                    255,
                    255,
                    0
                ]
            ],
            [
                "stat_change",
                [
                    [
                        "RES",
                        5
                    ]
                ]
            ]
        ]
    }
]