[
    {
        "nid": "Hungering_Palm",
        "name": "Hungering Palm",
        "desc": "Permanently raises all stats by 1,\nbut lowers max HP by 7. (no MOV/CON)\nCan be reused infinitely.",
        "icon_nid": "{LordGlenn} {ArchaneaIconProject} 2019",
        "icon_index": [
            39,
            4
        ],
        "components": [
            [
                "usable",
                null
            ],
            [
                "usable_in_base",
                null
            ],
            [
                "target_ally",
                null
            ],
            [
                "permanent_stat_change",
                [
                    [
                        "HP",
                        -7
                    ],
                    [
                        "STR",
                        1
                    ],
                    [
                        "MAG",
                        1
                    ],
                    [
                        "SKL",
                        1
                    ],
                    [
                        "SPD",
                        1
                    ],
                    [
                        "LCK",
                        1
                    ],
                    [
                        "DEF",
                        1
                    ],
                    [
                        "RES",
                        1
                    ]
                ]
            ],
            [
                "eval_available",
                "unit.get_max_hp() > 7"
            ]
        ]
    }
]