[
    {
        "nid": "Karlei_Point",
        "name": "Karlei's Point",
        "desc": "Cannot counter. Strikes in a Line AoE.\nAfter combat, if a hit was landed, inflicts <blue>Toxin</> on the target.",
        "icon_nid": "{Ereshkigal} Sprite Sheet V1.4 Converted",
        "icon_index": [
            10,
            6
        ],
        "components": [
            [
                "weapon",
                null
            ],
            [
                "value",
                200
            ],
            [
                "target_enemy",
                null
            ],
            [
                "min_range",
                1
            ],
            [
                "max_range",
                3
            ],
            [
                "damage",
                2
            ],
            [
                "hit",
                85
            ],
            [
                "crit",
                0
            ],
            [
                "weight",
                5
            ],
            [
                "weapon_type",
                "Knife"
            ],
            [
                "weapon_rank",
                "D"
            ],
            [
                "status_after_combat_on_hit",
                "Toxin"
            ],
            [
                "cannot_counter",
                null
            ],
            [
                "enemy_line_aoe",
                null
            ]
        ]
    }
]