[
    {
        "nid": "Keyblade",
        "name": "Keyblade",
        "desc": "Effective against monsters.\nCan unlock doors and chests\neven without equipping.",
        "icon_nid": "{Ryan914, Mike} Key III",
        "icon_index": [
            0,
            0
        ],
        "components": [
            [
                "weapon",
                null
            ],
            [
                "value",
                200
            ],
            [
                "target_enemy",
                null
            ],
            [
                "min_range",
                1
            ],
            [
                "max_range",
                1
            ],
            [
                "damage",
                6
            ],
            [
                "hit",
                70
            ],
            [
                "crit",
                0
            ],
            [
                "weight",
                8
            ],
            [
                "weapon_type",
                "Sword"
            ],
            [
                "weapon_rank",
                "D"
            ],
            [
                "effective_damage",
                {
                    "effective_tags": [
                        "Monster"
                    ],
                    "effective_multiplier": 3,
                    "effective_bonus_damage": 0,
                    "show_effectiveness_flash": true
                }
            ],
            [
                "item_tags",
                [
                    "HeavyBlade"
                ]
            ],
            [
                "status_on_hold",
                "Locktouch_Keyblade"
            ]
        ]
    }
]