[
    {
        "nid": "Magic_Expulsion_P",
        "name": "Magic Expulsion",
        "desc": "Strikes in a line, dealing magical damage.\nUses refresh after combat.\nCannot perform follow-up attacks.",
        "icon_nid": "Neutral",
        "icon_index": [
            0,
            1
        ],
        "components": [
            [
                "weapon",
                null
            ],
            [
                "target_enemy",
                null
            ],
            [
                "value",
                0
            ],
            [
                "damage",
                10
            ],
            [
                "hit",
                75
            ],
            [
                "crit",
                0
            ],
            [
                "min_range",
                1
            ],
            [
                "max_range",
                5
            ],
            [
                "weapon_type",
                "Stone"
            ],
            [
                "weapon_rank",
                "A"
            ],
            [
                "magic",
                null
            ],
            [
                "weight",
                15
            ],
            [
                "enemy_line_aoe",
                null
            ],
            [
                "c_uses",
                3
            ],
            [
                "uses_options",
                {
                    "lose_uses_on_miss": false,
                    "one_loss_per_combat": false
                }
            ],
            [
                "no_double",
                null
            ]
        ]
    }
]