[
    {
        "nid": "Malice_Blitz_Override",
        "name": "Malice Blitz Override",
        "desc": "",
        "icon_nid": "Skills",
        "icon_index": [
            0,
            0
        ],
        "components": [
            [
                "event_on_hit",
                "Global Ability_MaliceBlitz"
            ],
            [
                "eval_available",
                "unit.get_hp() > 4"
            ]
        ]
    }
]