[
    {
        "nid": "Morning_Coffee",
        "name": "Morning Coffee",
        "desc": "+2 Def/Res/Spd for 2 turns. If used during Turn 1, grant an additional +3 to these stats, and +2 move.",
        "icon_nid": "Food_by_ZessDynamite",
        "icon_index": [
            5,
            6
        ],
        "components": [
            [
                "usable",
                null
            ],
            [
                "value",
                200
            ],
            [
                "target_ally",
                null
            ],
            [
                "uses",
                4
            ],
            [
                "uses_options",
                {
                    "lose_uses_on_miss": false,
                    "one_loss_per_combat": false
                }
            ],
            [
                "map_hit_add_blend",
                [
                    96,
                    144,
                    232
                ]
            ],
            [
                "event_on_hit",
                "Global Item_Morning_Coffee"
            ]
        ]
    }
]