[
    {
        "nid": "Mystic_Lance",
        "name": "Mystic Lance",
        "desc": "Deals magic damage.",
        "icon_nid": "nikolas_datura_items",
        "icon_index": [
            1,
            0
        ],
        "components": [
            [
                "weapon",
                null
            ],
            [
                "value",
                200
            ],
            [
                "target_enemy",
                null
            ],
            [
                "min_range",
                2
            ],
            [
                "max_range",
                2
            ],
            [
                "damage",
                6
            ],
            [
                "hit",
                70
            ],
            [
                "crit",
                0
            ],
            [
                "weight",
                10
            ],
            [
                "weapon_type",
                "Lance"
            ],
            [
                "weapon_rank",
                "D"
            ],
            [
                "magic",
                null
            ]
        ]
    }
]