[
    {
        "nid": "NecromanticArtes",
        "name": "Necromantic Artes",
        "desc": "Resurrect a dead party member, at 1 HP, with a permanent -2 to all stats. Recharges upon healing at a rest site.",
        "icon_nid": "Skills",
        "icon_index": [
            6,
            10
        ],
        "components": [
            [
                "event_on_hit",
                "Global Ability_Necromantic_Artes"
            ],
            [
                "min_range",
                0
            ],
            [
                "max_range",
                0
            ],
            [
                "target_tile",
                null
            ],
            [
                "eval_available",
                "any([u for u in game.get_all_units_in_party() if is_dead(u.nid) and 'Banished' not in u.tags])"
            ],
            [
                "spell",
                null
            ],
            [
                "item_tags",
                [
                    "AbilityItem"
                ]
            ]
        ]
    }
]