[
    {
        "nid": "PapalFerula",
        "name": "Papal Ferula",
        "desc": "Bishop only. Can only attack directly diagonally. Uses MAG, hits RES.",
        "icon_nid": "{LordGlenn} {ArchaneaIconProject} 2019",
        "icon_index": [
            13,
            2
        ],
        "components": [
            [
                "weapon",
                null
            ],
            [
                "target_enemy",
                null
            ],
            [
                "min_range",
                2
            ],
            [
                "max_range",
                4
            ],
            [
                "damage",
                4
            ],
            [
                "hit",
                85
            ],
            [
                "crit",
                0
            ],
            [
                "weight",
                18
            ],
            [
                "weapon_type",
                "Lance"
            ],
            [
                "prf_unit",
                [
                    "Bishop"
                ]
            ],
            [
                "magic",
                null
            ],
            [
                "alternate_damage_formula",
                "MAGIC_DAMAGE"
            ],
            [
                "alternate_resist_formula",
                "MAGIC_DEFENSE"
            ],
            [
                "eval_special_range",
                "(x == y) or (x == -y)"
            ],
            [
                "status_on_equip",
                "No_Lateral"
            ]
        ]
    }
]