[
    {
        "nid": "Patch",
        "name": "Patch",
        "desc": "Restores 5 HP.",
        "icon_nid": "{Ereshkigal} Staff 1",
        "icon_index": [
            0,
            0
        ],
        "components": [
            [
                "spell",
                null
            ],
            [
                "value",
                200
            ],
            [
                "target_ally",
                null
            ],
            [
                "min_range",
                1
            ],
            [
                "max_range",
                3
            ],
            [
                "weapon_type",
                "Staff"
            ],
            [
                "weapon_rank",
                "E"
            ],
            [
                "uses",
                5
            ],
            [
                "uses_options",
                {
                    "lose_uses_on_miss": false,
                    "one_loss_per_combat": false
                }
            ],
            [
                "map_hit_add_blend",
                [
                    96,
                    144,
                    232
                ]
            ],
            [
                "heal",
                5
            ],
            [
                "magic",
                null
            ]
        ]
    }
]