[
    {
        "nid": "Purge",
        "name": "Purge",
        "desc": "Uses refresh after battle.",
        "icon_nid": "Light",
        "icon_index": [
            0,
            3
        ],
        "components": [
            [
                "target_enemy",
                null
            ],
            [
                "damage",
                10
            ],
            [
                "hit",
                75
            ],
            [
                "weapon_type",
                "Light"
            ],
            [
                "weapon_rank",
                "B"
            ],
            [
                "magic",
                null
            ],
            [
                "weight",
                20
            ],
            [
                "crit",
                0
            ],
            [
                "value",
                400
            ],
            [
                "min_range",
                3
            ],
            [
                "max_range",
                7
            ],
            [
                "siege_weapon",
                null
            ],
            [
                "map_hit_add_blend",
                [
                    255,
                    255,
                    0
                ]
            ],
            [
                "c_uses",
                2
            ],
            [
                "uses_options",
                {
                    "lose_uses_on_miss": true,
                    "one_loss_per_combat": true
                }
            ]
        ]
    }
]