[
    {
        "nid": "Ramona",
        "name": "Ramona",
        "desc": "Female units only, even if they can't use swords.",
        "icon_nid": "{LordGlenn} All Icons LordGlenn Pack 1",
        "icon_index": [
            16,
            0
        ],
        "components": [
            [
                "weapon",
                null
            ],
            [
                "value",
                400
            ],
            [
                "target_enemy",
                null
            ],
            [
                "min_range",
                1
            ],
            [
                "max_range",
                1
            ],
            [
                "damage",
                10
            ],
            [
                "hit",
                80
            ],
            [
                "crit",
                0
            ],
            [
                "weight",
                8
            ],
            [
                "prf_tags",
                [
                    "Female"
                ]
            ],
            [
                "weapon_type_exempt",
                "Sword"
            ]
        ]
    }
]