[
    {
        "nid": "Reincarnate",
        "name": "Reincarnate",
        "desc": "Destroy an ally and\nremake them anew.",
        "icon_nid": "LTSkillIconSheet",
        "icon_index": [
            2,
            11
        ],
        "components": [
            [
                "spell",
                null
            ],
            [
                "target_ally",
                null
            ],
            [
                "min_range",
                1
            ],
            [
                "global_range",
                null
            ],
            [
                "event_after_combat_on_hit",
                "Global Ability_Reincarnate"
            ],
            [
                "item_tags",
                [
                    "AbilityItem"
                ]
            ]
        ]
    }
]