[
    {
        "nid": "Rescue1",
        "name": "Rescue",
        "desc": "Rescues an ally.",
        "icon_nid": "Staff",
        "icon_index": [
            0,
            10
        ],
        "components": [
            [
                "spell",
                null
            ],
            [
                "target_ally",
                null
            ],
            [
                "magic",
                null
            ],
            [
                "min_range",
                1
            ],
            [
                "store_unit",
                null
            ],
            [
                "max_range",
                5
            ]
        ]
    }
]