[
    {
        "nid": "Rex_Securis_Plus",
        "name": "Rex Securis+",
        "desc": "Satus only. Adds half of unit's Speed to damage dealt.",
        "icon_nid": "{Ereshkigal} Sprite Sheet V1.4 Converted",
        "icon_index": [
            12,
            2
        ],
        "components": [
            [
                "weapon",
                null
            ],
            [
                "target_enemy",
                null
            ],
            [
                "min_range",
                1
            ],
            [
                "max_range",
                1
            ],
            [
                "damage",
                7
            ],
            [
                "hit",
                85
            ],
            [
                "crit",
                0
            ],
            [
                "weight",
                12
            ],
            [
                "weapon_type",
                "Axe"
            ],
            [
                "prf_unit",
                [
                    "Satus"
                ]
            ],
            [
                "status_on_equip",
                "Speedy_Strikes"
            ]
        ]
    }
]