[
    {
        "nid": "RingOfWrath",
        "name": "Ring Of Wrath",
        "desc": "<indigo>Accessory</>.\nAdd unit's missing HP to crit and crit avoid.",
        "icon_nid": "tactics_ogre",
        "icon_index": [
            9,
            3
        ],
        "components": [
            [
                "accessory",
                null
            ],
            [
                "value",
                200
            ],
            [
                "status_on_hold",
                "RingOfWrath"
            ]
        ]
    }
]