[
    {
        "nid": "Rotten Claw",
        "name": "Rotten Claw",
        "desc": "",
        "icon_nid": "Neutral",
        "icon_index": [
            0,
            8
        ],
        "components": [
            [
                "weapon",
                null
            ],
            [
                "target_enemy",
                null
            ],
            [
                "damage",
                7
            ],
            [
                "hit",
                80
            ],
            [
                "weight",
                8
            ],
            [
                "locked",
                null
            ],
            [
                "wexp",
                0
            ],
            [
                "crit",
                0
            ],
            [
                "min_range",
                1
            ],
            [
                "max_range",
                1
            ]
        ]
    }
]