[
    {
        "nid": "Serrated_Thread",
        "name": "Serrated Thread",
        "desc": "<indigo>Accessory</>.\n+20 Critical Chance.\n-40 Critical Evasion.",
        "icon_nid": "{Batima} Skydrake Whip",
        "icon_index": [
            0,
            0
        ],
        "components": [
            [
                "accessory",
                null
            ],
            [
                "status_on_hold",
                "Serrated_Thread"
            ],
            [
                "value",
                300
            ]
        ]
    }
]