[
    {
        "nid": "Shadowstep",
        "name": "Shadowstep",
        "desc": "Teleport adjacent to ally,\ncan attack after.",
        "icon_nid": "LTSkillIconSheet",
        "icon_index": [
            0,
            47
        ],
        "components": [
            [
                "spell",
                null
            ],
            [
                "target_specific_tile",
                "[target_system.get_adjacent_positions(unitx.position) for unitx in game.get_player_units() if unitx.nid != unit.nid]"
            ],
            [
                "min_range",
                0
            ],
            [
                "attack_after_combat",
                null
            ],
            [
                "event_after_combat_even_miss",
                "Global Ability_Shadowstep"
            ],
            [
                "global_range",
                null
            ],
            [
                "event_on_hit",
                "Global Ability_Shadowstep_Store"
            ],
            [
                "empty_tile_target_restrict",
                null
            ],
            [
                "item_tags",
                [
                    "AbilityItem"
                ]
            ]
        ]
    }
]