[
    {
        "nid": "Silence",
        "name": "Silence",
        "desc": "Enemy is rendered unable to use magic.\nUses refresh after battle.",
        "icon_nid": "Staff",
        "icon_index": [
            0,
            6
        ],
        "components": [
            [
                "spell",
                null
            ],
            [
                "weapon_type",
                "Staff"
            ],
            [
                "weapon_rank",
                "B"
            ],
            [
                "magic",
                null
            ],
            [
                "value",
                400
            ],
            [
                "min_range",
                1
            ],
            [
                "status_on_hit",
                "Silence"
            ],
            [
                "target_enemy",
                null
            ],
            [
                "max_range",
                5
            ],
            [
                "eval_target_restrict_2",
                "target.wexp['Light'] or target.wexp['Anima'] or target.wexp['Dark'] or target.wexp['Staff'] or (target.wexp['Stone'] and 'Dragon' in target.tags)"
            ],
            [
                "c_uses",
                2
            ],
            [
                "uses_options",
                {
                    "lose_uses_on_miss": false,
                    "one_loss_per_combat": false
                }
            ]
        ]
    }
]