[
    {
        "nid": "Stinger",
        "name": "Stinger",
        "desc": "Hornet only. Follow up attacks have guaranteed crit.\n+5 SPD.",
        "icon_nid": "Beansy - Stinger_1",
        "icon_index": [
            0,
            0
        ],
        "components": [
            [
                "weapon",
                null
            ],
            [
                "target_enemy",
                null
            ],
            [
                "min_range",
                2
            ],
            [
                "max_range",
                2
            ],
            [
                "damage",
                3
            ],
            [
                "hit",
                85
            ],
            [
                "crit",
                0
            ],
            [
                "weight",
                4
            ],
            [
                "weapon_type",
                "Bow"
            ],
            [
                "prf_unit",
                [
                    "Hornet"
                ]
            ],
            [
                "stat_change",
                [
                    [
                        "SPD",
                        5
                    ]
                ]
            ],
            [
                "weapon_rank",
                "E"
            ],
            [
                "self_status_on_hit",
                "Stinger_Crit"
            ],
            [
                "effective_damage",
                {
                    "effective_tags": [
                        "Flying"
                    ],
                    "effective_multiplier": 3,
                    "effective_bonus_damage": 0,
                    "show_effectiveness_flash": true
                }
            ]
        ]
    }
]