[
    {
        "nid": "Stone_Flash",
        "name": "Stone Flash",
        "desc": "Hardens every unit\nwithin 3 tiles of user.",
        "icon_nid": "LTSkillIconSheet",
        "icon_index": [
            3,
            35
        ],
        "components": [
            [
                "spell",
                null
            ],
            [
                "magic",
                null
            ],
            [
                "target_unit",
                null
            ],
            [
                "status_on_hit",
                "Hardened"
            ],
            [
                "blast_aoe",
                3
            ],
            [
                "item_tags",
                [
                    "AbilityItem"
                ]
            ]
        ]
    }
]