[
    {
        "nid": "StoneCirclet",
        "name": "Stone Circlet",
        "desc": "<indigo>Accessory</>.\nCrown of an archaic king.\nGrants +3 to all stats, but confers -1 MOV and the Checkmated debuff.",
        "icon_nid": "{LordGlenn} {ArchaneaIconProject} 2019",
        "icon_index": [
            35,
            4
        ],
        "components": [
            [
                "stat_change",
                [
                    [
                        "STR",
                        3
                    ],
                    [
                        "MAG",
                        3
                    ],
                    [
                        "SKL",
                        3
                    ],
                    [
                        "SPD",
                        3
                    ],
                    [
                        "LCK",
                        3
                    ],
                    [
                        "DEF",
                        3
                    ],
                    [
                        "RES",
                        3
                    ],
                    [
                        "MOV",
                        -1
                    ]
                ]
            ],
            [
                "accessory",
                null
            ],
            [
                "value",
                400
            ],
            [
                "multi_status_on_hold",
                [
                    "Checkmated",
                    "Stone_Circlet_Buff"
                ]
            ]
        ]
    }
]