[
    {
        "nid": "Summon_Guardian",
        "name": "Summon",
        "desc": "Summons a Guardian to an adjacent space.",
        "icon_nid": "LTSkillIconSheet",
        "icon_index": [
            6,
            37
        ],
        "components": [
            [
                "target_tile",
                null
            ],
            [
                "empty_tile_target_restrict",
                null
            ],
            [
                "min_range",
                1
            ],
            [
                "max_range",
                1
            ],
            [
                "event_on_hit",
                "Global Ability_Guardian_Summon"
            ],
            [
                "spell",
                null
            ],
            [
                "item_tags",
                [
                    "AbilityItem"
                ]
            ]
        ]
    }
]