[
    {
        "nid": "Teleport_2",
        "name": "Teleport",
        "desc": "Teleport a distance up to 1/3rd of unit's Magic.",
        "icon_nid": "LTSkillIconSheet",
        "icon_index": [
            3,
            34
        ],
        "components": [
            [
                "attack_after_combat",
                null
            ],
            [
                "unload_unit",
                null
            ],
            [
                "target_tile",
                null
            ],
            [
                "min_range",
                0
            ],
            [
                "max_equation_range",
                "MAGIC_RANGE_SMALLER"
            ],
            [
                "spell",
                null
            ],
            [
                "item_tags",
                [
                    "AbilityItem"
                ]
            ]
        ]
    }
]