[
    {
        "nid": "TitansFang",
        "name": "Titan's Fang",
        "desc": "\"\"Become the Storm?\" But I'm already Nikolas!\"",
        "icon_nid": "nikolas_datura_items",
        "icon_index": [
            0,
            0
        ],
        "components": [
            [
                "weapon",
                null
            ],
            [
                "value",
                500
            ],
            [
                "target_enemy",
                null
            ],
            [
                "min_range",
                1
            ],
            [
                "max_range",
                1
            ],
            [
                "damage",
                17
            ],
            [
                "hit",
                75
            ],
            [
                "crit",
                0
            ],
            [
                "weight",
                12
            ],
            [
                "weapon_type",
                "Lance"
            ],
            [
                "weapon_rank",
                "A"
            ]
        ]
    }
]