[
    {
        "nid": "Tri_Blade",
        "name": "Tri-Blade",
        "desc": "Cooldown 3. Doubles mt for every Tri-Blade in inventory.\n(16 mt for 2, 32 for 3).",
        "icon_nid": "zarg icons ltinsert",
        "icon_index": [
            11,
            0
        ],
        "components": [
            [
                "weapon",
                null
            ],
            [
                "target_enemy",
                null
            ],
            [
                "damage",
                8
            ],
            [
                "hit",
                85
            ],
            [
                "weapon_type",
                "Sword"
            ],
            [
                "weapon_rank",
                "C"
            ],
            [
                "weight",
                16
            ],
            [
                "crit",
                0
            ],
            [
                "value",
                300
            ],
            [
                "min_range",
                1
            ],
            [
                "max_range",
                1
            ],
            [
                "cooldown",
                3
            ],
            [
                "multi_status_on_equip",
                [
                    "Tri_Blade_2",
                    "Tri_Blade_3"
                ]
            ],
            [
                "item_tags",
                [
                    "HeavyBlade"
                ]
            ]
        ]
    }
]