[
    {
        "nid": "TriangleReversalOverride",
        "name": "TriangleReversalOverride",
        "desc": "",
        "icon_nid": "Skills",
        "icon_index": [
            0,
            0
        ],
        "components": [
            [
                "custom_triangle_multiplier",
                -1.0
            ]
        ]
    }
]