[
    {
        "nid": "Unholy_Resurrection",
        "name": "Unholy Resurrection",
        "desc": "Resurrect a dead party member, at 1 HP, with a permanent +4 STR/ -4 HP/MAG/DEF/RES to all stats. Recharges at the end of each Act.",
        "icon_nid": "Skills",
        "icon_index": [
            6,
            10
        ],
        "components": [
            [
                "event_on_hit",
                "Global Ability_Unholy_Resurrection"
            ],
            [
                "min_range",
                0
            ],
            [
                "max_range",
                0
            ],
            [
                "target_tile",
                null
            ],
            [
                "eval_available",
                "any([u for u in game.get_all_units_in_party() if is_dead(u.nid) and 'Banished' not in u.tags])"
            ],
            [
                "spell",
                null
            ],
            [
                "item_tags",
                [
                    "AbilityItem"
                ]
            ]
        ]
    }
]