[
    {
        "nid": "Vorpal_Dirk",
        "name": "Vorpal Dirk",
        "desc": "Bug only.\nAfter combat, if a hit was landed, inflicts <blue>Toxin</> on the target.",
        "icon_nid": "{SacredStones} Deathly Dagger (Jaffar - FEH) (SacredStones)_1",
        "icon_index": [
            0,
            0
        ],
        "components": [
            [
                "weapon",
                null
            ],
            [
                "target_enemy",
                null
            ],
            [
                "min_range",
                1
            ],
            [
                "max_range",
                2
            ],
            [
                "damage",
                4
            ],
            [
                "hit",
                100
            ],
            [
                "crit",
                10
            ],
            [
                "weight",
                6
            ],
            [
                "weapon_type",
                "Knife"
            ],
            [
                "status_after_combat_on_hit",
                "Toxin"
            ],
            [
                "prf_unit",
                [
                    "Bug"
                ]
            ]
        ]
    }
]