[
    {
        "nid": "Weaken",
        "name": "Weaken",
        "desc": "Reduces all stats by 2. Stats recover by 1/turn.\nUses refresh after battle.",
        "icon_nid": "{Ereshkigal} Staves",
        "icon_index": [
            0,
            1
        ],
        "components": [
            [
                "spell",
                null
            ],
            [
                "weapon_type",
                "Staff"
            ],
            [
                "weapon_rank",
                "D"
            ],
            [
                "magic",
                null
            ],
            [
                "value",
                200
            ],
            [
                "min_range",
                1
            ],
            [
                "max_range",
                5
            ],
            [
                "status_on_hit",
                "Weakened"
            ],
            [
                "target_enemy",
                null
            ],
            [
                "c_uses",
                2
            ],
            [
                "uses_options",
                {
                    "lose_uses_on_miss": false,
                    "one_loss_per_combat": false
                }
            ]
        ]
    }
]