[
    {
        "nid": "Whirl",
        "name": "Whirl",
        "desc": "When initiating, pushes foe away from the user after combat.",
        "icon_nid": "{Beansy} Divine",
        "icon_index": [
            0,
            0
        ],
        "components": [
            [
                "weapon",
                null
            ],
            [
                "target_enemy",
                null
            ],
            [
                "damage",
                6
            ],
            [
                "weapon_type",
                "Light"
            ],
            [
                "magic",
                null
            ],
            [
                "weight",
                8
            ],
            [
                "crit",
                0
            ],
            [
                "value",
                0
            ],
            [
                "min_range",
                2
            ],
            [
                "max_range",
                2
            ],
            [
                "map_hit_add_blend",
                [
                    255,
                    255,
                    0
                ]
            ],
            [
                "prf_unit",
                [
                    "Moudrost"
                ]
            ],
            [
                "shove_on_end_combat_initiate",
                1
            ]
        ]
    }
]