[
    {
        "name": "Reinforcements_4",
        "trigger": "turn_change",
        "level_nid": "20",
        "condition": "False",
        "commands": [],
        "only_once": false,
        "priority": 20,
        "_source": [
            "add_group;Rein_4;Rein_4;fade;closest",
            "move_cursor;7,0",
            "flicker_cursor;7,0",
            "move_cursor;13,0",
            "flicker_cursor;13,0",
            "move_cursor;13,7",
            "flicker_cursor;13,7",
            "#game.turncount == 9"
        ]
    }
]