[
    {
        "name": "Reinforcements",
        "trigger": "turn_change",
        "level_nid": "2",
        "condition": "True",
        "commands": [],
        "only_once": false,
        "priority": 20,
        "_source": [
            "if;game.turncount == 5",
            "add_group;rein1;rein1;fade;closest",
            "center_cursor;113;immediate",
            "flicker_cursor;113",
            "center_cursor;114;immediate",
            "flicker_cursor;114",
            "elif;game.turncount == 8",
            "add_group;rein2;rein2;fade;closest",
            "center_cursor;115;immediate",
            "flicker_cursor;115",
            "center_cursor;116;immediate",
            "flicker_cursor;116",
            "end"
        ]
    }
]