[
    {
        "name": "Reinforcement",
        "trigger": "turn_change",
        "level_nid": "30",
        "condition": "game.turncount >= 2 and game.turncount < 5",
        "commands": [],
        "only_once": false,
        "priority": 20,
        "_source": [
            "create_unit;113;;;2,1;fade;closest;copy_stats",
            "move_cursor;2,1",
            "flicker_cursor;2,1"
        ]
    }
]