[
    {
        "name": "Door_Unlock",
        "trigger": "Door",
        "level_nid": "33",
        "condition": "'Door' in region.nid",
        "commands": [],
        "only_once": false,
        "priority": 20,
        "_source": [
            "if;region.nid == 'Door_1'",
            "remove_unit;door_1;immediate",
            "remove_unit;door_2;immediate",
            "show_layer;door1;fade",
            "elif;region.nid == 'Door_2'",
            "remove_unit;door_3;immediate",
            "remove_unit;door_4;immediate",
            "show_layer;door2;fade",
            "elif;region.nid == 'Door_3'",
            "remove_unit;door_5;immediate",
            "remove_unit;door_6;immediate",
            "show_layer;door3;fade",
            "end",
            "unlock;{unit}",
            "has_attacked;{unit}"
        ]
    }
]