[
    {
        "name": "Outro",
        "trigger": "level_end",
        "level_nid": "33",
        "condition": "True",
        "commands": [],
        "only_once": false,
        "priority": 20,
        "_source": [
            "trigger_script;Global Global_Battle_Cleanup"
        ]
    }
]