[
    {
        "name": "Win_Condition",
        "trigger": "combat_end",
        "level_nid": "36",
        "condition": "True",
        "commands": [],
        "only_once": false,
        "priority": 20,
        "_source": [
            "if;not any([u for u in game.get_enemy_units()])",
            "win_game",
            "end",
            "",
            ""
        ]
    }
]