[
    {
        "name": "AI_Charge_1",
        "trigger": "turn_change",
        "level_nid": "4",
        "condition": "game.turncount == 2",
        "commands": [],
        "only_once": false,
        "priority": 20,
        "_source": [
            "change_ai;107;Seize",
            "change_ai;109;Seize"
        ]
    }
]