[
    {
        "name": "Charge",
        "trigger": "turn_change",
        "level_nid": "54",
        "condition": "game.turncount == 2",
        "commands": [],
        "only_once": false,
        "priority": 20,
        "_source": [
            "change_ai;107;Pursue",
            "change_ai;103;Pursue",
            "change_ai;101;Pursue",
            "change_ai;105;Pursue",
            "change_ai;102;Pursue"
        ]
    }
]