[
    {
        "name": "Loss_Condition",
        "trigger": "Enemy_Capture_Zone",
        "level_nid": "55",
        "condition": "True",
        "commands": [],
        "only_once": false,
        "priority": 20,
        "_source": [
            "trigger_script;Global Global_Loss"
        ]
    }
]