[
    {
        "name": "Pillars_Die",
        "trigger": "unit_death",
        "level_nid": "59",
        "condition": "'pillar' in unit.nid",
        "commands": [],
        "only_once": false,
        "priority": 20,
        "_source": [
            "if;unit.nid == 'pillarR'",
            "    show_layer;R",
            "elif;unit.nid == 'pillarL'",
            "    show_layer;L",
            "elif;unit.nid == 'pillarM'",
            "    show_layer;M",
            "end",
            ""
        ]
    }
]