[
    {
        "name": "Reinforcements_1",
        "trigger": "turn_change",
        "level_nid": "8",
        "condition": "any_unit_in_region('spire_zone', team='player')",
        "commands": [],
        "only_once": false,
        "priority": 20,
        "_source": [
            "if;game.level_vars.get('reins', 0) != 1",
            "    add_group;rein1;rein1;;closest",
            "    center_cursor;109;immediate",
            "    flicker_cursor;109",
            "    center_cursor;110;immediate",
            "    flicker_cursor;110",
            "    center_cursor;111;immediate",
            "    flicker_cursor;111",
            "    level_var;infinites;1",
            "    level_var;reins;1",
            "end"
        ]
    }
]