[
    {
        "name": "z. Event - Crypt",
        "trigger": null,
        "level_nid": "Act_1",
        "condition": "True",
        "commands": [],
        "only_once": false,
        "priority": 20,
        "_source": [
            "speak;;The earth suddenly shakes and buckles beneath you, sending your party down into an ancient crypt.|You look around as the dust clears,|and see the jewelry-bedecked skeleton of an ancient lord on a moldering throne.|Besides it, there are two weapons coated in the rust and dirt of ages.;center;NumLines=3;DialogBox=menu_bg_parchment",
            "#",
            "choice;song;What will you do?;['1|Take the jewelry <icon>event_accessory</><icon>event_accessory</>','2|Take the weapons <icon>event_weapon</><icon>event_weapon</>','3|Challenge the skeleton <icon>event_fight</><icon>event_weapon</>'];200;expression",
            "#",
            "if;'{v:song}' == '1'",
            "speak;;No sooner does the old jewelry come off the skeleton's body| than the bones, and the weapon, at last crumble to dust.|You clean your prize as best you can, and put it on to wear proudly.;center;NumLines=3;DialogBox=menu_bg_parchment",
            "trigger_script_with_args;Global Global_Random_Reward;receiver,convoy,item_type,accessory",
            "give_item;convoy;StoneCirclet",
            "trigger_script;Global Get_Next_Chapter",
            "win_game",
            "#",
            "elif;'{v:song}' == '2'",
            "speak;;No sooner do the weapons rise from the stone than the skeleton, and its jewelry, at last crumble to dust.|You slam the weapons against the wall, and the rust ripples off in waves.|Once again, the weapons are ready to wield proudly.;center;NumLines=3;DialogBox=menu_bg_parchment",
            "trigger_script_with_args;Global Global_Random_Reward;receiver,convoy,item_type,weapon",
            "choice;reward_choice;Choose an item;['Excalipoor','Longinuts','Arumad','Gandurrva'];100;v;center;;;type_base_item;4,1;center;expression",
            "give_item;convoy;{v:reward_choice}",
            "trigger_script;Global Get_Next_Chapter",
            "win_game",
            "#",
            "else",
            "speak;;As if in response to your hostility,|the skeleton rips a weapon from its side and clambers to life,|and the shades of warriors manifest throughout the room.;center;NumLines=3;DialogBox=menu_bg_parchment",
            "set_next_chapter;EV_Crypt",
            "game_var;in_combat;1",
            "game_var;next_reward;'Normal'",
            "skip_save;t",
            "win_game",
            "end"
        ]
    }
]