[
    {
        "name": "z. Event - Timecube",
        "trigger": null,
        "level_nid": "Act_3",
        "condition": "True",
        "commands": [],
        "only_once": false,
        "priority": 20,
        "_source": [
            "speak;;You take a step forwards, and find no purchase- you're plummeting through open air, no longer where you once were.|Pinpricks of light fly by you, and you feel that these are places you've been, people you've known, each too fleeting for you to grasp.|You close your eyes, focusing, and the roaring wind grows quieter and quieter until all is silent.|When you open your eyes, you see...;center;NumLines=5;DialogBox=menu_bg_parchment",
            "#",
            "choice;bag;What do you see?;['1|The Past <icon>event_mystery</>','2|The Present <icon>event_exp</>','3|The Future <icon>event_essence</>'];200;expression",
            "#",
            "if;'{v:bag}' == '1'",
            "    speak;;You manifest a vision of what once was, but cannot reach further back than when you entered this place.|While there are no answers to be found, you manage to pluck your companions out of the past.|You blink once, and are back where you were before.;center;NumLines=5;DialogBox=menu_bg_parchment",
            "    #",
            "    #",
            "    if;any([u for u in game.get_all_units_in_party() if is_dead(u.nid) and not 'Banished' in u.tags])",
            "        choice;revival;Who to revive?;[u.nid + '|' + u.name for u in game.get_all_units_in_party() if is_dead(u.nid) and not 'Banished' in u.tags];Dimensions=6,1;expression;scroll_bar",
            "        trigger_script_with_args;Global Global Revive;to_revive,{v:revival}",
            "    end",
            "    #",
            "    #",
            "    level_var;heal_amt;0.25",
            "    for;FAITH;[unitx.nid for unitx in game.get_units_in_party() if has_skill(unitx, 'Faith')]",
            "        level_var;heal_amt;max(v('heal_amt'), 0.25 + 0.05 * len([skill.nid for skill in u('{FAITH}').skills if skill.nid == 'Faith']))",
            "    endf",
            "    for;player_unit;[u for u in game.get_units_in_party()]",
            "        set_current_hp;{player_unit};{e:u('{player_unit}').get_hp() + int(u('{player_unit}').get_max_hp() * v('heal_amt'))}",
            "    endf",
            "    alert;All units healed!",
            "    #",
            "    #",
            "elif;'{v:bag}' == '2'",
            "    speak;;You manifest a vision of what still is, and find yourself in a thousand thousand places.|Like a hall of mirrors, reflections of the now fill your mind, each different in infinitesimal ways.|You choose one to focus on, and suddenly, you're there, and the reflections are gone.|Perhaps this is a better world than the last...;center;NumLines=5;DialogBox=menu_bg_parchment",
            "    trigger_script_with_args;Global Global_Give_Exp;receiver,all,amount,150,alert,Yes",
            "else",
            "    speak;;You manifest a vision of what will be, and the wind rises again, more furious than ever before.|You barely have time to react before you've hurtled past your own time, then past that of a thousand more lives, into worlds unknown and terrible.|Horrified by what you see, you try to recall a safer time, growing ever more distant with each second.|When you awaken, you feel a great weight on your shoulders.|Perhaps you can plan for this horrible future?;center;NumLines=5;DialogBox=menu_bg_parchment",
            "    trigger_script_with_args;Global Global_Give_Currency;amount,150,currency_type,Essence",
            "end",
            "trigger_script;Global Get_Next_Chapter",
            "win_game"
        ]
    }
]