[
    {
        "name": "Talk_Strategist",
        "trigger": "on_talk",
        "level_nid": "Act_3",
        "condition": "unit2.nid in ['strategist']",
        "commands": [],
        "only_once": false,
        "priority": 20,
        "_source": [
            "textbox;gold;\"Gold: \" + str(game.get_money());top_left;100;expression",
            "choice;level_buy;Buy a Stratagem for 300 gold?;Yes,No;backable",
            "if;'{v:level_buy}' == 'Yes' and game.get_money() >= 300",
            "trigger_script;Global Stratagem_Select",
            "give_money;-300;no_banner",
            "remove_unit;{unit2}",
            "elif;'{v:level_buy}' == 'Yes' and game.get_money() < 300",
            "alert;Not enough money!",
            "add_talk;{v:main_unit};{unit2}",
            "else",
            "add_talk;{v:main_unit};{unit2}",
            "end",
            "remove_table;gold"
        ]
    }
]