[
    {
        "name": "Talk_Healer",
        "trigger": "on_talk",
        "level_nid": "Act_Ophie",
        "condition": "unit2.nid in ['healer']",
        "commands": [],
        "only_once": false,
        "priority": 20,
        "_source": [
            "trigger_script;Global Talk_Healer"
        ]
    }
]