[
    {
        "name": "z. Event - Vulnerary Crate",
        "trigger": null,
        "level_nid": "Act_1",
        "condition": "True",
        "commands": [],
        "only_once": false,
        "priority": 20,
        "_source": [
            "speak;;Horror of horrors!|A crate of glass-bottled Vulneraries sits on a cliff just in front of you,|teetering on the verge of falling.;center;DialogBox=menu_bg_parchment",
            "choice;bag;What will you do?;['1|Try to catch the box <icon>event_chance</><icon>event_item</>','2|Catch a single Vulnerary <icon>event_item</>'];200;expression",
            "if;'{v:bag}' == '1'",
            "    speak;;You run up to the cliff as fast as you can,|and just as the box begins to fall...;center;DialogBox=menu_bg_parchment",
            "    level_var;smelly;game.get_random(0,1)",
            "    if;{v:smelly} == 1",
            "        speak;;you just miss it, and its contents hit the ground and shatter.;center;DialogBox=menu_bg_parchment",
            "    else",
            "        speak;;you catch its edge, bringing the Vulneraries to safety.;center;DialogBox=menu_bg_parchment",
            "        give_item;convoy;Vulnerary",
            "        give_item;convoy;Vulnerary",
            "        give_item;convoy;Vulnerary",
            "    end",
            "else",
            "    speak;;The box tumbles off the cliff, and you snatch a single Vulnerary out of the air.|The rest, however, slam onto the ground and shatter.;center;DialogBox=menu_bg_parchment",
            "    give_item;convoy;Vulnerary",
            "end",
            "trigger_script;Global Get_Next_Chapter",
            "win_game"
        ]
    }
]