[
    {
        "name": "Talk_Armory",
        "trigger": "on_talk",
        "level_nid": "Act_2",
        "condition": "unit2.nid in ['armory']",
        "commands": [],
        "only_once": false,
        "priority": 20,
        "_source": [
            "shop;{unit};{e:','.join([i for i in {v:armory_items}])};armory;1,1,1,1,1,1,1,1,1,1;{e:'armory' + '{v:armory_nids}'}",
            "add_talk;{v:main_unit};{unit2}"
        ]
    }
]