[
    {
        "name": "z. Event - Thieves",
        "trigger": null,
        "level_nid": "Act_2",
        "condition": "True",
        "commands": [],
        "only_once": false,
        "priority": 20,
        "_source": [
            "speak;;Looking down at your packs, you notice them to be a bit lighter than usual -|and then realize much of your money is missing!|Footsteps continue into the wilderness near the trail,|likely of those who took your gold.;center;DialogBox=menu_bg_parchment",
            "level_var;stealer;len([u for u in game.get_units_in_party() if u.klass in ['Thief', 'Brigand', 'Rogue', 'Trickster', 'Outlaw'] or has_skill(u, 'Steal')]) >= 1",
            "if;v('stealer')",
            "choice;thieves;What will you do?;['1|Ignore the theft  <icon>event_money_down</>','2|Attack the thieves <icon>event_fight</><icon>event_money_down</><icon>event_money</><icon>event_weapon</>'];200;expression",
            "else",
            "choice;thieves;What will you do?;['1|Ignore the theft  <icon>event_money_down</>','2|Attack the thieves <icon>event_fight</><icon>event_money_down</><icon>event_money</><icon>event_weapon</>','3|Use diplomacy <icon>event_money_down</><icon>event_item</>'];200;expression",
            "end",
            "if;'{v:thieves}' == '1'",
            "speak;;You decide it's not worth it to pursue the thieves, and continue on your way.;center;DialogBox=menu_bg_parchment",
            "give_money;-500",
            "trigger_script;Global Get_Next_Chapter",
            "win_game",
            "elif;'{v:thieves}' == '2'",
            "speak;;You soon find them nearby, attempting to escape with their bags of loot.;center;DialogBox=menu_bg_parchment",
            "give_money;-500",
            "set_next_chapter;EV_Thieves",
            "game_var;in_combat;1",
            "game_var;next_reward;'LowEXP'",
            "skip_save;t",
            "win_game",
            "elif;'{v:thieves}' == '3'",
            "speak;;A fellow thief in your party confronts the robbers,|and manages to talk the criminals into returning your gold,|plus a cool item for the trouble.|...Well, most of your gold.;center;DialogBox=menu_bg_parchment",
            "give_money;-75",
            "trigger_script_with_args;Global Global_Random_Reward;receiver,convoy,item_type,accessory",
            "trigger_script;Global Get_Next_Chapter",
            "win_game",
            "end"
        ]
    }
]