[
    {
        "name": "z. Event - NiceDay",
        "trigger": null,
        "level_nid": "Act_1",
        "condition": "True",
        "commands": [],
        "only_once": false,
        "priority": 20,
        "_source": [
            "trigger_script;Global Get_Next_Chapter",
            "speak;;The weather is especially fine today.|You have a long road ahead of you, and lots of threats ahead,|but all in all?|No matter what challenges you're up against, you feel great.;center;DialogBox=menu_bg_parchment;NumLines=3",
            "for;party_unit;[u.nid for u in game.get_units_in_party()]",
            "change_stats;{party_unit};STR,1,MAG,1,SKL,1,SPD,1,DEF,1,RES,1,LCK,1;immediate",
            "endf",
            "speak;;All units got +1 to all stats!;center;DialogBox=menu_bg_parchment",
            "win_game"
        ]
    }
]