[
    {
        "name": "Run_Info",
        "trigger": "roam_press_info",
        "level_nid": "Act_2",
        "condition": "True",
        "commands": [],
        "only_once": false,
        "priority": 20,
        "_source": [
            "speak;;Room {v:Floor}{br}<icon>event_money</>Current Gold: {e:game.get_money()}{br}<icon>event_essence</>Current Essence: {v:run_essence}   <violet>Have: {e:RECORDS.get('Essence')}</>{br}<icon>event_flame</>Current Flame: {v:run_flame}   <violet>Have: {e:RECORDS.get('Flame')}</>{br}<icon>event_fragments</>Current Fragments: {v:run_fragments}   <violet>Have: {e:RECORDS.get('Fragments')}</>{br}<icon>Master_Seal</>Current Master Seals: {v:run_seals}   <violet>Have: {e:RECORDS.get('Master_Seals')}</>{br}<icon>spark_shard</>Current Spark Shards: {v:run_sparks}   <violet>Have: {e:RECORDS.get('Spark_Shards')}</>;center;NumLines=7;DialogBox=menu_bg_parchment"
        ]
    }
]