[
    {
        "name": "z. Event - Voice",
        "trigger": null,
        "level_nid": "Act_3",
        "condition": "True",
        "commands": [],
        "only_once": false,
        "priority": 20,
        "_source": [
            "trigger_script;Global Get_Next_Chapter",
            "speak;;You've begun to hear voices in your sleep. A crackling, rusky voice invades your dreams, offering you riches and rewards - but at the cost of your abilities.|Other members have begun to hear it too, and you have a feeling it won't go away until it gets what it wants...;center;NumLines=5;DialogBox=menu_bg_parchment",
            "if;any(u for u in game.get_units_in_party() if len([s for s in u.skills if s.class_skill]) > 0)",
            "    choice;Remove_From_Unit;Who succumbs?;[u.nid + '|' + u.name for u in game.get_units_in_party() if len([s for s in u.skills if s.class_skill]) > 0];Dimensions=8,1;Alignment=left;EventNid=z. Event - Voice_Sub;expression;backable",
            "    choice;proceed;Resist?;Yes,No",
            "    if;'{v:proceed}' == 'No'",
            "        trigger_script;z. Event - Voice",
            "    end",
            "    s;;You'll keep on struggling no matter what - it's the right thing to do! But it slowly begins to take a toll on you...;center;NumLines=5;DialogBox=menu_bg_parchment",
            "    level_var;struggle;game.get_units_in_party()[game.get_random(0, len(game.get_units_in_party()) - 1)].nid",
            "    set_current_hp;{e:game.get_unit('{v:struggle}')};{e:max(game.get_unit('{v:struggle}').get_hp() - 10, 1)}",
            "    alert;{e:game.get_unit('{v:struggle}').name} took 10 damage!",
            "else",
            "    speak;;...but for whatever reason, the voice instead dissipates.|How strange.|You continue on your way, baffled.;center;NumLines=5;DialogBox=menu_bg_parchment",
            "end",
            "win_game",
            ""
        ]
    }
]