[
    {
        "name": "Turn_Change",
        "trigger": "turn_change",
        "level_nid": "DEBUG",
        "condition": "True",
        "commands": [],
        "only_once": false,
        "priority": 20,
        "_source": [
            "#game_var;EirikaSupport;True",
            "#level_var;test;target_system.get_valid_moves(u('Go_Stone'), force=True)",
            "#speak;;{v:test}",
            "#change_objective_simple;{e:'{v:obj_simple}' + ', <red>100 turns</>'}"
        ]
    }
]