[
    {
        "name": "Outro",
        "trigger": "level_end",
        "level_nid": "Fabien",
        "condition": "True",
        "commands": [],
        "only_once": false,
        "priority": 20,
        "_source": [
            "game_var;in_combat;0",
            "transition",
            "change_background;BlackBackground",
            "remove_all_units",
            "make_generic;Chantal_F;Magician;1;enemy",
            "make_generic;LT_F;Manakete_Lord;1;player",
            "make_generic;Edryd_F;Great_Knight;1;player",
            "make_generic;Soldier1;Halberdier;1;enemy",
            "make_generic;Soldier2;Soldier;1;enemy",
            "make_generic;Soldier3;Soldier;1;enemy",
            "make_generic;Soldier4;Soldier;1;enemy",
            "make_generic;Soldier5;Soldier;1;enemy",
            "add_unit;LT_F;10,5",
            "add_unit;Edryd_F;11,5",
            "add_unit;Chantal_F;10,8",
            "add_unit;Soldier1;10,10",
            "add_unit;Soldier2;7,5",
            "add_unit;Soldier3;7,7",
            "add_unit;Soldier4;13,5",
            "add_unit;Soldier5;13,7",
            "center_cursor;LT_F;immediate",
            "change_background",
            "transition",
            "flicker_cursor;Chantal_F",
            "multi_add_portrait;Chantal;Left;Player;MidRight;Edryd;FarRight",
            "speak;Chantal;Fabien?{w} Fabien, where are-{w} Ah.|So you've already moved on... without me...",
            "speak;Edryd;This battle is over.|Be grateful that you yet draw breath.|If you're smart, you'll flee and live your life out quietly.",
            "speak;Chantal;...|As if I even could.|Eventually, the Oculi will come and take it all away.|Our money, our freedom... and our lives.",
            "speak;Edryd;I understand the law of the Oculi isn't the most comfortable.|But surely it's better than anarchy!|If this gate was torn open, we'd all be dead.",
            "speak;Chantal;I'd be dead either way.|That's what it means to be a Priestess, right?|Either I tear open that gate and kill us all,|or I simply die to keep it shut.|How is that fair?",
            "speak;Edryd;...",
            "speak;Chantal;Regardless, with Fabien gone...|I suppose there's nothing left.|You'll get your wish, madame Scale.|My blood will feed the gate...|But so will yours!",
            "speak;Edryd;!?{w} Look out!",
            "multi_remove_portrait;Chantal;Edryd;Player",
            "move_unit;Chantal_F;10,7;no_block",
            "move_unit;Edryd_F;10,6",
            "sound;Critical Kill",
            "transition;close;;200,0,0",
            "transition;open",
            "multi_add_portrait;Chantal;Left;Player;Right;Edryd;MidRight",
            "speak;Edryd;Are you... ok?",
            "wait;300",
            "speak;Edryd;That's... good.|There's still someone... to...|look after her...",
            "multi_remove_portrait;Chantal;Player;Edryd",
            "kill_unit;Edryd_F",
            "multi_add_portrait;Chantal;Left;Player;Right",
            "speak;Chantal;Looks like...{w} We both lose our love today...|He heh... HAHAHAHA...",
            "multi_remove_portrait;Chantal;Player",
            "kill_unit;Chantal_F",
            "flicker_cursor;Soldier1",
            "add_portrait;SoldierRed;Left",
            "speak;SoldierRed;Our commanders may be defeated, but we have strength yet!|Men, to arms!{w} We kill the Scale today!",
            "remove_portrait;SoldierRed",
            "move_unit;Soldier1;10,7;no_block",
            "move_unit;Soldier2;8,5;no_block",
            "move_unit;Soldier3;8,6;no_block",
            "move_unit;Soldier4;12,5;no_block",
            "move_unit;Soldier5;12,6",
            "move_unit;LT_F;10,4",
            "flicker_cursor;LT_F",
            "transition",
            "change_background;BlackBackground",
            "transition",
            "end_skip",
            "speak;;This is where it truly began, isn't it?|Cornered and alone, with nothing but pain and anger in your heart.|You made the decision to open the gate... {w}just {w}a {w}bit.|That one cardinal sin.|You peered into the endless Fog.|The infinite swirl of memories.|And you accepted its power unto yourself.|Regardless of consequence.|It was here that you became known as...|The Fell Dragon.;center;NumLines=3;DialogBox=menu_bg_parchment",
            "add_weather;smoke",
            "show_layer;gate",
            "transition",
            "change_background",
            "transition",
            "screen_shake;0",
            "add_portrait;SoldierRed;Left",
            "speak;SoldierRed;W-What's happening!?|She opened the gate herself?|W-What is... this fog...?|I feel... like my mind... my life...|They're... slipping... away...|AAAAAGGHH!",
            "remove_portrait;SoldierRed",
            "remove_all_enemies",
            "screen_shake_end",
            "add_portrait;Player;Right",
            "speak;Player;.........",
            "expression;Player;Smile",
            "wait;300",
            "remove_portrait;Player",
            "end_skip",
            "if;not RECORDS.get('fog_gate_opening')",
            "    create_record;fog_gate_opening;'Discovered'",
            "    remove_item;Player;Dragonstone_LT;no_banner",
            "    give_item;Player;Fog_Embrace",
            "    alert;Fabien's and Chantal's key obtained!;;;fabien_key",
            "end",
            "transition",
            "change_background;BlackBackground",
            "transition",
            "if;not RECORDS.get('SI_unlocked')",
            "    create_record;SI_unlocked;1",
            "    alert;Skill Inheritance has been unlocked!",
            "end",
            "level_var;seals;0",
            "if;RECORDS.get('currency_blocker') != 'Locked'",
            "    level_var;level_id;game.level.nid",
            "    for;deploys;[u for u in {v:deployed_units}]",
            "        if;not RECORDS.get('{e:'{deploys}' + game.level.nid}')",
            "            game_var;ms_tracker;{v:ms_tracker} + ['{e:'{deploys}' + game.level.nid}']",
            "            inc_level_var;seals;1",
            "        end",
            "    endf",
            "end",
            "if;{v:seals} > 0",
            "    trigger_script_with_args;Global Global_Give_Currency;amount,{v:seals},currency_type,Master_Seals",
            "end",
            "trigger_script;Global Global_Battle_Cleanup",
            "if;is_dead('Player')",
            "    resurrect;Player",
            "    set_current_hp;Player;99",
            "end",
            "trigger_script_with_args;Global Get_Playable_Units;state,alive",
            "for;player_unit;[u for u in {v:all_playable_units}]",
            "    set_current_hp;{player_unit};99",
            "    if;has_skill(u('{player_unit}'), 'Unholy_Resurrection_Recharging')",
            "        remove_skill;{player_unit};Unholy_Resurrection_Recharging;no_banner",
            "    end",
            "endf",
            "trigger_script;Global Act_End"
        ]
    }
]