[
    {
        "name": "Reinforcements",
        "trigger": "turn_change",
        "level_nid": "Fabien",
        "condition": "True",
        "commands": [],
        "only_once": false,
        "priority": 20,
        "_source": [
            "if;game.turncount == 3",
            "    add_group;rein1;rein1;;closest",
            "    center_cursor;wave1_1;immediate",
            "    flicker_cursor;wave1_1",
            "    center_cursor;wave1_2;immediate",
            "    flicker_cursor;wave1_2",
            "    center_cursor;wave1_3;immediate",
            "    flicker_cursor;wave1_3",
            "    center_cursor;wave1_4;immediate",
            "    flicker_cursor;wave1_4",
            "elif;game.turncount == 4",
            "    add_group;rein2;rein2;;closest",
            "    center_cursor;wave2_1;immediate",
            "    flicker_cursor;wave2_1",
            "    center_cursor;wave2_2;immediate",
            "    flicker_cursor;wave2_2",
            "    center_cursor;115;immediate",
            "    flicker_cursor;115",
            "    center_cursor;116;immediate",
            "    flicker_cursor;116",
            "elif;game.turncount == 5",
            "    add_group;rein3;rein3;;closest",
            "    center_cursor;wave3_1;immediate",
            "    flicker_cursor;wave3_1",
            "    center_cursor;wave3_2;immediate",
            "    flicker_cursor;wave3_2",
            "    if;RECORDS.get('Act_2_Power_level') == 0",
            "        if;'{v:direction1}' == '{v:direction2}'",
            "            speak;;You hear footsteps from the {v:direction1}...;center;NumLines=3;DialogBox=menu_bg_parchment",
            "        else",
            "            speak;;You hear footsteps from the {v:direction1} and the {v:direction2}...;center;NumLines=3;DialogBox=menu_bg_parchment",
            "        end",
            "    end",
            "elif;game.turncount == 6",
            "    if;RECORDS.get('Act_2_Power_level') > 0",
            "        add_group;hm_rein4;hm_rein4;;closest",
            "        center_cursor;wave4_1;immediate",
            "        flicker_cursor;wave4_1",
            "        center_cursor;wave4_2;immediate",
            "        flicker_cursor;wave4_2",
            "        center_cursor;wave4_3;immediate",
            "        flicker_cursor;wave4_3",
            "        if;'{v:direction1}' == '{v:direction2}'",
            "            speak;;You hear footsteps from the {v:direction1}...;center;NumLines=3;DialogBox=menu_bg_parchment",
            "        else",
            "            speak;;You hear footsteps from the {v:direction1} and the {v:direction2}...;center;NumLines=3;DialogBox=menu_bg_parchment",
            "        end",
            "    else",
            "        if;'{v:direction1}' == 'Southwest'",
            "            add_unit;Fabien;0,16;;closest",
            "        elif;'{v:direction1}' == 'Southeast'",
            "            add_unit;Fabien;20,16;;closest",
            "        elif;'{v:direction1}' == 'South'",
            "            add_unit;Fabien;9,17;;closest",
            "        elif;'{v:direction1}' == 'West'",
            "            add_unit;Fabien;0,10;;closest",
            "        elif;'{v:direction1}' == 'East'",
            "            add_unit;Fabien;20,10;;closest",
            "        end",
            "        center_cursor;Fabien;immediate",
            "        flicker_cursor;Fabien",
            "        if;'{v:direction2}' == 'Southwest'",
            "            add_unit;Chantal;0,17;;closest",
            "        elif;'{v:direction2}' == 'Southeast'",
            "            add_unit;Chantal;20,17;;closest",
            "        elif;'{v:direction2}' == 'South'",
            "            add_unit;Chantal;11,17;;closest",
            "        elif;'{v:direction2}' == 'West'",
            "            add_unit;Chantal;0,11;;closest",
            "        elif;'{v:direction2}' == 'East'",
            "            add_unit;Chantal;20,11;;closest",
            "        end",
            "        center_cursor;Chantal;immediate",
            "        flicker_cursor;Chantal",
            "    end",
            "elif;game.turncount == 7 and RECORDS.get('Act_2_Power_level') > 0",
            "    if;'{v:direction1}' == 'Southwest'",
            "        add_unit;Fabien;0,16;;closest",
            "    elif;'{v:direction1}' == 'Southeast'",
            "        add_unit;Fabien;20,16;;closest",
            "    elif;'{v:direction1}' == 'South'",
            "        add_unit;Fabien;9,17;;closest",
            "    elif;'{v:direction1}' == 'West'",
            "        add_unit;Fabien;0,10;;closest",
            "    elif;'{v:direction1}' == 'East'",
            "        add_unit;Fabien;20,10;;closest",
            "    elif;'{v:direction1}' == 'Northwest'",
            "        add_unit;Fabien;1,5;;closest",
            "    elif;'{v:direction1}' == 'Northeast'",
            "        add_unit;Fabien;19,5;;closest",
            "    end",
            "    center_cursor;Fabien;immediate",
            "    flicker_cursor;Fabien",
            "    if;'{v:direction2}' == 'Southwest'",
            "        add_unit;Chantal;0,17;;closest",
            "    elif;'{v:direction2}' == 'Southeast'",
            "        add_unit;Chantal;20,17;;closest",
            "    elif;'{v:direction2}' == 'South'",
            "        add_unit;Chantal;11,17;;closest",
            "    elif;'{v:direction2}' == 'West'",
            "        add_unit;Chantal;0,11;;closest",
            "    elif;'{v:direction2}' == 'East'",
            "        add_unit;Chantal;20,11;;closest",
            "    elif;'{v:direction2}' == 'Northwest'",
            "        add_unit;Chantal;0,5;;closest",
            "    elif;'{v:direction2}' == 'Northeast'",
            "        add_unit;Chantal;20,5;;closest",
            "    end",
            "    center_cursor;Chantal;immediate",
            "    flicker_cursor;Chantal",
            "end"
        ]
    }
]