[
    {
        "name": "Skill_Removal_Trinity",
        "trigger": "turn_change",
        "level_nid": "Final",
        "condition": "game.get_unit('Trinity_Final').position",
        "commands": [],
        "only_once": false,
        "priority": 20,
        "_source": [
            "remove_skill;Trinity_Final;Mov_Lock_Tri;no_banner"
        ]
    }
]