[
    {
        "name": "Global_Give_Currency",
        "trigger": null,
        "level_nid": null,
        "condition": "True",
        "commands": [],
        "only_once": false,
        "priority": 20,
        "_source": [
            "level_var;total_amount;int({e:amount} * (1 + (.1 * {v:b_unit_bonuses})))",
            "if;'{e:currency_type}' == 'Essence'",
            "    inc_game_var;run_essence;{v:total_amount}",
            "    alert;Gained {v:total_amount} Essence!",
            "elif;'{e:currency_type}' == 'Flame'",
            "    inc_game_var;run_flame;{v:total_amount}",
            "    alert;Gained {v:total_amount} Flame!",
            "elif;'{e:currency_type}' == 'Fragments'",
            "    inc_game_var;run_fragments;{v:total_amount}",
            "    alert;Gained {v:total_amount} Fragments!",
            "elif;'{e:currency_type}' == 'Master_Seals'",
            "    inc_game_var;run_seals;{e:amount}",
            "    alert;Gained {e:amount} Master Seals!",
            "elif;'{e:currency_type}' == 'Spark_Shard'",
            "    inc_game_var;run_sparks;{e:amount}",
            "    alert;Gained {e:amount} Spark Shards!",
            "end"
        ]
    }
]