[
    {
        "name": "Ability_Preistess_Protection",
        "trigger": null,
        "level_nid": null,
        "condition": "True",
        "commands": [],
        "only_once": false,
        "priority": 20,
        "_source": [
            "set_current_hp;{unit};{e:unit.get_hp() + (len([u.nid for u in game.get_enemy_units() if 'Priestess' in u.nid or u.nid == 'Loreia_B' or u.nid == 'Loreia_Final']) * 2)}"
        ]
    }
]