[
    {
        "name": "Ability_Empower",
        "trigger": null,
        "level_nid": null,
        "condition": "True",
        "commands": [],
        "only_once": false,
        "priority": 20,
        "_source": [
            "remove_skill;{unit};Empowered;no_banner"
        ]
    }
]