[
    {
        "name": "Item_Beef",
        "trigger": null,
        "level_nid": null,
        "condition": "True",
        "commands": [],
        "only_once": false,
        "priority": 20,
        "_source": [
            "change_team;{unit2};player",
            "if;RECORDS.get('Tamer_5')",
            "    if;game.game_vars.get('tame_count', 0) > 0",
            "        inc_game_var;tame_count;1",
            "    else",
            "        gvar;tame_count;1",
            "    end",
            "    recruit_generic;{unit2};{e:'Friend_' + '{v:tame_count}'};{e:'Friend ' + '{v:tame_count}'}",
            "    change_party;{unit2};Flex",
            "    add_tag;{unit2};Tamed",
            "else",
            "    add_tag;{unit2};Temporary",
            "end",
            "for;lock_item;[i.uid for i in unit2.items]",
            "    add_item_component;{unit2};{lock_item};locked",
            "endf",
            "give_skill;{unit2};No_Trade;no_banner"
        ]
    }
]