[
    {
        "name": "Music_Battle_End",
        "trigger": "level_end",
        "level_nid": null,
        "condition": "True",
        "commands": [],
        "only_once": false,
        "priority": 99,
        "_source": [
            "if;game.level.nid not in ['Act_1','Act_2','Act_3','Act_4','X','Act_Ophie']",
            "    music_fade_back",
            "end"
        ]
    }
]