[
    {
        "name": "Ability_Ritual_Lament_Stat_Gain",
        "trigger": "unit_death",
        "level_nid": null,
        "condition": "unit.team == 'player'",
        "commands": [],
        "only_once": false,
        "priority": 20,
        "_source": [
            "if;not unit.generic and not 'Temporary' in unit.tags",
            "    for;Lamenting;[u.nid for u in game.get_player_units() if u.position and has_skill(u,'Ritual_Lament')]",
            "        if;unit.affinity == 'Fire' or any([s.has_affinities and 'Fire' in s.has_affinities.value for s in unit.skills])",
            "            change_stats;{Lamenting};STR,1;immediate",
            "        elif;unit.affinity == 'Anima' or any([s.has_affinities and 'Anima' in s.has_affinities.value for s in unit.skills])",
            "            change_stats;{Lamenting};MAG,1;immediate",
            "        elif;unit.affinity == 'Thunder' or any([s.has_affinities and 'Thunder' in s.has_affinities.value for s in unit.skills])",
            "            change_stats;{Lamenting};SKL,2;immediate",
            "        elif;unit.affinity == 'Wind' or any([s.has_affinities and 'Wind' in s.has_affinities.value for s in unit.skills])",
            "            change_stats;{Lamenting};SPD,1;immediate",
            "        elif;unit.affinity == 'Light' or any([s.has_affinities and 'Light' in s.has_affinities.value for s in unit.skills])",
            "            change_stats;{Lamenting};LCK,2;immediate",
            "        elif;unit.affinity == 'Earth' or any([s.has_affinities and 'Earth' in s.has_affinities.value for s in unit.skills])",
            "            change_stats;{Lamenting};DEF,1;immediate",
            "        elif;unit.affinity == 'Water' or any([s.has_affinities and 'Water' in s.has_affinities.value for s in unit.skills])",
            "            change_stats;{Lamenting};RES,1;immediate",
            "        elif;unit.affinity == 'Ice' or any([s.has_affinities and 'Ice' in s.has_affinities.value for s in unit.skills])",
            "            change_stats;{Lamenting};CON,1;immediate",
            "        elif;unit.affinity == 'Dark' or any([s.has_affinities and 'Dark' in s.has_affinities.value for s in unit.skills])",
            "            change_stats;{Lamenting};HP,3;immediate",
            "        end",
            "    endf",
            "end"
        ]
    }
]