[
    {
        "name": "Ability_Fade_Step",
        "trigger": null,
        "level_nid": null,
        "condition": "True",
        "commands": [],
        "only_once": false,
        "priority": 20,
        "_source": [
            "move_unit;{unit};{v:fade_step_pos};swoosh"
        ]
    }
]