[
    {
        "name": "Ability_Bravely_Default",
        "trigger": null,
        "level_nid": null,
        "condition": "True",
        "commands": [],
        "only_once": false,
        "priority": 20,
        "_source": [
            "if;item.nid == 'Brave'",
            "set_skill_data;{unit};BP;charge;max(get_skill(unit,'BP').data['charge'] - 1, -3)",
            "elif;item.nid == 'Default'",
            "set_skill_data;{unit};BP;charge;min(get_skill(unit,'BP').data['charge'] + 1, get_skill(unit,'BP').data['total_charge'])",
            "end"
        ]
    }
]