[
    {
        "name": "Item_Blue_Saber",
        "trigger": null,
        "level_nid": null,
        "condition": "True",
        "commands": [],
        "only_once": false,
        "priority": 20,
        "_source": [
            "if;mode == 'attack' and unit2.get_hp() == 0 and not has_skill(unit, 'Blue_Learning_CD') and not has_skill(unit, 'Blue_Magic')",
            "    give_skill;{unit};Blue_Learning",
            "    if;len([s for s in unit.skills if s.nid == 'Blue_Learning']) >= 5",
            "        remove_skill;{unit};Blue_Learning;no_banner",
            "        give_skill;{unit};Blue_Magic",
            "    else",
            "        give_skill;{unit};Blue_Learning_CD;no_banner",
            "    end",
            "end"
        ]
    }
]