[
    {
        "name": "Ability_Crackling_Bolt",
        "trigger": null,
        "level_nid": null,
        "condition": "True",
        "commands": [],
        "only_once": false,
        "priority": 20,
        "_source": [
            "if;len([u for u in game.get_player_units() if u.affinity == 'Thunder' or any([s.has_affinities and 'Thunder' in s.has_affinities.value for s in u.skills])]) > 1",
            "    set_current_hp;{unit2};{e:max(1, unit2.get_hp() - 7)}",
            "end"
        ]
    }
]