[
    {
        "name": "Ability_MalevolantBlight",
        "trigger": null,
        "level_nid": null,
        "condition": "True",
        "commands": [],
        "only_once": false,
        "priority": 99,
        "_source": [
            "for;poisoned;[u.nid for u in game.get_enemy_units() if any([s.negative for s in u.skills])]",
            "map_anim;MapPoison;{poisoned};5",
            "give_skill;{poisoned};Blinded_Short;no_banner",
            "give_skill;{poisoned};Toxin;no_banner",
            "give_skill;{poisoned};Toxin;no_banner",
            "#spak;;{eval:game.get_unit('{poisoned}').position}",
            "endf"
        ]
    }
]