[
    {
        "name": "Ability_Ninth_Life_Riposte",
        "trigger": "combat_end",
        "level_nid": null,
        "condition": "unit.nid == 'Valentine' or (unit2 and unit2.nid == 'Valentine')",
        "commands": [],
        "only_once": false,
        "priority": 20,
        "_source": [
            "if;get_skill(unit2, 'Ninth_Life').data['charge'] == 0 and not v('NinthLifeTriggered', False)",
            "set_skill_data;{unit2};Riposte;charge;1",
            "level_var;NinthLifeTriggered;True",
            "elif;get_skill(unit, 'Ninth_Life').data['charge'] == 0 and not v('NinthLifeTriggered', False)",
            "set_skill_data;{unit};Riposte;charge;1",
            "level_var;NinthLifeTriggered;True",
            "end"
        ]
    }
]