[
    {
        "name": "Item_Lucky_Horseshoe",
        "trigger": null,
        "level_nid": null,
        "condition": "any([i.nid == 'Lucky_Horseshoe' for i in unit.items])",
        "commands": [],
        "only_once": false,
        "priority": 20,
        "_source": [
            "remove_item;{unit};Lucky_Horseshoe;no_banner",
            "give_item;{unit};Broken_Horseshoe;no_banner"
        ]
    }
]