[
    {
        "name": "Menu_Abandon",
        "trigger": null,
        "level_nid": null,
        "condition": "True",
        "commands": [],
        "only_once": false,
        "priority": 20,
        "_source": [
            "choice;abandon;Abandon current run and calculate currencies?;Yes,No;backable",
            "if;'{v:abandon}' == 'Yes'",
            "    trigger_script;Global Global_Loss",
            "end"
        ]
    }
]