[
    {
        "name": "Ability_SwiftLearner",
        "trigger": null,
        "level_nid": null,
        "condition": "True",
        "commands": [],
        "only_once": false,
        "priority": 20,
        "_source": [
            "if;get_skill(unit, 'Flashing_Strike') and get_skill(unit, 'Flashing_Strike').data['charge'] == 0",
            "set_skill_data;{unit};Flashing_Strike;charge;1",
            "elif;get_skill(unit, 'Flashing_Strike')",
            "set_skill_data;{unit};Flashing_Strike;charge;2",
            "end",
            "give_skill;{unit};Swift_Learner_S;no_banner"
        ]
    }
]