[
    {
        "name": "Skill_HeavySlam",
        "trigger": null,
        "level_nid": null,
        "condition": "True",
        "commands": [],
        "only_once": false,
        "priority": 20,
        "_source": [
            "give_skill;{unit};DivineRod_DontHurtAllies;;no_banner",
            "interact_unit;{unit};{unit};;HeavySlam_Slam",
            "remove_skill;{unit};DivineRod_DontHurtAllies;;no_banner",
            "reset;{unit}",
            "has_traded;{unit}"
        ]
    }
]