[
    {
        "name": "Ability_Rivalry",
        "trigger": null,
        "level_nid": null,
        "condition": "True",
        "commands": [],
        "only_once": false,
        "priority": 20,
        "_source": [
            "for;rival;[u.nid for u in game.get_player_units() if not u._finished and has_skill(u,'Rivalry')]",
            "    give_skill;{rival};Rivalry_Child_1;no_banner",
            "endf",
            "#if;any([u.nid for u in game.get_player_units() if has_skill(u, 'Endless_Epidemic')])"
        ]
    }
]