[
    {
        "name": "Ability_Blue_Magic",
        "trigger": null,
        "level_nid": null,
        "condition": "True",
        "commands": [],
        "only_once": false,
        "priority": 20,
        "_source": [
            "if;unit.get_hp() > 0",
            "    if;'Trinity' in unit2.nid",
            "        trigger_script_with_args;Ability_Blue_Magic_Learn;blue_unit,{e:unit.nid},blue_skill,Dragonforme,blue_replace,NA",
            "    elif;unit2.klass == 'Machine'",
            "        trigger_script_with_args;Ability_Blue_Magic_Learn;blue_unit,{e:unit.nid},blue_skill,Burning_Engine,blue_replace,NA",
            "    elif;unit2.klass == 'Fell_Dragon'",
            "        trigger_script_with_args;Ability_Blue_Magic_Learn;blue_unit,{e:unit.nid},blue_skill,Fogsiphon,blue_replace,NA",
            "    elif;'Ouranos' in unit2.nid",
            "        trigger_script_with_args;Ability_Blue_Magic_Learn;blue_unit,{e:unit.nid},blue_skill,Cluster_Bomb,blue_replace,NA",
            "    elif;'Prometheus' in unit2.nid",
            "        trigger_script_with_args;Ability_Blue_Magic_Learn;blue_unit,{e:unit.nid},blue_skill,Promethean_Chains_B,blue_replace,NA",
            "    elif;unit2.nid in ['Nikume', 'Nikume_E']",
            "        trigger_script_with_args;Ability_Blue_Magic_Learn;blue_unit,{e:unit.nid},blue_skill,Mastered_Strike,blue_replace,NA",
            "    elif;'Lupus' in unit2.nid",
            "        trigger_script_with_args;Ability_Blue_Magic_Learn;blue_unit,{e:unit.nid},blue_skill,Keen_Stance,blue_replace,NA",
            "    elif;'Bootes' in unit2.nid",
            "        trigger_script_with_args;Ability_Blue_Magic_Learn;blue_unit,{e:unit.nid},blue_skill,Spellshift,blue_replace,NA",
            "    elif;'Vulpecula' in unit2.nid",
            "        trigger_script_with_args;Ability_Blue_Magic_Learn;blue_unit,{e:unit.nid},blue_skill,Temptation,blue_replace,NA",
            "    elif;unit2.klass == 'Dragon_Hound'",
            "        trigger_script_with_args;Ability_Blue_Magic_Learn;blue_unit,{e:unit.nid},blue_skill,Necro_Breath_Plus,blue_replace,Necro_Breath",
            "    elif;unit2.klass == 'Dragon_Mutt'",
            "        trigger_script_with_args;Ability_Blue_Magic_Learn;blue_unit,{e:unit.nid},blue_skill,Necro_Breath,blue_replace,NA",
            "    elif;unit2.klass == 'World_Engine'",
            "        trigger_script_with_args;Ability_Blue_Magic_Learn;blue_unit,{e:unit.nid},blue_skill,Mechanization_Plus,blue_replace,Mechanization",
            "    elif;unit2.klass == 'Monolith'",
            "        trigger_script_with_args;Ability_Blue_Magic_Learn;blue_unit,{e:unit.nid},blue_skill,Mechanization,blue_replace,NA",
            "    elif;unit2.klass == 'Drone'",
            "        trigger_script_with_args;Ability_Blue_Magic_Learn;blue_unit,{e:unit.nid},blue_skill,Gunfire,blue_replace,NA",
            "    elif;unit2.klass == 'Draco_Zombie'",
            "        trigger_script_with_args;Ability_Blue_Magic_Learn;blue_unit,{e:unit.nid},blue_skill,Disincorporate,blue_replace,NA",
            "    elif;unit2.klass == 'Cyclops'",
            "        trigger_script_with_args;Ability_Blue_Magic_Learn;blue_unit,{e:unit.nid},blue_skill,Deathblow,blue_replace,NA",
            "    elif;unit2.klass == 'Gorgon'",
            "        trigger_script_with_args;Ability_Blue_Magic_Learn;blue_unit,{e:unit.nid},blue_skill,Stone_Flash,blue_replace,NA",
            "    elif;unit2.klass == 'Maelduin'",
            "        trigger_script_with_args;Ability_Blue_Magic_Learn;blue_unit,{e:unit.nid},blue_skill,Great_Charge_Plus,blue_replace,Great_Charge",
            "    elif;unit2.klass == 'Tarvos'",
            "        trigger_script_with_args;Ability_Blue_Magic_Learn;blue_unit,{e:unit.nid},blue_skill,Great_Charge,blue_replace,NA",
            "    elif;unit2.klass == 'Deathgoyle'",
            "        trigger_script_with_args;Ability_Blue_Magic_Learn;blue_unit,{e:unit.nid},blue_skill,Fiend_Wings,blue_replace,Fell_Wings",
            "    elif;unit2.klass == 'Gargoyle'",
            "        trigger_script_with_args;Ability_Blue_Magic_Learn;blue_unit,{e:unit.nid},blue_skill,Fell_Wings,blue_replace,NA",
            "    elif;unit2.klass == 'Elder_Bael'",
            "        trigger_script_with_args;Ability_Blue_Magic_Learn;blue_unit,{e:unit.nid},blue_skill,Venom_Bite,blue_replace,Poison_Bite",
            "    elif;unit2.klass == 'Bael'",
            "        trigger_script_with_args;Ability_Blue_Magic_Learn;blue_unit,{e:unit.nid},blue_skill,Poison_Bite,blue_replace,NA",
            "    elif;unit2.klass == 'Dragonslayer_Lord'",
            "        trigger_script_with_args;Ability_Blue_Magic_Learn;blue_unit,{e:unit.nid},blue_skill,White_Fog,blue_replace,White_Wind",
            "    elif;unit2.klass == 'Manakete_Lord'",
            "        trigger_script_with_args;Ability_Blue_Magic_Learn;blue_unit,{e:unit.nid},blue_skill,White_Wind,blue_replace,NA",
            "    elif;unit2.klass == 'Gwyllgi'",
            "        trigger_script_with_args;Ability_Blue_Magic_Learn;blue_unit,{e:unit.nid},blue_skill,Surpassing_Fangs,blue_replace,Swift_Fangs",
            "    elif;unit2.klass == 'Mauthe_Doog'",
            "        trigger_script_with_args;Ability_Blue_Magic_Learn;blue_unit,{e:unit.nid},blue_skill,Swift_Fangs,blue_replace,NA",
            "    elif;unit2.klass == 'Horse_P'",
            "        trigger_script_with_args;Ability_Blue_Magic_Learn;blue_unit,{e:unit.nid},blue_skill,Horseforce_Plus,blue_replace,Horseforce",
            "    elif;unit2.klass == 'Horse'",
            "        trigger_script_with_args;Ability_Blue_Magic_Learn;blue_unit,{e:unit.nid},blue_skill,Horseforce,blue_replace,NA",
            "    elif;unit2.klass == 'Arch_Mogall'",
            "        trigger_script_with_args;Ability_Blue_Magic_Learn;blue_unit,{e:unit.nid},blue_skill,Dreadful_Gaze,blue_replace,Distant_Gaze",
            "    elif;unit2.klass == 'Mogall'",
            "        trigger_script_with_args;Ability_Blue_Magic_Learn;blue_unit,{e:unit.nid},blue_skill,Distant_Gaze,blue_replace,NA",
            "    elif;unit2.klass == 'Wight'",
            "        trigger_script_with_args;Ability_Blue_Magic_Learn;blue_unit,{e:unit.nid},blue_skill,Immortal_Vigor,blue_replace,Undead_Vigor",
            "    elif;unit2.klass in ['Sword_Wight', 'Bow_Wight']",
            "        trigger_script_with_args;Ability_Blue_Magic_Learn;blue_unit,{e:unit.nid},blue_skill,Immortal_Vigor,blue_replace,Undying_Vigor",
            "    elif;unit2.klass in ['Sword_Bonewalker', 'Bow_Bonewalker']",
            "        trigger_script_with_args;Ability_Blue_Magic_Learn;blue_unit,{e:unit.nid},blue_skill,Undying_Vigor,blue_replace,NA",
            "    elif;unit2.klass == 'Entombed'",
            "        trigger_script_with_args;Ability_Blue_Magic_Learn;blue_unit,{e:unit.nid},blue_skill,Decay_Aura,blue_replace,Rot_Aura",
            "    elif;unit2.klass == 'Revenant'",
            "        trigger_script_with_args;Ability_Blue_Magic_Learn;blue_unit,{e:unit.nid},blue_skill,Rot_Aura,blue_replace,NA",
            "    elif;unit2.klass == 'Divine_Dragon'",
            "        trigger_script_with_args;Ability_Blue_Magic_Learn;blue_unit,{e:unit.nid},blue_skill,Skywyrm_Strike,blue_replace,Dragon_Strike",
            "    elif;unit2.klass == 'Mage_Dragon'",
            "        trigger_script_with_args;Ability_Blue_Magic_Learn;blue_unit,{e:unit.nid},blue_skill,Hellkite_Strike,blue_replace,Dragon_Strike",
            "    elif;unit2.klass == 'Earth_Dragon'",
            "        trigger_script_with_args;Ability_Blue_Magic_Learn;blue_unit,{e:unit.nid},blue_skill,Landdrake_Strike,blue_replace,Dragon_Strike",
            "    elif;unit2.klass in ['Manakete', 'Manakete_Flying']",
            "        trigger_script_with_args;Ability_Blue_Magic_Learn;blue_unit,{e:unit.nid},blue_skill,Dragon_Strike,blue_replace,NA",
            "    elif;unit2.klass == 'Greater_Beastkin'",
            "        trigger_script_with_args;Ability_Blue_Magic_Learn;blue_unit,{e:unit.nid},blue_skill,Beastform_Plus,blue_replace,Beastform",
            "    elif;unit2.klass == 'Beastkin'",
            "        trigger_script_with_args;Ability_Blue_Magic_Learn;blue_unit,{e:unit.nid},blue_skill,Beastform,blue_replace,NA",
            "    elif;unit2.klass == 'Nightmare'",
            "        trigger_script_with_args;Ability_Blue_Magic_Learn;blue_unit,{e:unit.nid},blue_skill,Night_Blade,blue_replace,NA",
            "    elif;unit2.klass == 'Ghost'",
            "        trigger_script_with_args;Ability_Blue_Magic_Learn;blue_unit,{e:unit.nid},blue_skill,Spectral_Slash,blue_replace,NA",
            "    end",
            "end"
        ]
    }
]