[
    {
        "name": "Ability_Burning_Engine",
        "trigger": null,
        "level_nid": null,
        "condition": "True",
        "commands": [],
        "only_once": false,
        "priority": 20,
        "_source": [
            "for;foes;[u.nid for u in game.get_enemy_units()]",
            "    if;has_skill(u('{foes}'), 'Burning')",
            "        set_current_hp;{foes};{e:u('{foes}').get_hp() - 3}",
            "    else",
            "        set_current_hp;{foes};{e:u('{foes}').get_hp() - 1}",
            "    end",
            "    give_skill;{foes};Burning;{unit};no_banner",
            "    if;u('{foes}').get_hp() <= 0",
            "        kill_unit;{foes}",
            "    end",
            "endf"
        ]
    }
]