[
    {
        "name": "Ability_Checkmated",
        "trigger": "unit_death",
        "level_nid": null,
        "condition": "has_skill(unit,'Checkmated')",
        "commands": [],
        "only_once": false,
        "priority": 20,
        "_source": [
            "for;enemy_unit;[u for u in game.level.units if u.team in ['enemy', 'enemy2']]",
            "give_skill;{enemy_unit};Checkmated_Buff;;no_banner",
            "endf"
        ]
    }
]