[
    {
        "name": "Ability_Magnus_Opus",
        "trigger": "unit_level_up",
        "level_nid": null,
        "condition": "unit.level >= 20 and has_skill(unit, 'Magnus_Opus') and source == 'exp_gain'",
        "commands": [],
        "only_once": true,
        "priority": 20,
        "_source": [
            "level_var;item_pick;game.get_random_choice(['Grigol_Brand','Tycho_Flame','Fabien_Favorite'])",
            "give_item;{unit};{v:item_pick}"
        ]
    }
]