[
    {
        "name": "Ability_Beckoned",
        "trigger": "unit_death",
        "level_nid": null,
        "condition": "any([s.nid == 'Beckoned' for s in unit.skills])",
        "commands": [],
        "only_once": false,
        "priority": 20,
        "_source": [
            "if;game.check_alive(\"Qiylon\")",
            "    for;wep_type;[w for w in u('{e:unit}').wexp]",
            "        if;u('{e:unit}').wexp.get('{wep_type}') > 0",
            "            give_wexp;Qiylon;{wep_type};{e:int(u('{e:unit}').wexp['{wep_type}'])}",
            "        end",
            "    endf",
            "end"
        ]
    }
]