[
    {
        "name": "Ability_Tidal_Surge_Remove",
        "trigger": null,
        "level_nid": null,
        "condition": "True",
        "commands": [],
        "only_once": false,
        "priority": 20,
        "_source": [
            "for;TS_units;[u.nid for u in game.get_all_units_in_party() if has_skill(u, 'Tidal_Surge_Stack')]",
            "    remove_skill;{TS_units};Tidal_Surge_Stack;10;no_banner",
            "    remove_skill;{TS_units};Tidal_Surge;no_banner",
            "endf",
            ""
        ]
    }
]