[
    {
        "name": "Global_Choice_All_Items",
        "trigger": null,
        "level_nid": null,
        "condition": "True",
        "commands": [],
        "only_once": false,
        "priority": 20,
        "_source": [
            "game_var;all_item_list;[]",
            "for;PARTY_UNIT;[u for u in game.get_units_in_party()]",
            "    for;PARTY_ITEM;[i.uid for i in u('{PARTY_UNIT}').items if not i.components.get('locked') and 'Temporary' not in i.tags]",
            "        game_var;all_item_list;v('all_item_list') + ['{PARTY_ITEM}']",
            "    endf",
            "endf",
            "for;PARTY_ITEM;[i.uid for i in game.get_party('Player').items if not i.components.get('locked') and 'Temporary' not in i.tags]",
            "    game_var;all_item_list;v('all_item_list') + ['{PARTY_ITEM}']",
            "endf",
            "choice;all_player_items;Select an item.;v('all_item_list');;;;;;type_game_item;6,2;expression;scroll_bar;backable"
        ]
    }
]