[
    {
        "name": "Ability_MotivationBribery",
        "trigger": null,
        "level_nid": null,
        "condition": "True",
        "commands": [],
        "only_once": false,
        "priority": 20,
        "_source": [
            "if;game.get_money() >= 25",
            "#Choice",
            "if;{f:{e:unit}.Bribes} > 0",
            "if;game.get_money() < {eval:2**{f:{e:unit}.Bribes}*25}",
            "alert;Not enough gold!",
            "else",
            "give_money;{eval:2**{f:{e:unit}.Bribes}*-25};Player",
            "set_unit_field;{unit};Bribes;{f:{e:unit}.Bribes} + 1",
            "give_skill;{unit};Motivation_Child",
            "end",
            "else",
            "give_money;-25;Player",
            "set_unit_field;{unit};Bribes;1",
            "give_skill;{unit};Motivation_Child",
            "end",
            "else",
            "alert;Not enough gold!",
            "end"
        ]
    }
]