[
    {
        "name": "Ability_Gunung",
        "trigger": null,
        "level_nid": null,
        "condition": "True",
        "commands": [],
        "only_once": false,
        "priority": 20,
        "_source": [
            "change_affinity;{unit};Wind",
            "alert;Affinity changed to Wind!"
        ]
    }
]