[
    {
        "name": "Death_WallStaff",
        "trigger": "unit_death",
        "level_nid": null,
        "condition": "unit.get_field('isWall', 0) == 1",
        "commands": [],
        "only_once": false,
        "priority": 20,
        "_source": [
            "remove_map_anim;BlueDot;{unit}"
        ]
    }
]