[
    {
        "name": "Ability_Pair_Up",
        "trigger": null,
        "level_nid": null,
        "condition": "True",
        "commands": [],
        "only_once": false,
        "priority": 20,
        "_source": [
            "#forgive my sins",
            "give_skill;{unit};Pair_Up_Fat;no_banner",
            "give_skill;{unit2};Pair_Up_Default;;no_banner",
            "add_skill_component;{unit2};Pair_Up_Default;has_tags;unit.tags",
            "set_unit_field;{unit2};Pair_Up_Skills;[]",
            "for;PAIR_UP_BONUS;[s.nid for s in unit.skills if s.copysafe and s.nid != 'Pair_Up']",
            "    give_skill;{unit2};{PAIR_UP_BONUS};;no_banner",
            "    set_unit_field;{unit2};Pair_Up_Skills;unit2.get_field('Pair_Up_Skills') + ['{PAIR_UP_BONUS}']",
            "    for;FURTHER_NONSENSE;[t.nid for t in get_skill(unit, '{PAIR_UP_BONUS}').copysafe.value if has_skill(unit, t)]",
            "        give_skill;{unit2};{FURTHER_NONSENSE};;no_banner",
            "    set_unit_field;{unit2};Pair_Up_Skills;unit2.get_field('Pair_Up_Skills') + ['{FURTHER_NONSENSE}']",
            "    endf",
            "endf",
            "pair_up;{unit};{unit2}"
        ]
    }
]