[
    {
        "name": "Item_Mine",
        "trigger": null,
        "level_nid": null,
        "condition": "True",
        "commands": [],
        "only_once": false,
        "priority": 20,
        "_source": [
            "add_region;{eval:target_pos};{eval:target_pos};1,1;event;Mine;interrupt_move",
            "map_anim;Square;{eval:target_pos};permanent"
        ]
    }
]