[
    {
        "name": "Menu_Stratagems",
        "trigger": null,
        "level_nid": null,
        "condition": "True",
        "commands": [],
        "only_once": false,
        "priority": 20,
        "_source": [
            "if;game.game_vars.get('Active_Stratagems') and len(game.game_vars.get('Active_Stratagems')) > 0",
            "transition",
            "change_background;default_background",
            "transition",
            "level_var;strats_active;game.game_vars.get('Active_Stratagems')",
            "textbox;strat_desc;\"{d:Stratagems.{v:strat_list_choice_hover}.description}\";right;120;8;BG=menu_bg_parchment;expression",
            "choice;strat_list;Active Stratagems;[s.nid + '|' + '<narrow>' + s.name + '</>' for s in game.get_data('Stratagems') if s.nid in {v:strats_active}];80;Alignment=left;Dimensions=8,1;expression;backable",
            "remove_table;strat_desc",
            "transition",
            "change_background",
            "transition",
            "else",
            "alert;No Stratagems active!",
            "end"
        ]
    }
]