[
    {
        "name": "Music_Act_Start",
        "trigger": null,
        "level_nid": null,
        "condition": "True",
        "commands": [],
        "only_once": false,
        "priority": 20,
        "_source": [
            "trigger_script;Global Get_Current_Act",
            "if;{v:current_act} == 1 and not game.game_vars.get('act1_song', 0)",
            "    gvar;act1_song;game.get_random_choice({v:act1_songs})",
            "elif;{v:current_act} == 2 and not game.game_vars.get('act2_song', 0)",
            "    gvar;act2_song;game.get_random_choice({v:act2_songs})",
            "elif;{v:current_act} == 3 and not game.game_vars.get('act3_song', 0)",
            "    gvar;act3_song;game.get_random_choice({v:act3_songs})",
            "elif;{v:current_act} == 4 and not game.game_vars.get('act4_song', 0)",
            "    gvar;act4_song;game.get_random_choice({v:act4_songs})",
            "end",
            "if;{v:current_act} == 1",
            "    change_music;player_phase;{e:v('act1_song')}",
            "    change_music;enemy_phase;{e:v('act1_song')}",
            "    change_music;enemy2_phase;{e:v('act1_song')}",
            "    change_music;other_phase;{e:v('act1_song')}",
            "    #music;{e:v('act1_song')}",
            "elif;{v:current_act} == 2",
            "    change_music;player_phase;{e:v('act2_song')}",
            "    change_music;enemy_phase;{e:v('act2_song')}",
            "    change_music;enemy2_phase;{e:v('act2_song')}",
            "    change_music;other_phase;{e:v('act2_song')}",
            "elif;{v:current_act} == 3",
            "    change_music;player_phase;{e:v('act3_song')}",
            "    change_music;enemy_phase;{e:v('act3_song')}",
            "    change_music;enemy2_phase;{e:v('act3_song')}",
            "    change_music;other_phase;{e:v('act3_song')}",
            "elif;{v:current_act} == 4",
            "    change_music;player_phase;{e:v('act4_song')}",
            "    change_music;enemy_phase;{e:v('act4_song')}",
            "    change_music;enemy2_phase;{e:v('act4_song')}",
            "    change_music;other_phase;{e:v('act4_song')}",
            "end"
        ]
    }
]