[
    {
        "name": "Reinforcements_1",
        "trigger": "turn_change",
        "level_nid": "Grigol",
        "condition": "game.turncount % 6 == 0",
        "commands": [],
        "only_once": false,
        "priority": 20,
        "_source": [
            "add_group;rein1;rein1;;closest;create",
            "center_cursor;10,20;immediate",
            "flicker_cursor;10,20",
            "center_cursor;16,29;immediate",
            "flicker_cursor;16,29",
            "center_cursor;23,29;immediate",
            "flicker_cursor;23,29",
            "center_cursor;26,29;immediate",
            "flicker_cursor;26,29"
        ]
    }
]