[
    {
        "name": "Chest",
        "trigger": "Chest",
        "level_nid": "Loreia",
        "condition": "True",
        "commands": [],
        "only_once": false,
        "priority": 20,
        "_source": [
            "unlock;{unit}",
            "trigger_script_with_args;Global Global_Random_Reward;receiver,{e:unit.nid},item_type,any",
            "if;region.nid == 'Chest_1'",
            "    show_layer;chest1",
            "elif;region.nid == 'Chest_2'",
            "    show_layer;chest2",
            "end",
            "has_attacked;{unit}"
        ]
    }
]