[
    {
        "name": "HM: Loss_Condition_2",
        "trigger": "combat_end",
        "level_nid": "Lupus",
        "condition": "is_dead('Civ_1')",
        "commands": [],
        "only_once": false,
        "priority": 20,
        "_source": [
            "add_portrait;Loreia;FarRight",
            "speak;Loreia;Is there really no escape for us?|Everyone...I'm so sorry...",
            "expression;Loreia;CloseEyes",
            "remove_portrait;Loreia",
            "trigger_script;Global Global_Loss"
        ]
    }
]