[
    {
        "name": "Intro",
        "trigger": "level_start",
        "level_nid": "Lupus",
        "condition": "True",
        "commands": [],
        "only_once": false,
        "priority": 20,
        "_source": [
            "trigger_script;Global Get_Next_Chapter",
            "trigger_script;Global Boss_Level",
            "change_background;BlackBackground",
            "transition",
            "add_weather;sunset",
            "if;RECORDS.get('Act_1_Power_level') > 0",
            "    add_group;hm_1;hm_1;immediate;closest",
            "end",
            "change_background",
            "center_cursor;0,4;immediate",
            "transition",
            "make_generic;LT_F;Manakete_Lord;1;player",
            "make_generic;Canes_F;Veteran_Tamer;1;enemy",
            "add_unit;Loreia_T;0,3;;stack",
            "add_unit;LT_F;0,2;;stack",
            "move_unit;Loreia_T;7,1;;;no_block",
            "move_unit;LT_F;8,1",
            "center_cursor;Loreia_T;immediate",
            "flicker_cursor;Loreia_T",
            "multi_add_portrait;Loreia;Left;Player;Right",
            "speak;Loreia;*huff*...*huff*|No matter how far we run, it isn't enough...|And it looks like there are monsters up ahead, too.|We might be doomed...",
            "bop_portrait;Player",
            "speak;Loreia;...yes, you're right.|We can't give up this easily.|We'll just have to push through somehow.|Looks like I'll be relying on your strength some more.",
            "multi_remove_portrait;Loreia;Player",
            "add_unit;Canes_F;0,2;;stack",
            "center_cursor;Canes_F;immediate",
            "flicker_cursor;Canes_F",
            "multi_add_portrait;Canes;Left;Loreia;MidRight;Player;FarRight",
            "speak;Canes;Well, well.|Some more rats still scurrying about?|How about we fix that?",
            "speak;Loreia;Canes!|How could you do this to us?|To your own people?|Did all that time you spent as Lord mean nothing to you?",
            "speak;Canes;Need I remind you how that time ended?|A bloody uprising, stripping me of my position.|My family, lying dead in the streets.|All at the hands of those \"people\" that I governed.",
            "speak;Loreia;...",
            "speak;Canes;I'll make you all regret what you did.|Replacing me for that fool of a man.|And where is he now?|Dead, by my hand!|You regretting your choices now?|I was the superior Lord all along!|Only I could keep you safe!",
            "speak;Loreia;Not all of us were in favor of that rebellion!|I understand that you're hurting, but nothing justifies-",
            "speak;Canes;Enough!|I've heard enough!|Let's get this over with.|Lupus!|I have a new plaything for you!",
            "multi_remove_portrait;Canes;Loreia;Player",
            "add_unit;Lupus_T;0,4;;stack",
            "move_unit;Lupus_T;1,3;;push",
            "add_portrait;Canes;Left",
            "speak;Canes;Hehe...|Run while you still can.|Lupus always catches his prey.|Always.",
            "remove_portrait;Canes",
            "remove_unit;Canes_F",
            "center_cursor;Loreia_T;immediate",
            "flicker_cursor;Loreia_T",
            "multi_add_portrait;Loreia;Left;Player;Right",
            "speak;Loreia;Ohhh, this is bad...|Why did things have to be this way?",
            "bop_portrait;Player",
            "speak;Loreia;...of, course, you're right once again.|We need to focus on what's ahead.",
            "multi_remove_portrait;Loreia;Player",
            "center_cursor;19,14;immediate",
            "flicker_cursor;19,14",
            "flicker_cursor;19,15",
            "multi_add_portrait;Loreia;Left;Player;Right",
            "speak;Loreia;There's a path to the southeast we can use to get away from here.|It's our only option.|Let's get moving.",
            "multi_remove_portrait;Loreia;Player",
            "remove_unit;LT_F",
            "change_team;LT_F;other",
            "end_skip",
            "if;RECORDS.get('Act_1_Power_level') == 0",
            "    speak;;Both Loreia and any permanent Player unit must escape.;center;NumLines=5;DialogBox=menu_bg_parchment",
            "    speak;;If Loreia is defeated, the battle will be lost.{w} Protect her at all costs!;center;NumLines=3;DialogBox=menu_bg_parchment",
            "elif;RECORDS.get('Act_1_Power_level') > 0",
            "    remove_item;Loreia_T;Patch;no_banner",
            "    give_item;101;Longbow;no_banner",
            "    give_item;102;Longbow;no_banner",
            "    add_unit;Civ_1;8,0;fade;push",
            "    center_cursor;Loreia_T;immediate",
            "    flicker_cursor;Loreia_T",
            "    speak;;All of Loreia, the civilian, and any permanent Player unit must escape.;center;NumLines=5;DialogBox=menu_bg_parchment",
            "    speak;;If Loreia or the civilian is defeated, the battle will be lost.{w} Protect them at all costs!;center;NumLines=3;DialogBox=menu_bg_parchment",
            "end",
            "level_var;greenies;0",
            "level_var;win_con;0",
            "arrange_formation",
            "prep;t",
            "if;any([len(u.items) == 0 for u in game.get_player_units()])",
            "    choice;naked_deploy;One or more allies have no items. Deploy?;No,Yes",
            "    if;'{v:naked_deploy}' == 'No'",
            "        prep;t",
            "    end",
            "end",
            "trigger_script;Global Music_Battle_Start"
        ]
    }
]