[
    {
        "name": "Lupus_AI",
        "trigger": "turn_change",
        "level_nid": "Lupus",
        "condition": "game.turncount == 7",
        "commands": [],
        "only_once": false,
        "priority": 20,
        "_source": [
            "center_cursor;Lupus_T;immediate",
            "flicker_cursor;Lupus_T",
            "speak;;The beast raises its head. The hunt begins.",
            "change_ai;Lupus_T;Pursue",
            ""
        ]
    }
]