[
    {
        "name": "Get_MS_Units",
        "trigger": "turn_change",
        "level_nid": "Machine",
        "condition": "True",
        "commands": [],
        "only_once": false,
        "priority": 20,
        "_source": [
            "if;game.turncount == 1",
            "    trigger_script;Global Get_MS_Units",
            "end"
        ]
    }
]