[
    {
        "name": "Big Cut",
        "trigger": "turn_change",
        "level_nid": "Nikume",
        "condition": "RECORDS.get('Act_2_Power_level') > 0",
        "commands": [],
        "only_once": false,
        "priority": 20,
        "_source": [
            "if;game.turncount == 2",
            "    u;Nikume;Right",
            "    s;Nikume;Behold!|The true power of Watanai sword style!",
            "    r;Nikume",
            "    t;close;;255,255,255",
            "    show_layer;split_v",
            "    wait;300",
            "    t;open",
            "end",
            "if;game.turncount == 3",
            "    t;close;;255,255,255",
            "    show_layer;split_h",
            "    wait;300",
            "    t;open",
            "end",
            ""
        ]
    }
]