[
    {
        "name": "zappy_set",
        "trigger": "turn_change",
        "level_nid": "Sotirios",
        "condition": "game.turncount > 1 and game.level_vars.get('version') == 2",
        "commands": [],
        "only_once": false,
        "priority": 20,
        "_source": [
            "if;any(get_units_in_region('left_zone', team='player')) or any(get_units_in_region('left_zone', team='other'))",
            "    lvar;combined_positions_1;[u.position for u in game.get_player_units() if u in get_units_in_region('left_zone', team='player')] + [u.position for u in game.get_other_units() if u in get_units_in_region('left_zone', team='other')]",
            "    lvar;shot_1_pos;game.get_random_choice({v:combined_positions_1})",
            "    map_anim;Target_2x2_Yellow;{e:{v:shot_1_pos}};permanent",
            "    center_cursor;{e:{v:shot_1_pos}};immediate",
            "    wait;200",
            "end",
            "if;any(get_units_in_region('right_zone', team='player')) or any(get_units_in_region('right_zone', team='other'))",
            "    lvar;combined_positions_2;[u.position for u in game.get_player_units() if u in get_units_in_region('right_zone', team='player')] + [u.position for u in game.get_other_units() if u in get_units_in_region('right_zone', team='other')]",
            "    lvar;shot_2_pos;game.get_random_choice({v:combined_positions_2})",
            "    map_anim;Target_2x2_Yellow;{e:{v:shot_2_pos}};permanent",
            "    center_cursor;{e:{v:shot_2_pos}};immediate",
            "    wait;200",
            "end"
        ]
    }
]