[
    {
        "name": "Intro",
        "trigger": "level_start",
        "level_nid": "Tournament",
        "condition": "True",
        "commands": [],
        "only_once": false,
        "priority": 20,
        "_source": [
            "trigger_script;Global Get_Next_Chapter",
            "change_background;BlackBackground",
            "transition",
            "change_background",
            "lvar;current_round;1",
            "lvar;next_round;1",
            "add_group;group1;group1;immediate",
            "center_cursor;9,9;immediate",
            "arrange_formation",
            "set_game_board_bounds;5;3;11;9",
            "for;enemy_unit;[u for u in game.level.units if u.team in ['enemy', 'enemy2']]",
            "    level_var;level_plus;1 + int({v:Game_Level})",
            "    autolevel_to;{enemy_unit};{v:level_plus};fixed",
            "endf",
            "set_skill_data;Vulpecula_E;Legend;charge;0",
            "set_skill_data;Scutum_E;Legend;charge;0",
            "transition",
            "prep;t",
            "if;any([len(u.items) == 0 for u in game.get_player_units()])",
            "    choice;naked_deploy;One or more allies have no items. Deploy?;No,Yes",
            "    if;'{v:naked_deploy}' == 'No'",
            "        prep;t",
            "    end",
            "end",
            "trigger_script;Global Music_Battle_Start"
        ]
    }
]