[
    {
        "name": "HM: Reinforcements_3",
        "trigger": "turn_change",
        "level_nid": "Trial_F",
        "condition": "game.level_vars.get('infinites', 0) == 1",
        "commands": [],
        "only_once": false,
        "priority": 10,
        "_source": [
            "create_unit;hm_9;Position=3,7;copy_stats",
            "center_cursor;3,7;immediate",
            "flicker_cursor;3,7",
            "create_unit;hm_10;Position=11,7;copy_stats",
            "center_cursor;11,7;immediate",
            "flicker_cursor;11,7"
        ]
    }
]