[
    {
        "name": "2. Talk_Gacha",
        "trigger": "Gacha",
        "level_nid": "X",
        "condition": "True",
        "commands": [],
        "only_once": false,
        "priority": 20,
        "_source": [
            "if;RECORDS.get('Progress') == 1",
            "    speak;;You can use this portal to summon new characters to aid you.|Any character summoned via this portal can be brought with you when you venture out into the Fog.|If you are defeated, the unit will still be available on any subsequent journey.|There are many different heroes who can come to your aid.|Try to collect them all!;center;NumLines=5;DialogBox=menu_bg_parchment",
            "    update_record;Progress;2",
            "end",
            "if;len(game.get_all_units_in_party()) < 4",
            "    level_var;pool;[u for u in {v:Starting_Gacha_Pool} if u not in RECORDS.get('Available_Units')]",
            "else",
            "    level_var;pool;[u for u in {v:Full_Gacha_Pool} if u not in RECORDS.get('Available_Units')]",
            "end",
            "lvar;spark_pool;[x for x in RECORDS.get('Seen_Units') if x in {v:Full_Gacha_Pool} and x not in RECORDS.get('Available_Units')]",
            "",
            "lvar;choices;['1|Normal Summon <red>(<icon>event_fragments</> 100)</>', '2|Sparking Summon <red>(<icon>spark_stone</> 1)</>']",
            "if;len({v:pool}) > 0",
            "    textbox;fragments;\"<icon>event_fragments</>\" + \"Fragments: \" + str(RECORDS.get('Fragments'));top_left;110;expression",
            "    if;RECORDS.get('Spark_Stones') >= 100",
            "        textbox;stones;\"<icon>spark_stone</>\" + \"<narrow>Spark Stones: </>\" + str(RECORDS.get('Spark_Stones'));top_right;110;expression",
            "    else",
            "        textbox;stones;\"<icon>spark_stone</>\" + \"Spark Stones: \" + str(RECORDS.get('Spark_Stones'));top_right;110;expression",
            "    end",
            "    choice;gamba;What will you do?;{v:choices};expression;backable",
            "    if;('{v:gamba}' == '1' and RECORDS.get('Fragments') >= 100) or ('{v:gamba}' == '2' and RECORDS.get('Spark_Stones') >= 1)",
            "        if;'{v:gamba}' == '1'",
            "            update_record;Fragments;RECORDS.get('Fragments') - 100",
            "            level_var;new_unit;game.get_random_choice({v:pool})",
            "        elif;'{v:gamba}' == '2' and len({v:spark_pool}) > 0",
            "            choice;new_spark_unit;Who to summon?;[u + '|' + DB.units.get(u).name for u in {v:spark_pool}];Dimensions=8,1;expression;backable",
            "            if;'{v:new_spark_unit}' == 'BACK'",
            "                finish",
            "            end",
            "            update_record;Spark_Stones;RECORDS.get('Spark_Stones') - 1",
            "            level_var;new_unit;'{v:new_spark_unit}'",
            "        elif;'{v:gamba}' == '2' and len({v:spark_pool}) <= 0",
            "            speak;;There are no units available to spark.|Only units that have been discovered can be sparked.",
            "            finish",
            "        end",
            "        load_unit;{v:new_unit};player",
            "        give_skill;{v:new_unit};No_Trade;no_banner",
            "        if;'{v:new_unit}' == 'Tamer'",
            "            set_name;Tamer;{e:game.get_random_choice(['Mike','Stephen','Edward','Calvin','Hobbes','Titus','Luke','Zack','Marth','Gil'])}",
            "            create_record;tamer_name;game.get_unit('Tamer').name",
            "        elif;'{v:new_unit}' == 'Gemini_F'",
            "            load_unit;Gemini_M;player",
            "            change_party;Gemini_M;Flex",
            "            create_record;{e:'Gemini_M' + '_skill_slots'};1",
            "            give_skill;Gemini_M;Nothing;no_banner",
            "            add_skill_component;Gemini_M;Nothing;inherited",
            "        end",
            "        table;portrait;u('{v:new_unit}').portrait_nid;;Alignment=top;EntryType=type_portrait;expression",
            "        speak;;{e:game.get_unit('{v:new_unit}').name} has joined the party!;bottom;;;;;;menu_bg_parchment",
            "        remove_table;portrait",
            "        update_record;Available_Units;RECORDS.get('Available_Units') + ['{v:new_unit}']",
            "        create_record;{e:'{v:new_unit}' + '_skill_slots'};1",
            "        give_skill;{v:new_unit};Nothing;no_banner",
            "        add_skill_component;{v:new_unit};Nothing;inherited",
            "        create_record;{e:'{v:new_unit}' + '_convos'};1",
            "    elif;('{v:gamba}' == '1' and RECORDS.get('Fragments') < 100) or ('{v:gamba}' == '2' and RECORDS.get('Spark_Stones') < 1)",
            "        alert;Not enough currency to summon!",
            "    end",
            "    remove_table;fragments",
            "    remove_table;stones",
            "else",
            "    speak;;The portal is silent.|No more units are available to summon.",
            "end"
        ]
    }
]