[
    {
        "name": "5. System_Menu",
        "trigger": "on_talk",
        "level_nid": "X",
        "condition": "unit2.nid == 'Arc'",
        "commands": [],
        "only_once": false,
        "priority": 20,
        "_source": [
            "if;not RECORDS.get('flame_first_time')",
            "speak;;The Architect can use the Flame you have gathered to grant you new game features.|The effects can vary wildly, and are always in effect once unlocked.;center;NumLines=5;DialogBox=menu_bg_parchment",
            "create_record;flame_first_time;1",
            "end",
            "textbox;flame;\"Flame: \" + str(RECORDS.get('Flame'));top_left;100;expression",
            "textbox;system_desc;\"{d:Game_Upgrades.{v:System_Choice_choice_hover}.description}\" + \"{br}\" + \"<red>Cost: </>\" + \"<red>{d:Game_Upgrades.{v:System_Choice_choice_hover}.cost}</>\";top_right;105;7;BG=menu_bg_parchment;expression",
            "textbox;unlocked;\"Obtained!\" if {e:RECORDS.get('{v:System_Choice_choice_hover}')} else \"Locked...\";bottom_right;80;BG=menu_bg_parchment;expression",
            "choice;System_Choice;Choose an upgrade;[s.nid + '|' + s.name for s in game.get_data('Game_Upgrades')];RowWidth=80;EventNid=5. System_Menu_Sub;Alignment=left;Dimensions=5,1;expression;backable",
            "remove_table;flame",
            "remove_table;system_desc",
            "remove_table;unlocked"
        ]
    }
]