[
    {
        "name": "5. System_Menu_Sub",
        "trigger": null,
        "level_nid": "X",
        "condition": "True",
        "commands": [],
        "only_once": false,
        "priority": 20,
        "_source": [
            "if;not RECORDS.get('{v:System_Choice}')",
            "level_var;cost;int({d:Game_Upgrades.{v:System_Choice}.cost})",
            "choice;upgrade;Upgrade for {v:cost} Flame?;Yes,No;backable",
            "if;'{v:upgrade}' == 'Yes' and RECORDS.get('Flame') >= {v:cost}",
            "update_record;Flame;RECORDS.get('Flame') - v('cost')",
            "create_record;{v:System_Choice};1",
            "if;'{v:System_Choice}' == 'Tonic_Maker'",
            "add_unit;Al;16,9",
            "add_talk;Player;Al",
            "end",
            "if;'{v:System_Choice}' == 'Bonus_Units'",
            "game_var;bonus_units;[]",
            "for;bonus_unit;range(4)",
            "level_var;valid_units;[u.nid for u in game.get_all_units_in_party() if u.nid not in v('bonus_units') and u.nid not in RECORDS.get('last_sortie')]",
            "if;len({v:valid_units}) > 0",
            "game_var;bonus_units;{v:bonus_units} + [game.get_random_choice({v:valid_units})]",
            "end",
            "endf",
            "end",
            "unchoice",
            "elif;'{v:upgrade}' == 'Yes' and RECORDS.get('Flame') < {v:cost}",
            "alert;Not enough Flame!",
            "unchoice",
            "else",
            "unchoice",
            "end",
            "else",
            "alert;Already purchased!",
            "unchoice",
            "end"
        ]
    }
]