[
    {
        "name": "6. Essence_Menu",
        "trigger": "on_talk",
        "level_nid": "X",
        "condition": "unit2.nid == 'Spi'",
        "commands": [],
        "only_once": false,
        "priority": 20,
        "_source": [
            "if;not RECORDS.get('essence_first_time')",
            "speak;;The Spiritmaster can use the Essence you have gathered to enhance your natural abilities.|All of these abilities can be enhanced multiple times, and will always be in effect once upgraded.;center;NumLines=5;DialogBox=menu_bg_parchment",
            "create_record;essence_first_time;1",
            "end",
            "textbox;essence;\"Essence: \" + str(RECORDS.get('Essence'));top_left;100;expression",
            "textbox;upgrade_desc;\"{d:Run_Upgrades.{v:Run_Choice_choice_hover}.description}\" + \"{br}\" + \"<red>Cost: </>\" + \"<red>{e:int({d:Run_Upgrades.{v:Run_Choice_choice_hover}.cost} * ({d:Run_Upgrades.{v:Run_Choice_choice_hover}.cost_mult} ** RECORDS.get('{v:Run_Choice_choice_hover}' + '_level')))}</>\" if int(\"{d:Run_Upgrades.{v:Run_Choice_choice_hover}.level_cap}\") > RECORDS.get('{v:Run_Choice_choice_hover}' + '_level') else \"{d:Run_Upgrades.{v:Run_Choice_choice_hover}.description}\" + \"{br}\" + \"<red>Level Maxed!</>\";top_right;105;7;BG=menu_bg_parchment;expression",
            "textbox;level;\"Level: \" + \"{e:RECORDS.get('{v:Run_Choice_choice_hover}' + '_level')}\";bottom_right;80;BG=menu_bg_parchment;expression",
            "choice;Run_Choice;Choose an upgrade;[s.nid + '|' + s.name for s in game.get_data('Run_Upgrades')];RowWidth=80;EventNid=6. Essence_Menu_Sub;Alignment=left;Dimensions=5,1;expression;backable",
            "remove_table;essence",
            "remove_table;upgrade_desc",
            "remove_table;level"
        ]
    }
]