[
    {
        "name": "9. Skill_Change",
        "trigger": null,
        "level_nid": "X",
        "condition": "True",
        "commands": [],
        "only_once": false,
        "priority": 20,
        "_source": [
            "if;'{v:rm_skill}' != 'Nothing'",
            "    if;get_skill(u('{v:player}'), '{v:rm_skill}').copysafe",
            "        for;skills;[s for s in get_skill(u('{v:player}'),'{v:rm_skill}').copysafe.value]",
            "            remove_skill;{v:player};{skills};no_banner",
            "        endf",
            "    end",
            "    if;get_skill(u('{v:player}'), '{v:rm_skill}').subskills",
            "        for;skills;[s for s in get_skill(u('{v:player}'),'{v:rm_skill}').subskills.value]",
            "            remove_skill;{v:player};{skills};no_banner",
            "        endf",
            "    end",
            "    remove_skill;{v:player};{v:rm_skill};no_banner",
            "end",
            "if;'{v:add_skill}' != 'Nothing'",
            "    give_skill;{v:player};{v:add_skill};no_banner",
            "    if;get_skill(u('{v:player}'), '{v:add_skill}').copysafe",
            "        for;skills;[s for s in get_skill(u('{v:player}'),'{v:add_skill}').copysafe.value]",
            "            give_skill;{v:player};{skills};no_banner",
            "        endf",
            "    end",
            "    if;get_skill(u('{v:player}'), '{v:add_skill}').subskills",
            "        for;skills;[s for s in get_skill(u('{v:player}'),'{v:add_skill}').subskills.value]",
            "            give_skill;{v:player};{skills};no_banner",
            "        endf",
            "    end",
            "end"
        ]
    }
]