[
    {
        "name": "b. Talk_Playable",
        "trigger": "on_talk",
        "level_nid": "X",
        "condition": "unit2.team == 'player'",
        "commands": [],
        "only_once": false,
        "priority": 20,
        "_source": [
            "if;RECORDS.get('{e:unit2.nid + '_convos'}') == 1",
            "    level_var;talk_cost;5",
            "elif;RECORDS.get('{e:unit2.nid + '_convos'}') == 2",
            "    level_var;talk_cost;10",
            "elif;RECORDS.get('{e:unit2.nid + '_convos'}') == 3",
            "    level_var;talk_cost;20",
            "end",
            "textbox;charge;\"<icon>tether</>Charge: \" + str(RECORDS.get('tether_charges')) + ' / ' + str(RECORDS.get('max_tether_charges'));top_left;120;expression",
            "choice;talky_choice;Speak to {e:unit2.name}? <blue>(Cost: {v:talk_cost})</>;Yes,No;backable",
            "remove_table;charge",
            "if;'{v:talky_choice}' == 'Yes' and RECORDS.get('tether_charges') >= {v:talk_cost}",
            "    update_record;tether_charges;RECORDS.get('tether_charges') - {v:talk_cost}",
            "    trigger_script;X ba. Talk_Convos;{unit};{unit2}",
            "elif;'{v:talky_choice}' == 'Yes' and RECORDS.get('tether_charges') < {v:talk_cost}",
            "    alert;Not enough charge!",
            "end"
        ]
    }
]