[
    {
        "name": "e. Currency_Exchange_Sub_1",
        "trigger": null,
        "level_nid": "X",
        "condition": "True",
        "commands": [],
        "only_once": false,
        "priority": 20,
        "_source": [
            "if;'{v:want}' == '1'",
            "    if;('{v:exchange}' == '2' and RECORDS.get('Flame') < 20) or ('{v:exchange}' == '3' and RECORDS.get('Fragments') < 25) or ('{v:exchange}' == '4' and RECORDS.get('Master_Seals') < 1)",
            "        alert;Not enough to exchange!",
            "    elif;'{v:exchange}' == '2' and RECORDS.get('Flame') >= 20",
            "        update_record;Essence;RECORDS.get('Essence') + 50",
            "        update_record;Flame;RECORDS.get('Flame') - 20",
            "    elif;'{v:exchange}' == '3' and RECORDS.get('Fragments') >= 25",
            "        update_record;Essence;RECORDS.get('Essence') + 50",
            "        update_record;Fragments;RECORDS.get('Fragments') - 25",
            "    elif;'{v:exchange}' == '4' and RECORDS.get('Master_Seals') >= 1",
            "        update_record;Essence;RECORDS.get('Essence') + 150",
            "        update_record;Master_Seals;RECORDS.get('Master_Seals') - 1",
            "    end",
            "elif;'{v:want}' == '2'",
            "    if;('{v:exchange}' == '1' and RECORDS.get('Essence') < 50) or ('{v:exchange}' == '3' and RECORDS.get('Fragments') < 25) or ('{v:exchange}' == '4' and RECORDS.get('Master_Seals') < 1)",
            "        alert;Not enough to exchange!",
            "    elif;'{v:exchange}' == '1' and RECORDS.get('Essence') >= 50",
            "        update_record;Essence;RECORDS.get('Essence') - 50",
            "        update_record;Flame;RECORDS.get('Flame') + 20",
            "    elif;'{v:exchange}' == '3' and RECORDS.get('Fragments') >= 25",
            "        update_record;Flame;RECORDS.get('Flame') + 20",
            "        update_record;Fragments;RECORDS.get('Fragments') - 25",
            "    elif;'{v:exchange}' == '4' and RECORDS.get('Master_Seals') >= 1",
            "        update_record;Flame;RECORDS.get('Flame') + 60",
            "        update_record;Master_Seals;RECORDS.get('Master_Seals') - 1",
            "    end",
            "elif;'{v:want}' == '3'",
            "    if;('{v:exchange}' == '1' and RECORDS.get('Essence') < 50) or ('{v:exchange}' == '2' and RECORDS.get('Flame') < 20) or ('{v:exchange}' == '4' and RECORDS.get('Master_Seals') < 1)",
            "        alert;Not enough to exchange!",
            "    elif;'{v:exchange}' == '1' and RECORDS.get('Essence') >= 50",
            "        update_record;Essence;RECORDS.get('Essence') - 50",
            "        update_record;Fragments;RECORDS.get('Fragments') + 25",
            "    elif;'{v:exchange}' == '2' and RECORDS.get('Flame') >= 20",
            "        update_record;Flame;RECORDS.get('Flame') - 20",
            "        update_record;Fragments;RECORDS.get('Fragments') + 25",
            "    elif;'{v:exchange}' == '4' and RECORDS.get('Master_Seals') >= 1",
            "        update_record;Fragments;RECORDS.get('Fragments') + 75",
            "        update_record;Master_Seals;RECORDS.get('Master_Seals') - 1",
            "    end",
            "elif;'{v:want}' == '4'",
            "    if;('{v:exchange}' == '1' and RECORDS.get('Essence') < 150) or ('{v:exchange}' == '2' and RECORDS.get('Flame') < 60) or ('{v:exchange}' == '3' and RECORDS.get('Fragments') < 75)",
            "        alert;Not enough to exchange!",
            "    elif;'{v:exchange}' == '1' and RECORDS.get('Essence') >= 150",
            "        update_record;Essence;RECORDS.get('Essence') - 150",
            "        update_record;Master_Seals;RECORDS.get('Master_Seals') + 1",
            "    elif;'{v:exchange}' == '2' and RECORDS.get('Flame') >= 60",
            "        update_record;Flame;RECORDS.get('Flame') - 60",
            "        update_record;Master_Seals;RECORDS.get('Master_Seals') + 1",
            "    elif;'{v:exchange}' == '3' and RECORDS.get('Fragments') >= 75",
            "        update_record;Fragments;RECORDS.get('Fragments') - 75",
            "        update_record;Master_Seals;RECORDS.get('Master_Seals') + 1",
            "    end",
            "elif;'{v:want}' == '5'",
            "    if;('{v:exchange}' == '1' and RECORDS.get('Essence') < 150) or ('{v:exchange}' == '2' and RECORDS.get('Flame') < 60) or ('{v:exchange}' == '3' and RECORDS.get('Fragments') < 75) or ('{v:exchange}' == '4' and RECORDS.get('Master_Seals') < 1)",
            "        alert;Not enough to exchange!",
            "    elif;'{v:exchange}' == '1' and RECORDS.get('Essence') >= 150",
            "        update_record;Essence;RECORDS.get('Essence') - 150",
            "        update_record;Spark_Shards;RECORDS.get('Spark_Shards') + 1",
            "    elif;'{v:exchange}' == '2' and RECORDS.get('Flame') >= 60",
            "        update_record;Flame;RECORDS.get('Flame') - 60",
            "        update_record;Spark_Shards;RECORDS.get('Spark_Shards') + 1",
            "    elif;'{v:exchange}' == '3' and RECORDS.get('Fragments') >= 75",
            "        update_record;Fragments;RECORDS.get('Fragments') - 75",
            "        update_record;Spark_Shards;RECORDS.get('Spark_Shards') + 1",
            "    elif;'{v:exchange}' == '4' and RECORDS.get('Master_Seals') >= 1",
            "        update_record;Master_Seals;RECORDS.get('Master_Seals') - 1",
            "        update_record;Spark_Shards;RECORDS.get('Spark_Shards') + 1",
            "    end",
            "    if;RECORDS.get('Spark_Shards') >= 3",
            "        update_record;Spark_Shards;RECORDS.get('Spark_Shards') - 3",
            "        update_record;Spark_Stones;RECORDS.get('Spark_Stones') + 1",
            "    end",
            "end",
            "unchoice"
        ]
    }
]