[
    {
        "nid": "64",
        "name": "Seize",
        "tilemap": "64",
        "bg_tilemap": null,
        "party": "Player",
        "music": {},
        "objective": {
            "simple": "Seize",
            "win": "Seize",
            "loss": "All allies defeated"
        },
        "roam": false,
        "roam_unit": null,
        "go_to_overworld": false,
        "should_record": true,
        "units": [
            {
                "nid": "101",
                "variant": null,
                "level": 3,
                "klass": "Citizen",
                "faction": "Phantom",
                "starting_items": [],
                "starting_skills": [
                    "Commander"
                ],
                "team": "enemy",
                "ai": "Guard",
                "roam_ai": null,
                "ai_group": "",
                "starting_position": [
                    11,
                    1
                ],
                "starting_traveler": null,
                "generic": true
            },
            {
                "nid": "102",
                "variant": null,
                "level": 1,
                "klass": "Citizen",
                "faction": "Phantom",
                "starting_items": [],
                "starting_skills": [],
                "team": "enemy",
                "ai": "Pursue",
                "roam_ai": null,
                "ai_group": "",
                "starting_position": [
                    10,
                    17
                ],
                "starting_traveler": null,
                "generic": true
            },
            {
                "nid": "103_flier",
                "variant": null,
                "level": 1,
                "klass": "Citizen",
                "faction": "Phantom",
                "starting_items": [],
                "starting_skills": [],
                "team": "enemy",
                "ai": "Pursue",
                "roam_ai": null,
                "ai_group": "",
                "starting_position": [
                    11,
                    15
                ],
                "starting_traveler": null,
                "generic": true
            },
            {
                "nid": "104_grounded",
                "variant": null,
                "level": 1,
                "klass": "Citizen",
                "faction": "Phantom",
                "starting_items": [],
                "starting_skills": [],
                "team": "enemy",
                "ai": "Defend",
                "roam_ai": null,
                "ai_group": "Island1",
                "starting_position": [
                    5,
                    12
                ],
                "starting_traveler": null,
                "generic": true
            },
            {
                "nid": "105_grounded",
                "variant": null,
                "level": 1,
                "klass": "Citizen",
                "faction": "Phantom",
                "starting_items": [],
                "starting_skills": [],
                "team": "enemy",
                "ai": "Defend",
                "roam_ai": null,
                "ai_group": "Island1",
                "starting_position": [
                    5,
                    14
                ],
                "starting_traveler": null,
                "generic": true
            },
            {
                "nid": "106_short",
                "variant": null,
                "level": 1,
                "klass": "Citizen",
                "faction": "Phantom",
                "starting_items": [],
                "starting_skills": [],
                "team": "enemy",
                "ai": "Defend",
                "roam_ai": null,
                "ai_group": "Island2",
                "starting_position": [
                    1,
                    10
                ],
                "starting_traveler": null,
                "generic": true
            },
            {
                "nid": "107_short",
                "variant": null,
                "level": 1,
                "klass": "Citizen",
                "faction": "Phantom",
                "starting_items": [],
                "starting_skills": [],
                "team": "enemy",
                "ai": "Defend",
                "roam_ai": null,
                "ai_group": "Island2",
                "starting_position": [
                    2,
                    9
                ],
                "starting_traveler": null,
                "generic": true
            },
            {
                "nid": "108",
                "variant": null,
                "level": 1,
                "klass": "Citizen",
                "faction": "Phantom",
                "starting_items": [],
                "starting_skills": [],
                "team": "enemy",
                "ai": "Pursue",
                "roam_ai": null,
                "ai_group": "",
                "starting_position": [
                    9,
                    19
                ],
                "starting_traveler": null,
                "generic": true
            },
            {
                "nid": "109_short",
                "variant": null,
                "level": 1,
                "klass": "Citizen",
                "faction": "Phantom",
                "starting_items": [],
                "starting_skills": [],
                "team": "enemy",
                "ai": "Defend",
                "roam_ai": null,
                "ai_group": "TB",
                "starting_position": [
                    8,
                    7
                ],
                "starting_traveler": null,
                "generic": true
            },
            {
                "nid": "110_grounded",
                "variant": null,
                "level": 1,
                "klass": "Citizen",
                "faction": "Phantom",
                "starting_items": [],
                "starting_skills": [],
                "team": "enemy",
                "ai": "Defend",
                "roam_ai": null,
                "ai_group": "TB",
                "starting_position": [
                    9,
                    8
                ],
                "starting_traveler": null,
                "generic": true
            },
            {
                "nid": "111_short",
                "variant": null,
                "level": 1,
                "klass": "Citizen",
                "faction": "Phantom",
                "starting_items": [],
                "starting_skills": [],
                "team": "enemy",
                "ai": "Defend",
                "roam_ai": null,
                "ai_group": "TB",
                "starting_position": [
                    8,
                    9
                ],
                "starting_traveler": null,
                "generic": true
            },
            {
                "nid": "112_grounded",
                "variant": null,
                "level": 1,
                "klass": "Citizen",
                "faction": "Phantom",
                "starting_items": [],
                "starting_skills": [],
                "team": "enemy",
                "ai": "Attack",
                "roam_ai": null,
                "ai_group": "",
                "starting_position": [
                    8,
                    2
                ],
                "starting_traveler": null,
                "generic": true
            },
            {
                "nid": "113_grounded",
                "variant": null,
                "level": 1,
                "klass": "Citizen",
                "faction": "Phantom",
                "starting_items": [],
                "starting_skills": [],
                "team": "enemy",
                "ai": "Attack",
                "roam_ai": null,
                "ai_group": "",
                "starting_position": [
                    11,
                    5
                ],
                "starting_traveler": null,
                "generic": true
            },
            {
                "nid": "114_grounded",
                "variant": null,
                "level": 1,
                "klass": "Citizen",
                "faction": "Phantom",
                "starting_items": [],
                "starting_skills": [],
                "team": "enemy",
                "ai": "Attack",
                "roam_ai": null,
                "ai_group": "",
                "starting_position": [
                    5,
                    1
                ],
                "starting_traveler": null,
                "generic": true
            },
            {
                "nid": "117_flier",
                "variant": null,
                "level": 1,
                "klass": "Citizen",
                "faction": "Phantom",
                "starting_items": [],
                "starting_skills": [],
                "team": "enemy",
                "ai": "Defend",
                "roam_ai": null,
                "ai_group": "",
                "starting_position": [
                    2,
                    6
                ],
                "starting_traveler": null,
                "generic": true
            },
            {
                "nid": "115_flier",
                "variant": null,
                "level": 1,
                "klass": "Citizen",
                "faction": "Phantom",
                "starting_items": [],
                "starting_skills": [],
                "team": "enemy",
                "ai": "Pursue",
                "roam_ai": null,
                "ai_group": "",
                "starting_position": null,
                "starting_traveler": null,
                "generic": true
            },
            {
                "nid": "116_flier",
                "variant": null,
                "level": 1,
                "klass": "Citizen",
                "faction": "Phantom",
                "starting_items": [],
                "starting_skills": [],
                "team": "enemy",
                "ai": "Pursue",
                "roam_ai": null,
                "ai_group": "",
                "starting_position": null,
                "starting_traveler": null,
                "generic": true
            }
        ],
        "regions": [
            {
                "nid": "1",
                "region_type": "formation",
                "position": [
                    11,
                    18
                ],
                "size": [
                    1,
                    1
                ],
                "sub_nid": "",
                "condition": "True",
                "time_left": null,
                "only_once": false,
                "interrupt_move": false
            },
            {
                "nid": "2",
                "region_type": "formation",
                "position": [
                    12,
                    18
                ],
                "size": [
                    1,
                    1
                ],
                "sub_nid": null,
                "condition": "True",
                "time_left": null,
                "only_once": false,
                "interrupt_move": false
            },
            {
                "nid": "3",
                "region_type": "formation",
                "position": [
                    11,
                    19
                ],
                "size": [
                    1,
                    1
                ],
                "sub_nid": null,
                "condition": "True",
                "time_left": null,
                "only_once": false,
                "interrupt_move": false
            },
            {
                "nid": "4",
                "region_type": "formation",
                "position": [
                    12,
                    19
                ],
                "size": [
                    1,
                    1
                ],
                "sub_nid": null,
                "condition": "True",
                "time_left": null,
                "only_once": false,
                "interrupt_move": false
            },
            {
                "nid": "ReinforcementZone",
                "region_type": "normal",
                "position": [
                    0,
                    0
                ],
                "size": [
                    15,
                    10
                ],
                "sub_nid": "",
                "condition": "True",
                "time_left": null,
                "only_once": false,
                "interrupt_move": false
            },
            {
                "nid": "Seize",
                "region_type": "event",
                "position": [
                    11,
                    1
                ],
                "size": [
                    1,
                    1
                ],
                "sub_nid": "Seize",
                "condition": "unit.team == 'player'",
                "time_left": null,
                "only_once": false,
                "interrupt_move": false
            },
            {
                "nid": "Warp_1",
                "region_type": "event",
                "position": [
                    7,
                    19
                ],
                "size": [
                    1,
                    1
                ],
                "sub_nid": "Warp",
                "condition": "not has_skill(unit, 'Door_Fatigue')",
                "time_left": null,
                "only_once": false,
                "interrupt_move": false
            },
            {
                "nid": "Warp_2",
                "region_type": "event",
                "position": [
                    9,
                    17
                ],
                "size": [
                    1,
                    1
                ],
                "sub_nid": "Warp",
                "condition": "not has_skill(unit, 'Door_Fatigue')",
                "time_left": null,
                "only_once": false,
                "interrupt_move": false
            },
            {
                "nid": "Warp_3",
                "region_type": "event",
                "position": [
                    1,
                    9
                ],
                "size": [
                    1,
                    1
                ],
                "sub_nid": "Warp",
                "condition": "not has_skill(unit, 'Door_Fatigue')",
                "time_left": null,
                "only_once": false,
                "interrupt_move": false
            },
            {
                "nid": "Warp_4",
                "region_type": "event",
                "position": [
                    3,
                    9
                ],
                "size": [
                    1,
                    1
                ],
                "sub_nid": "Warp",
                "condition": "not has_skill(unit, 'Door_Fatigue')",
                "time_left": null,
                "only_once": false,
                "interrupt_move": false
            },
            {
                "nid": "Warp_5",
                "region_type": "event",
                "position": [
                    11,
                    8
                ],
                "size": [
                    1,
                    1
                ],
                "sub_nid": "Warp",
                "condition": "not has_skill(unit, 'Door_Fatigue')",
                "time_left": null,
                "only_once": false,
                "interrupt_move": false
            },
            {
                "nid": "Back_1",
                "region_type": "event",
                "position": [
                    7,
                    14
                ],
                "size": [
                    1,
                    1
                ],
                "sub_nid": "Warp",
                "condition": "not has_skill(unit, 'Door_Fatigue')",
                "time_left": null,
                "only_once": false,
                "interrupt_move": false
            },
            {
                "nid": "Back_2",
                "region_type": "event",
                "position": [
                    9,
                    12
                ],
                "size": [
                    1,
                    1
                ],
                "sub_nid": "Warp",
                "condition": "not has_skill(unit, 'Door_Fatigue')",
                "time_left": null,
                "only_once": false,
                "interrupt_move": false
            },
            {
                "nid": "Back_3",
                "region_type": "event",
                "position": [
                    4,
                    4
                ],
                "size": [
                    1,
                    1
                ],
                "sub_nid": "Warp",
                "condition": "not has_skill(unit, 'Door_Fatigue')",
                "time_left": null,
                "only_once": false,
                "interrupt_move": false
            },
            {
                "nid": "Back_4",
                "region_type": "event",
                "position": [
                    6,
                    8
                ],
                "size": [
                    1,
                    1
                ],
                "sub_nid": "Warp",
                "condition": "not has_skill(unit, 'Door_Fatigue')",
                "time_left": null,
                "only_once": false,
                "interrupt_move": false
            },
            {
                "nid": "Back_5",
                "region_type": "event",
                "position": [
                    4,
                    2
                ],
                "size": [
                    1,
                    1
                ],
                "sub_nid": "Warp",
                "condition": "not has_skill(unit, 'Door_Fatigue')",
                "time_left": null,
                "only_once": false,
                "interrupt_move": false
            }
        ],
        "unit_groups": [
            {
                "nid": "Reinforcements",
                "units": [
                    "115_flier",
                    "116_flier"
                ],
                "positions": {
                    "115_flier": [
                        11,
                        20
                    ],
                    "116_flier": [
                        12,
                        20
                    ]
                }
            }
        ],
        "ai_groups": [
            {
                "nid": "Island1",
                "trigger_threshold": 1
            },
            {
                "nid": "Island2",
                "trigger_threshold": 1
            },
            {
                "nid": "TB",
                "trigger_threshold": 1
            }
        ]
    }
]