[
    {
        "nid": "Act_Ophie",
        "name": "Stage Selection",
        "tilemap": "Event_Selection_TLT",
        "bg_tilemap": null,
        "party": "Player",
        "music": {},
        "objective": {
            "simple": "",
            "win": "",
            "loss": ""
        },
        "roam": true,
        "roam_unit": "Player",
        "go_to_overworld": false,
        "should_record": false,
        "units": [],
        "regions": [
            {
                "nid": "Nothing",
                "region_type": "normal",
                "position": [
                    7,
                    8
                ],
                "size": [
                    1,
                    1
                ],
                "sub_nid": "",
                "condition": "True",
                "time_left": null,
                "only_once": false,
                "interrupt_move": false
            }
        ],
        "unit_groups": [],
        "ai_groups": []
    }
]