[
    {
        "nid": "Canes",
        "name": "Boss: The Hunting Hounds",
        "tilemap": "Canes_Boss",
        "bg_tilemap": null,
        "party": "Player",
        "music": {},
        "objective": {
            "simple": "Defeat Bosses",
            "win": "Defeat Bosses",
            "loss": "All allies defeated,Loreia dies"
        },
        "roam": false,
        "roam_unit": null,
        "go_to_overworld": false,
        "should_record": true,
        "units": [
            {
                "nid": "Loreia_T",
                "team": "player",
                "ai": "None",
                "roam_ai": null,
                "ai_group": null,
                "starting_position": [
                    11,
                    5
                ],
                "starting_traveler": null,
                "generic": false
            },
            {
                "nid": "Lupus_B",
                "team": "enemy",
                "ai": "Defend",
                "roam_ai": null,
                "ai_group": "lupus",
                "starting_position": [
                    1,
                    7
                ],
                "starting_traveler": null,
                "generic": false
            },
            {
                "nid": "Canes",
                "team": "enemy",
                "ai": "Defend",
                "roam_ai": null,
                "ai_group": "canes",
                "starting_position": [
                    3,
                    1
                ],
                "starting_traveler": null,
                "generic": false
            },
            {
                "nid": "101",
                "variant": null,
                "level": 6,
                "klass": "Mauthe_Doog",
                "faction": "Monster",
                "starting_items": [
                    [
                        "Wounding_Fang",
                        false
                    ]
                ],
                "starting_skills": [],
                "team": "enemy",
                "ai": "Pursue",
                "roam_ai": null,
                "ai_group": "",
                "starting_position": [
                    7,
                    4
                ],
                "starting_traveler": null,
                "generic": true
            },
            {
                "nid": "102",
                "variant": null,
                "level": 6,
                "klass": "Mauthe_Doog",
                "faction": "Monster",
                "starting_items": [
                    [
                        "Wounding_Fang",
                        false
                    ]
                ],
                "starting_skills": [],
                "team": "enemy",
                "ai": "Pursue",
                "roam_ai": null,
                "ai_group": "",
                "starting_position": [
                    10,
                    9
                ],
                "starting_traveler": null,
                "generic": true
            },
            {
                "nid": "103",
                "variant": null,
                "level": 6,
                "klass": "Mauthe_Doog",
                "faction": "Monster",
                "starting_items": [
                    [
                        "Wounding_Fang",
                        false
                    ]
                ],
                "starting_skills": [],
                "team": "enemy",
                "ai": "Pursue",
                "roam_ai": null,
                "ai_group": "",
                "starting_position": [
                    10,
                    0
                ],
                "starting_traveler": null,
                "generic": true
            },
            {
                "nid": "104",
                "variant": null,
                "level": 8,
                "klass": "Gargoyle",
                "faction": "Monster",
                "starting_items": [
                    [
                        "Steel_Lance",
                        false
                    ]
                ],
                "starting_skills": [],
                "team": "enemy",
                "ai": "Pursue",
                "roam_ai": null,
                "ai_group": "",
                "starting_position": null,
                "starting_traveler": null,
                "generic": true
            },
            {
                "nid": "105",
                "variant": null,
                "level": 8,
                "klass": "Gargoyle",
                "faction": "Monster",
                "starting_items": [
                    [
                        "Short_Spear",
                        false
                    ]
                ],
                "starting_skills": [],
                "team": "enemy",
                "ai": "Pursue",
                "roam_ai": null,
                "ai_group": "",
                "starting_position": null,
                "starting_traveler": null,
                "generic": true
            },
            {
                "nid": "106",
                "variant": null,
                "level": 6,
                "klass": "Mauthe_Doog",
                "faction": "Monster",
                "starting_items": [
                    [
                        "Wounding_Fang",
                        false
                    ]
                ],
                "starting_skills": [],
                "team": "enemy",
                "ai": "Defend",
                "roam_ai": null,
                "ai_group": "1",
                "starting_position": [
                    3,
                    5
                ],
                "starting_traveler": null,
                "generic": true
            },
            {
                "nid": "107",
                "variant": null,
                "level": 6,
                "klass": "Mauthe_Doog",
                "faction": "Monster",
                "starting_items": [
                    [
                        "Wounding_Fang",
                        false
                    ]
                ],
                "starting_skills": [],
                "team": "enemy",
                "ai": "Defend",
                "roam_ai": null,
                "ai_group": "1",
                "starting_position": [
                    5,
                    10
                ],
                "starting_traveler": null,
                "generic": true
            },
            {
                "nid": "108",
                "variant": null,
                "level": 8,
                "klass": "Bow_Bonewalker",
                "faction": "Monster",
                "starting_items": [
                    [
                        "Poison_Bow",
                        false
                    ]
                ],
                "starting_skills": [],
                "team": "enemy",
                "ai": "Defend",
                "roam_ai": null,
                "ai_group": "1",
                "starting_position": [
                    5,
                    7
                ],
                "starting_traveler": null,
                "generic": true
            },
            {
                "nid": "109",
                "variant": null,
                "level": 6,
                "klass": "Mauthe_Doog",
                "faction": "Monster",
                "starting_items": [
                    [
                        "Poison_Fang",
                        false
                    ]
                ],
                "starting_skills": [],
                "team": "enemy",
                "ai": "Defend",
                "roam_ai": null,
                "ai_group": "canes",
                "starting_position": [
                    3,
                    2
                ],
                "starting_traveler": null,
                "generic": true
            },
            {
                "nid": "110",
                "variant": null,
                "level": 6,
                "klass": "Mauthe_Doog",
                "faction": "Monster",
                "starting_items": [
                    [
                        "Poison_Fang",
                        false
                    ]
                ],
                "starting_skills": [],
                "team": "enemy",
                "ai": "Defend",
                "roam_ai": null,
                "ai_group": "lupus",
                "starting_position": [
                    0,
                    6
                ],
                "starting_traveler": null,
                "generic": true
            },
            {
                "nid": "111",
                "variant": null,
                "level": 6,
                "klass": "Mauthe_Doog",
                "faction": "Monster",
                "starting_items": [
                    [
                        "Poison_Fang",
                        false
                    ]
                ],
                "starting_skills": [],
                "team": "enemy",
                "ai": "Defend",
                "roam_ai": null,
                "ai_group": "lupus",
                "starting_position": [
                    0,
                    8
                ],
                "starting_traveler": null,
                "generic": true
            },
            {
                "nid": "pursuer_1",
                "variant": null,
                "level": 6,
                "klass": "Mauthe_Doog",
                "faction": "Monster",
                "starting_items": [
                    [
                        "Wounding_Fang",
                        false
                    ]
                ],
                "starting_skills": [],
                "team": "enemy",
                "ai": "Pursue",
                "roam_ai": null,
                "ai_group": "",
                "starting_position": null,
                "starting_traveler": null,
                "generic": true
            },
            {
                "nid": "pursuer_2",
                "variant": null,
                "level": 6,
                "klass": "Mauthe_Doog",
                "faction": "Monster",
                "starting_items": [
                    [
                        "Wounding_Fang",
                        false
                    ]
                ],
                "starting_skills": [],
                "team": "enemy",
                "ai": "Pursue",
                "roam_ai": null,
                "ai_group": "",
                "starting_position": null,
                "starting_traveler": null,
                "generic": true
            },
            {
                "nid": "pursuer_3",
                "variant": null,
                "level": 8,
                "klass": "Gargoyle",
                "faction": "Monster",
                "starting_items": [
                    [
                        "Toxin_Lance",
                        false
                    ]
                ],
                "starting_skills": [],
                "team": "enemy",
                "ai": "Pursue",
                "roam_ai": null,
                "ai_group": "",
                "starting_position": null,
                "starting_traveler": null,
                "generic": true
            },
            {
                "nid": "pursuer_4",
                "variant": null,
                "level": 6,
                "klass": "Mauthe_Doog",
                "faction": "Monster",
                "starting_items": [
                    [
                        "Poison_Fang",
                        false
                    ]
                ],
                "starting_skills": [],
                "team": "enemy",
                "ai": "Pursue",
                "roam_ai": null,
                "ai_group": "",
                "starting_position": null,
                "starting_traveler": null,
                "generic": true
            },
            {
                "nid": "pursuer_5",
                "variant": null,
                "level": 6,
                "klass": "Mauthe_Doog",
                "faction": "Monster",
                "starting_items": [
                    [
                        "Poison_Fang",
                        false
                    ]
                ],
                "starting_skills": [],
                "team": "enemy",
                "ai": "Pursue",
                "roam_ai": null,
                "ai_group": "",
                "starting_position": null,
                "starting_traveler": null,
                "generic": true
            },
            {
                "nid": "pursuer_6",
                "variant": null,
                "level": 6,
                "klass": "Mauthe_Doog",
                "faction": "Monster",
                "starting_items": [
                    [
                        "Firesweep_Fang",
                        false
                    ]
                ],
                "starting_skills": [],
                "team": "enemy",
                "ai": "Pursue",
                "roam_ai": null,
                "ai_group": "",
                "starting_position": null,
                "starting_traveler": null,
                "generic": true
            },
            {
                "nid": "121",
                "variant": null,
                "level": 8,
                "klass": "Gargoyle",
                "faction": "Monster",
                "starting_items": [
                    [
                        "Toxin_Lance",
                        false
                    ]
                ],
                "starting_skills": [],
                "team": "enemy",
                "ai": "Pursue",
                "roam_ai": null,
                "ai_group": "",
                "starting_position": null,
                "starting_traveler": null,
                "generic": true
            },
            {
                "nid": "122",
                "variant": null,
                "level": 8,
                "klass": "Gargoyle",
                "faction": "Monster",
                "starting_items": [
                    [
                        "Toxin_Lance",
                        false
                    ]
                ],
                "starting_skills": [],
                "team": "enemy",
                "ai": "Pursue",
                "roam_ai": null,
                "ai_group": "",
                "starting_position": null,
                "starting_traveler": null,
                "generic": true
            }
        ],
        "regions": [
            {
                "nid": "Formation_1",
                "region_type": "formation",
                "position": [
                    10,
                    5
                ],
                "size": [
                    1,
                    1
                ],
                "sub_nid": "",
                "condition": "True",
                "time_left": null,
                "only_once": false,
                "interrupt_move": false
            },
            {
                "nid": "Formation_2",
                "region_type": "formation",
                "position": [
                    11,
                    6
                ],
                "size": [
                    1,
                    1
                ],
                "sub_nid": null,
                "condition": "True",
                "time_left": null,
                "only_once": false,
                "interrupt_move": false
            },
            {
                "nid": "Formation_3",
                "region_type": "formation",
                "position": [
                    12,
                    5
                ],
                "size": [
                    1,
                    1
                ],
                "sub_nid": null,
                "condition": "True",
                "time_left": null,
                "only_once": false,
                "interrupt_move": false
            },
            {
                "nid": "Formation_4",
                "region_type": "formation",
                "position": [
                    11,
                    4
                ],
                "size": [
                    1,
                    1
                ],
                "sub_nid": null,
                "condition": "True",
                "time_left": null,
                "only_once": false,
                "interrupt_move": false
            },
            {
                "nid": "Formation_5",
                "region_type": "formation",
                "position": [
                    10,
                    6
                ],
                "size": [
                    1,
                    1
                ],
                "sub_nid": null,
                "condition": "True",
                "time_left": null,
                "only_once": false,
                "interrupt_move": false
            },
            {
                "nid": "Formation_6",
                "region_type": "formation",
                "position": [
                    12,
                    4
                ],
                "size": [
                    1,
                    1
                ],
                "sub_nid": null,
                "condition": "True",
                "time_left": null,
                "only_once": false,
                "interrupt_move": false
            }
        ],
        "unit_groups": [
            {
                "nid": "reins_1",
                "units": [
                    "pursuer_1",
                    "pursuer_2"
                ],
                "positions": {
                    "pursuer_1": [
                        11,
                        0
                    ],
                    "pursuer_2": [
                        6,
                        11
                    ]
                }
            },
            {
                "nid": "reins_2",
                "units": [
                    "pursuer_3"
                ],
                "positions": {
                    "pursuer_3": [
                        16,
                        6
                    ]
                }
            },
            {
                "nid": "reins_3",
                "units": [
                    "pursuer_4"
                ],
                "positions": {
                    "pursuer_4": [
                        12,
                        11
                    ]
                }
            },
            {
                "nid": "hm_reins_1",
                "units": [
                    "pursuer_5",
                    "pursuer_6"
                ],
                "positions": {
                    "pursuer_5": [
                        11,
                        0
                    ],
                    "pursuer_6": [
                        6,
                        11
                    ]
                }
            },
            {
                "nid": "hm_1",
                "units": [
                    "121",
                    "122"
                ],
                "positions": {
                    "121": [
                        16,
                        6
                    ],
                    "122": [
                        1,
                        11
                    ]
                }
            }
        ],
        "ai_groups": [
            {
                "nid": "lupus",
                "trigger_threshold": 2
            },
            {
                "nid": "1",
                "trigger_threshold": 1
            },
            {
                "nid": "canes",
                "trigger_threshold": 2
            }
        ]
    }
]