[
    {
        "nid": "Loreia",
        "name": "Boss: The Priestess",
        "tilemap": "Boss_L",
        "bg_tilemap": null,
        "party": "Player",
        "music": {},
        "objective": {
            "simple": "Defeat Boss",
            "win": "Defeat Boss",
            "loss": "All allies defeated"
        },
        "roam": false,
        "roam_unit": null,
        "go_to_overworld": false,
        "should_record": true,
        "units": [
            {
                "nid": "Adrius_T",
                "team": "player",
                "ai": "None",
                "roam_ai": null,
                "ai_group": "",
                "starting_position": [
                    15,
                    21
                ],
                "starting_traveler": null,
                "generic": false
            },
            {
                "nid": "door_1",
                "variant": null,
                "level": 1,
                "klass": "Door20",
                "faction": "Wall",
                "starting_items": [],
                "starting_skills": [],
                "team": "enemy",
                "ai": "None",
                "roam_ai": null,
                "ai_group": "",
                "starting_position": [
                    1,
                    2
                ],
                "starting_traveler": null,
                "generic": true
            },
            {
                "nid": "door_2",
                "variant": null,
                "level": 1,
                "klass": "Door20",
                "faction": "Wall",
                "starting_items": [],
                "starting_skills": [],
                "team": "enemy",
                "ai": "None",
                "roam_ai": null,
                "ai_group": "",
                "starting_position": [
                    15,
                    2
                ],
                "starting_traveler": null,
                "generic": true
            },
            {
                "nid": "door_3_1",
                "variant": null,
                "level": 1,
                "klass": "Door20",
                "faction": "Wall",
                "starting_items": [],
                "starting_skills": [],
                "team": "enemy",
                "ai": "None",
                "roam_ai": null,
                "ai_group": "",
                "starting_position": [
                    0,
                    8
                ],
                "starting_traveler": null,
                "generic": true
            },
            {
                "nid": "door_3_2",
                "variant": null,
                "level": 1,
                "klass": "Door20",
                "faction": "Wall",
                "starting_items": [],
                "starting_skills": [],
                "team": "enemy",
                "ai": "None",
                "roam_ai": null,
                "ai_group": "",
                "starting_position": [
                    1,
                    8
                ],
                "starting_traveler": null,
                "generic": true
            },
            {
                "nid": "door_4_1",
                "variant": null,
                "level": 1,
                "klass": "Door20",
                "faction": "Wall",
                "starting_items": [],
                "starting_skills": [],
                "team": "enemy",
                "ai": "None",
                "roam_ai": null,
                "ai_group": "",
                "starting_position": [
                    15,
                    8
                ],
                "starting_traveler": null,
                "generic": true
            },
            {
                "nid": "door_4_2",
                "variant": null,
                "level": 1,
                "klass": "Door20",
                "faction": "Wall",
                "starting_items": [],
                "starting_skills": [],
                "team": "enemy",
                "ai": "None",
                "roam_ai": null,
                "ai_group": "",
                "starting_position": [
                    16,
                    8
                ],
                "starting_traveler": null,
                "generic": true
            },
            {
                "nid": "door_5_1",
                "variant": null,
                "level": 1,
                "klass": "Door20",
                "faction": "Wall",
                "starting_items": [],
                "starting_skills": [],
                "team": "enemy",
                "ai": "None",
                "roam_ai": null,
                "ai_group": "",
                "starting_position": [
                    6,
                    17
                ],
                "starting_traveler": null,
                "generic": true
            },
            {
                "nid": "door_5_2",
                "variant": null,
                "level": 1,
                "klass": "Door20",
                "faction": "Wall",
                "starting_items": [],
                "starting_skills": [],
                "team": "enemy",
                "ai": "None",
                "roam_ai": null,
                "ai_group": "",
                "starting_position": [
                    7,
                    17
                ],
                "starting_traveler": null,
                "generic": true
            },
            {
                "nid": "door_6_1",
                "variant": null,
                "level": 1,
                "klass": "Door20",
                "faction": "Wall",
                "starting_items": [],
                "starting_skills": [],
                "team": "enemy",
                "ai": "None",
                "roam_ai": null,
                "ai_group": "",
                "starting_position": [
                    9,
                    17
                ],
                "starting_traveler": null,
                "generic": true
            },
            {
                "nid": "door_6_2",
                "variant": null,
                "level": 1,
                "klass": "Door20",
                "faction": "Wall",
                "starting_items": [],
                "starting_skills": [],
                "team": "enemy",
                "ai": "None",
                "roam_ai": null,
                "ai_group": "",
                "starting_position": [
                    10,
                    17
                ],
                "starting_traveler": null,
                "generic": true
            },
            {
                "nid": "Loreia_B",
                "team": "enemy",
                "ai": "Guard",
                "roam_ai": null,
                "ai_group": "",
                "starting_position": [
                    8,
                    4
                ],
                "starting_traveler": null,
                "generic": false
            },
            {
                "nid": "Priestess_1",
                "variant": "Female",
                "level": 15,
                "klass": "Cleric",
                "faction": "Priestess",
                "starting_items": [
                    [
                        "ArcDazzle",
                        false
                    ],
                    [
                        "FarAmp",
                        false
                    ]
                ],
                "starting_skills": [],
                "team": "enemy",
                "ai": "SupportGuard_High",
                "roam_ai": null,
                "ai_group": "",
                "starting_position": [
                    13,
                    12
                ],
                "starting_traveler": null,
                "generic": true
            },
            {
                "nid": "Priestess_2",
                "variant": "Female",
                "level": 15,
                "klass": "Cleric",
                "faction": "Priestess",
                "starting_items": [
                    [
                        "ArcDazzle",
                        false
                    ],
                    [
                        "FarAmp",
                        false
                    ]
                ],
                "starting_skills": [],
                "team": "enemy",
                "ai": "SupportGuard_High",
                "roam_ai": null,
                "ai_group": "",
                "starting_position": [
                    3,
                    12
                ],
                "starting_traveler": null,
                "generic": true
            },
            {
                "nid": "Priestess_3",
                "variant": "Female",
                "level": 15,
                "klass": "Cleric",
                "faction": "Priestess",
                "starting_items": [
                    [
                        "ArcDazzle",
                        false
                    ],
                    [
                        "FarAmp",
                        false
                    ]
                ],
                "starting_skills": [],
                "team": "enemy",
                "ai": "SupportGuard_High",
                "roam_ai": null,
                "ai_group": "",
                "starting_position": null,
                "starting_traveler": null,
                "generic": true
            },
            {
                "nid": "Priestess_4",
                "variant": "Female",
                "level": 15,
                "klass": "Cleric",
                "faction": "Priestess",
                "starting_items": [
                    [
                        "ArcDazzle",
                        false
                    ],
                    [
                        "FarAmp",
                        false
                    ]
                ],
                "starting_skills": [],
                "team": "enemy",
                "ai": "SupportGuard_High",
                "roam_ai": null,
                "ai_group": "",
                "starting_position": null,
                "starting_traveler": null,
                "generic": true
            },
            {
                "nid": "Priestess_5",
                "variant": "Female",
                "level": 15,
                "klass": "Cleric",
                "faction": "Priestess",
                "starting_items": [
                    [
                        "ArcDazzle",
                        false
                    ],
                    [
                        "FarAmp",
                        false
                    ]
                ],
                "starting_skills": [],
                "team": "enemy",
                "ai": "SupportGuard_High",
                "roam_ai": null,
                "ai_group": "",
                "starting_position": null,
                "starting_traveler": null,
                "generic": true
            },
            {
                "nid": "Priestess_6",
                "variant": "Female",
                "level": 15,
                "klass": "Cleric",
                "faction": "Priestess",
                "starting_items": [
                    [
                        "ArcDazzle",
                        false
                    ],
                    [
                        "FarAmp",
                        false
                    ]
                ],
                "starting_skills": [],
                "team": "enemy",
                "ai": "SupportGuard_High",
                "roam_ai": null,
                "ai_group": "",
                "starting_position": null,
                "starting_traveler": null,
                "generic": true
            },
            {
                "nid": "101",
                "variant": null,
                "level": 14,
                "klass": "General",
                "faction": "Coalition",
                "starting_items": [
                    [
                        "Dragon_Axe",
                        false
                    ],
                    [
                        "Short_Axe",
                        false
                    ]
                ],
                "starting_skills": [],
                "team": "enemy",
                "ai": "Guard",
                "roam_ai": null,
                "ai_group": "",
                "starting_position": [
                    8,
                    5
                ],
                "starting_traveler": null,
                "generic": true
            },
            {
                "nid": "102",
                "variant": null,
                "level": 14,
                "klass": "General",
                "faction": "Coalition",
                "starting_items": [
                    [
                        "Heavy_Spear",
                        false
                    ],
                    [
                        "Short_Spear",
                        false
                    ]
                ],
                "starting_skills": [],
                "team": "enemy",
                "ai": "Guard",
                "roam_ai": null,
                "ai_group": "",
                "starting_position": [
                    9,
                    4
                ],
                "starting_traveler": null,
                "generic": true
            },
            {
                "nid": "103",
                "variant": null,
                "level": 14,
                "klass": "General",
                "faction": "Coalition",
                "starting_items": [
                    [
                        "Horseslayer",
                        false
                    ],
                    [
                        "Short_Spear",
                        false
                    ]
                ],
                "starting_skills": [],
                "team": "enemy",
                "ai": "Guard",
                "roam_ai": null,
                "ai_group": "",
                "starting_position": [
                    7,
                    4
                ],
                "starting_traveler": null,
                "generic": true
            },
            {
                "nid": "104",
                "variant": null,
                "level": 14,
                "klass": "Mercenary",
                "faction": "Coalition",
                "starting_items": [
                    [
                        "Epee",
                        false
                    ]
                ],
                "starting_skills": [],
                "team": "enemy",
                "ai": "Defend",
                "roam_ai": null,
                "ai_group": "",
                "starting_position": [
                    5,
                    19
                ],
                "starting_traveler": null,
                "generic": true
            },
            {
                "nid": "105",
                "variant": null,
                "level": 14,
                "klass": "Archer",
                "faction": "Coalition",
                "starting_items": [
                    [
                        "Steel_Bow",
                        false
                    ]
                ],
                "starting_skills": [],
                "team": "enemy",
                "ai": "Defend",
                "roam_ai": null,
                "ai_group": "",
                "starting_position": [
                    6,
                    19
                ],
                "starting_traveler": null,
                "generic": true
            },
            {
                "nid": "106",
                "variant": null,
                "level": 14,
                "klass": "Axe_Armor",
                "faction": "Coalition",
                "starting_items": [
                    [
                        "Steel_Axe",
                        false
                    ]
                ],
                "starting_skills": [],
                "team": "enemy",
                "ai": "Attack",
                "roam_ai": null,
                "ai_group": "",
                "starting_position": [
                    1,
                    18
                ],
                "starting_traveler": null,
                "generic": true
            },
            {
                "nid": "107",
                "variant": null,
                "level": 14,
                "klass": "Soldier",
                "faction": "Coalition",
                "starting_items": [
                    [
                        "Firesweep_Lance",
                        false
                    ]
                ],
                "starting_skills": [],
                "team": "enemy",
                "ai": "Attack",
                "roam_ai": null,
                "ai_group": "",
                "starting_position": [
                    3,
                    20
                ],
                "starting_traveler": null,
                "generic": true
            },
            {
                "nid": "108",
                "variant": null,
                "level": 14,
                "klass": "Mage",
                "faction": "Coalition",
                "starting_items": [
                    [
                        "Thunder",
                        false
                    ]
                ],
                "starting_skills": [],
                "team": "enemy",
                "ai": "Defend",
                "roam_ai": null,
                "ai_group": "",
                "starting_position": [
                    10,
                    19
                ],
                "starting_traveler": null,
                "generic": true
            },
            {
                "nid": "109",
                "variant": null,
                "level": 14,
                "klass": "Shaman",
                "faction": "Coalition",
                "starting_items": [
                    [
                        "Crush",
                        false
                    ]
                ],
                "starting_skills": [],
                "team": "enemy",
                "ai": "Defend",
                "roam_ai": null,
                "ai_group": "",
                "starting_position": [
                    11,
                    19
                ],
                "starting_traveler": null,
                "generic": true
            },
            {
                "nid": "110",
                "variant": null,
                "level": 14,
                "klass": "Monk",
                "faction": "Coalition",
                "starting_items": [
                    [
                        "Heavensward",
                        false
                    ]
                ],
                "starting_skills": [],
                "team": "enemy",
                "ai": "Defend",
                "roam_ai": null,
                "ai_group": "",
                "starting_position": [
                    15,
                    18
                ],
                "starting_traveler": null,
                "generic": true
            },
            {
                "nid": "111",
                "variant": null,
                "level": 14,
                "klass": "Beastkin",
                "faction": "Coalition",
                "starting_items": [
                    [
                        "Wind_Rune",
                        false
                    ]
                ],
                "starting_skills": [],
                "team": "enemy",
                "ai": "Defend",
                "roam_ai": null,
                "ai_group": "",
                "starting_position": [
                    13,
                    20
                ],
                "starting_traveler": null,
                "generic": true
            },
            {
                "nid": "112",
                "variant": null,
                "level": 14,
                "klass": "Brightwing",
                "faction": "Coalition",
                "starting_items": [
                    [
                        "Shine",
                        false
                    ]
                ],
                "starting_skills": [],
                "team": "enemy",
                "ai": "Defend",
                "roam_ai": null,
                "ai_group": "mid2",
                "starting_position": [
                    14,
                    10
                ],
                "starting_traveler": null,
                "generic": true
            },
            {
                "nid": "113",
                "variant": null,
                "level": 14,
                "klass": "Brightwing",
                "faction": "Coalition",
                "starting_items": [
                    [
                        "Shine",
                        false
                    ]
                ],
                "starting_skills": [],
                "team": "enemy",
                "ai": "Defend",
                "roam_ai": null,
                "ai_group": "mid2",
                "starting_position": null,
                "starting_traveler": null,
                "generic": true
            },
            {
                "nid": "114",
                "variant": null,
                "level": 14,
                "klass": "Thaumaturge",
                "faction": "Coalition",
                "starting_items": [
                    [
                        "Elwind",
                        false
                    ]
                ],
                "starting_skills": [],
                "team": "enemy",
                "ai": "Defend",
                "roam_ai": null,
                "ai_group": "mid1",
                "starting_position": [
                    15,
                    15
                ],
                "starting_traveler": null,
                "generic": true
            },
            {
                "nid": "115",
                "variant": null,
                "level": 14,
                "klass": "Mage_Armor",
                "faction": "Coalition",
                "starting_items": [
                    [
                        "Carreau",
                        false
                    ]
                ],
                "starting_skills": [],
                "team": "enemy",
                "ai": "Defend",
                "roam_ai": null,
                "ai_group": "mid1",
                "starting_position": [
                    10,
                    12
                ],
                "starting_traveler": null,
                "generic": true
            },
            {
                "nid": "116",
                "variant": null,
                "level": 14,
                "klass": "Sage",
                "faction": "Coalition",
                "starting_items": [
                    [
                        "BigHurtyLightning",
                        false
                    ],
                    [
                        "Scorch",
                        false
                    ]
                ],
                "starting_skills": [],
                "team": "enemy",
                "ai": "Defend",
                "roam_ai": null,
                "ai_group": "mid2",
                "starting_position": [
                    14,
                    13
                ],
                "starting_traveler": null,
                "generic": true
            },
            {
                "nid": "117",
                "variant": null,
                "level": 14,
                "klass": "Mage_Armor",
                "faction": "Coalition",
                "starting_items": [
                    [
                        "Crush",
                        false
                    ]
                ],
                "starting_skills": [],
                "team": "enemy",
                "ai": "Defend",
                "roam_ai": null,
                "ai_group": "top1",
                "starting_position": [
                    12,
                    5
                ],
                "starting_traveler": null,
                "generic": true
            },
            {
                "nid": "118",
                "variant": null,
                "level": 14,
                "klass": "Mage_Armor",
                "faction": "Coalition",
                "starting_items": [
                    [
                        "Crush",
                        false
                    ]
                ],
                "starting_skills": [],
                "team": "enemy",
                "ai": "Defend",
                "roam_ai": null,
                "ai_group": "top1",
                "starting_position": [
                    14,
                    3
                ],
                "starting_traveler": null,
                "generic": true
            },
            {
                "nid": "119",
                "variant": null,
                "level": 14,
                "klass": "Arbiter",
                "faction": "Coalition",
                "starting_items": [
                    [
                        "BehindYou",
                        false
                    ]
                ],
                "starting_skills": [],
                "team": "enemy",
                "ai": "Defend",
                "roam_ai": null,
                "ai_group": "top1",
                "starting_position": [
                    13,
                    4
                ],
                "starting_traveler": null,
                "generic": true
            },
            {
                "nid": "120",
                "variant": null,
                "level": 14,
                "klass": "Hero",
                "faction": "Coalition",
                "starting_items": [
                    [
                        "Rapier",
                        false
                    ],
                    [
                        "Short_Axe",
                        false
                    ]
                ],
                "starting_skills": [],
                "team": "enemy",
                "ai": "Defend",
                "roam_ai": null,
                "ai_group": "mid3",
                "starting_position": [
                    2,
                    13
                ],
                "starting_traveler": null,
                "generic": true
            },
            {
                "nid": "121",
                "variant": null,
                "level": 14,
                "klass": "Wyvern_Chaser",
                "faction": "Coalition",
                "starting_items": [
                    [
                        "Steel_Knife",
                        false
                    ]
                ],
                "starting_skills": [],
                "team": "enemy",
                "ai": "Defend",
                "roam_ai": null,
                "ai_group": "mid3",
                "starting_position": [
                    2,
                    10
                ],
                "starting_traveler": null,
                "generic": true
            },
            {
                "nid": "122",
                "variant": null,
                "level": 14,
                "klass": "Bow_Armor",
                "faction": "Coalition",
                "starting_items": [
                    [
                        "Short_Bow",
                        false
                    ],
                    [
                        "ChuKoNu",
                        false
                    ]
                ],
                "starting_skills": [],
                "team": "enemy",
                "ai": "Defend",
                "roam_ai": null,
                "ai_group": "mid4",
                "starting_position": [
                    6,
                    12
                ],
                "starting_traveler": null,
                "generic": true
            },
            {
                "nid": "123",
                "variant": null,
                "level": 14,
                "klass": "Lance_Knight",
                "faction": "Coalition",
                "starting_items": [
                    [
                        "Short_Spear",
                        false
                    ]
                ],
                "starting_skills": [],
                "team": "enemy",
                "ai": "Defend",
                "roam_ai": null,
                "ai_group": "mid4",
                "starting_position": [
                    1,
                    15
                ],
                "starting_traveler": null,
                "generic": true
            },
            {
                "nid": "124",
                "variant": null,
                "level": 14,
                "klass": "Soldier",
                "faction": "Coalition",
                "starting_items": [
                    [
                        "Firesweep_Lance",
                        false
                    ]
                ],
                "starting_skills": [],
                "team": "enemy",
                "ai": "Defend",
                "roam_ai": null,
                "ai_group": "top2",
                "starting_position": [
                    2,
                    3
                ],
                "starting_traveler": null,
                "generic": true
            },
            {
                "nid": "125",
                "variant": null,
                "level": 14,
                "klass": "Soldier",
                "faction": "Coalition",
                "starting_items": [
                    [
                        "Firesweep_Lance",
                        false
                    ]
                ],
                "starting_skills": [],
                "team": "enemy",
                "ai": "Defend",
                "roam_ai": null,
                "ai_group": "top2",
                "starting_position": [
                    4,
                    5
                ],
                "starting_traveler": null,
                "generic": true
            },
            {
                "nid": "126",
                "variant": null,
                "level": 14,
                "klass": "Halberdier",
                "faction": "Coalition",
                "starting_items": [
                    [
                        "Axereaver",
                        false
                    ]
                ],
                "starting_skills": [],
                "team": "enemy",
                "ai": "Defend",
                "roam_ai": null,
                "ai_group": "top2",
                "starting_position": [
                    3,
                    4
                ],
                "starting_traveler": null,
                "generic": true
            },
            {
                "nid": "127",
                "variant": null,
                "level": 14,
                "klass": "Axe_Knight",
                "faction": "Coalition",
                "starting_items": [
                    [
                        "Lance_Crusher",
                        false
                    ]
                ],
                "starting_skills": [],
                "team": "enemy",
                "ai": "Pursue",
                "roam_ai": null,
                "ai_group": "",
                "starting_position": null,
                "starting_traveler": null,
                "generic": true
            },
            {
                "nid": "128",
                "variant": null,
                "level": 14,
                "klass": "Thaumaturge",
                "faction": "Coalition",
                "starting_items": [
                    [
                        "Scorch",
                        false
                    ]
                ],
                "starting_skills": [],
                "team": "enemy",
                "ai": "Pursue",
                "roam_ai": null,
                "ai_group": "",
                "starting_position": null,
                "starting_traveler": null,
                "generic": true
            },
            {
                "nid": "129",
                "variant": null,
                "level": 14,
                "klass": "Mercenary",
                "faction": "Coalition",
                "starting_items": [
                    [
                        "Axe_Splitter",
                        false
                    ]
                ],
                "starting_skills": [],
                "team": "enemy",
                "ai": "Pursue",
                "roam_ai": null,
                "ai_group": "",
                "starting_position": null,
                "starting_traveler": null,
                "generic": true
            },
            {
                "nid": "130",
                "variant": null,
                "level": 14,
                "klass": "Mercenary",
                "faction": "Coalition",
                "starting_items": [
                    [
                        "Lancereaver",
                        false
                    ]
                ],
                "starting_skills": [],
                "team": "enemy",
                "ai": "Pursue",
                "roam_ai": null,
                "ai_group": "",
                "starting_position": null,
                "starting_traveler": null,
                "generic": true
            },
            {
                "nid": "131",
                "variant": null,
                "level": 14,
                "klass": "Sword_Knight",
                "faction": "Coalition",
                "starting_items": [
                    [
                        "Zweihander",
                        false
                    ]
                ],
                "starting_skills": [],
                "team": "enemy",
                "ai": "Pursue",
                "roam_ai": null,
                "ai_group": "",
                "starting_position": null,
                "starting_traveler": null,
                "generic": true
            },
            {
                "nid": "132",
                "variant": null,
                "level": 14,
                "klass": "Sword_Knight",
                "faction": "Coalition",
                "starting_items": [
                    [
                        "Zweihander",
                        false
                    ]
                ],
                "starting_skills": [],
                "team": "enemy",
                "ai": "Pursue",
                "roam_ai": null,
                "ai_group": "",
                "starting_position": null,
                "starting_traveler": null,
                "generic": true
            },
            {
                "nid": "Priestess_7",
                "variant": "Female",
                "level": 15,
                "klass": "Cleric",
                "faction": "Priestess",
                "starting_items": [
                    [
                        "ArcDazzle",
                        false
                    ],
                    [
                        "FarAmp",
                        false
                    ]
                ],
                "starting_skills": [],
                "team": "enemy",
                "ai": "SupportGuard_High",
                "roam_ai": null,
                "ai_group": "",
                "starting_position": null,
                "starting_traveler": null,
                "generic": true
            },
            {
                "nid": "133",
                "variant": null,
                "level": 14,
                "klass": "Darkwing",
                "faction": "Coalition",
                "starting_items": [
                    [
                        "Carreau",
                        false
                    ]
                ],
                "starting_skills": [],
                "team": "enemy",
                "ai": "Defend",
                "roam_ai": null,
                "ai_group": "",
                "starting_position": null,
                "starting_traveler": null,
                "generic": true
            },
            {
                "nid": "134",
                "variant": null,
                "level": 14,
                "klass": "Griffon_Rider",
                "faction": "Coalition",
                "starting_items": [
                    [
                        "Steel_Bow",
                        false
                    ]
                ],
                "starting_skills": [],
                "team": "enemy",
                "ai": "Defend",
                "roam_ai": null,
                "ai_group": "",
                "starting_position": null,
                "starting_traveler": null,
                "generic": true
            },
            {
                "nid": "135",
                "variant": null,
                "level": 14,
                "klass": "Manakete",
                "faction": "Coalition",
                "starting_items": [
                    [
                        "Wind_Rune",
                        false
                    ]
                ],
                "starting_skills": [],
                "team": "enemy",
                "ai": "Defend",
                "roam_ai": null,
                "ai_group": "",
                "starting_position": null,
                "starting_traveler": null,
                "generic": true
            },
            {
                "nid": "136",
                "variant": null,
                "level": 14,
                "klass": "Ninja",
                "faction": "Coalition",
                "starting_items": [
                    [
                        "Poison_Point",
                        false
                    ]
                ],
                "starting_skills": [],
                "team": "enemy",
                "ai": "Defend",
                "roam_ai": null,
                "ai_group": "",
                "starting_position": null,
                "starting_traveler": null,
                "generic": true
            },
            {
                "nid": "137",
                "variant": null,
                "level": 14,
                "klass": "Sword_Knight",
                "faction": "Coalition",
                "starting_items": [
                    [
                        "Axe_Splitter",
                        false
                    ]
                ],
                "starting_skills": [],
                "team": "enemy",
                "ai": "Pursue",
                "roam_ai": null,
                "ai_group": "",
                "starting_position": null,
                "starting_traveler": null,
                "generic": true
            },
            {
                "nid": "138",
                "variant": null,
                "level": 14,
                "klass": "Manakete_Flying",
                "faction": "Coalition",
                "starting_items": [
                    [
                        "Shadow_Stone",
                        false
                    ]
                ],
                "starting_skills": [],
                "team": "enemy",
                "ai": "Pursue",
                "roam_ai": null,
                "ai_group": "",
                "starting_position": null,
                "starting_traveler": null,
                "generic": true
            }
        ],
        "regions": [
            {
                "nid": "Formation_1",
                "region_type": "formation",
                "position": [
                    1,
                    21
                ],
                "size": [
                    1,
                    1
                ],
                "sub_nid": "",
                "condition": "True",
                "time_left": null,
                "only_once": false,
                "interrupt_move": false
            },
            {
                "nid": "Formation_2",
                "region_type": "formation",
                "position": [
                    0,
                    21
                ],
                "size": [
                    1,
                    1
                ],
                "sub_nid": null,
                "condition": "True",
                "time_left": null,
                "only_once": false,
                "interrupt_move": false
            },
            {
                "nid": "Formation_3",
                "region_type": "formation",
                "position": [
                    1,
                    22
                ],
                "size": [
                    1,
                    1
                ],
                "sub_nid": null,
                "condition": "True",
                "time_left": null,
                "only_once": false,
                "interrupt_move": false
            },
            {
                "nid": "Formation_4",
                "region_type": "formation",
                "position": [
                    0,
                    22
                ],
                "size": [
                    1,
                    1
                ],
                "sub_nid": null,
                "condition": "True",
                "time_left": null,
                "only_once": false,
                "interrupt_move": false
            },
            {
                "nid": "Formation_5",
                "region_type": "formation",
                "position": [
                    16,
                    21
                ],
                "size": [
                    1,
                    1
                ],
                "sub_nid": null,
                "condition": "True",
                "time_left": null,
                "only_once": false,
                "interrupt_move": false
            },
            {
                "nid": "Formation_6",
                "region_type": "formation",
                "position": [
                    15,
                    22
                ],
                "size": [
                    1,
                    1
                ],
                "sub_nid": null,
                "condition": "True",
                "time_left": null,
                "only_once": false,
                "interrupt_move": false
            },
            {
                "nid": "Formation_7",
                "region_type": "formation",
                "position": [
                    16,
                    22
                ],
                "size": [
                    1,
                    1
                ],
                "sub_nid": null,
                "condition": "True",
                "time_left": null,
                "only_once": false,
                "interrupt_move": false
            },
            {
                "nid": "Chest_1",
                "region_type": "event",
                "position": [
                    0,
                    0
                ],
                "size": [
                    1,
                    1
                ],
                "sub_nid": "Chest",
                "condition": "unit.can_unlock(region)",
                "time_left": null,
                "only_once": true,
                "interrupt_move": false
            },
            {
                "nid": "Chest_2",
                "region_type": "event",
                "position": [
                    16,
                    0
                ],
                "size": [
                    1,
                    1
                ],
                "sub_nid": "Chest",
                "condition": "unit.can_unlock(region)",
                "time_left": null,
                "only_once": true,
                "interrupt_move": false
            },
            {
                "nid": "Door_1",
                "region_type": "event",
                "position": [
                    1,
                    1
                ],
                "size": [
                    1,
                    3
                ],
                "sub_nid": "Door",
                "condition": "unit.can_unlock(region)",
                "time_left": null,
                "only_once": true,
                "interrupt_move": false
            },
            {
                "nid": "Door_2",
                "region_type": "event",
                "position": [
                    15,
                    1
                ],
                "size": [
                    1,
                    3
                ],
                "sub_nid": "Door",
                "condition": "unit.can_unlock(region)",
                "time_left": null,
                "only_once": true,
                "interrupt_move": false
            },
            {
                "nid": "Door_3",
                "region_type": "event",
                "position": [
                    0,
                    7
                ],
                "size": [
                    2,
                    3
                ],
                "sub_nid": "Door",
                "condition": "unit.can_unlock(region)",
                "time_left": null,
                "only_once": true,
                "interrupt_move": false
            },
            {
                "nid": "Door_4",
                "region_type": "event",
                "position": [
                    15,
                    7
                ],
                "size": [
                    2,
                    3
                ],
                "sub_nid": "Door",
                "condition": "unit.can_unlock(region)",
                "time_left": null,
                "only_once": true,
                "interrupt_move": false
            },
            {
                "nid": "Door_5",
                "region_type": "event",
                "position": [
                    6,
                    15
                ],
                "size": [
                    2,
                    4
                ],
                "sub_nid": "Door",
                "condition": "unit.can_unlock(region)",
                "time_left": null,
                "only_once": true,
                "interrupt_move": false
            },
            {
                "nid": "Door_6",
                "region_type": "event",
                "position": [
                    9,
                    15
                ],
                "size": [
                    2,
                    4
                ],
                "sub_nid": "Door",
                "condition": "unit.can_unlock(region)",
                "time_left": null,
                "only_once": true,
                "interrupt_move": false
            },
            {
                "nid": "rein_zone_1",
                "region_type": "normal",
                "position": [
                    0,
                    10
                ],
                "size": [
                    8,
                    7
                ],
                "sub_nid": null,
                "condition": "True",
                "time_left": null,
                "only_once": false,
                "interrupt_move": false
            },
            {
                "nid": "rein_zone_2",
                "region_type": "normal",
                "position": [
                    9,
                    10
                ],
                "size": [
                    8,
                    7
                ],
                "sub_nid": null,
                "condition": "True",
                "time_left": null,
                "only_once": false,
                "interrupt_move": false
            },
            {
                "nid": "rein_zone_3",
                "region_type": "normal",
                "position": [
                    0,
                    0
                ],
                "size": [
                    17,
                    9
                ],
                "sub_nid": null,
                "condition": "True",
                "time_left": null,
                "only_once": false,
                "interrupt_move": false
            },
            {
                "nid": "rein_zone_4",
                "region_type": "normal",
                "position": [
                    6,
                    4
                ],
                "size": [
                    5,
                    6
                ],
                "sub_nid": null,
                "condition": "True",
                "time_left": null,
                "only_once": false,
                "interrupt_move": false
            }
        ],
        "unit_groups": [
            {
                "nid": "rein1",
                "units": [
                    "129",
                    "130"
                ],
                "positions": {
                    "129": [
                        7,
                        9
                    ],
                    "130": [
                        9,
                        9
                    ]
                }
            },
            {
                "nid": "rein2",
                "units": [
                    "131",
                    "132"
                ],
                "positions": {
                    "131": [
                        4,
                        0
                    ],
                    "132": [
                        12,
                        0
                    ]
                }
            },
            {
                "nid": "rein3",
                "units": [
                    "127"
                ],
                "positions": {
                    "127": [
                        0,
                        22
                    ]
                }
            },
            {
                "nid": "rein4",
                "units": [
                    "128"
                ],
                "positions": {
                    "128": [
                        16,
                        22
                    ]
                }
            },
            {
                "nid": "hm_1",
                "units": [
                    "133",
                    "134",
                    "135",
                    "136",
                    "Priestess_7"
                ],
                "positions": {
                    "Priestess_7": [
                        8,
                        8
                    ],
                    "136": [
                        7,
                        20
                    ],
                    "135": [
                        9,
                        20
                    ],
                    "133": [
                        15,
                        11
                    ],
                    "134": [
                        1,
                        11
                    ]
                }
            }
        ],
        "ai_groups": [
            {
                "nid": "mid2",
                "trigger_threshold": 1
            },
            {
                "nid": "mid1",
                "trigger_threshold": 1
            },
            {
                "nid": "top1",
                "trigger_threshold": 2
            },
            {
                "nid": "mid3",
                "trigger_threshold": 1
            },
            {
                "nid": "mid4",
                "trigger_threshold": 1
            },
            {
                "nid": "top2",
                "trigger_threshold": 2
            }
        ]
    }
]