[
    {
        "nid": "Lupus",
        "name": "Trial: The Wolf",
        "tilemap": "Canes_Trial",
        "bg_tilemap": null,
        "party": "Player",
        "music": {},
        "objective": {
            "simple": "Arrive together",
            "win": "Arrive together",
            "loss": "All allies defeated, Loreia dies"
        },
        "roam": false,
        "roam_unit": null,
        "go_to_overworld": false,
        "should_record": true,
        "units": [
            {
                "nid": "Lupus_T",
                "team": "enemy",
                "ai": "Guard",
                "roam_ai": null,
                "ai_group": null,
                "starting_position": null,
                "starting_traveler": null,
                "generic": false
            },
            {
                "nid": "Loreia_T",
                "team": "player",
                "ai": "None",
                "roam_ai": null,
                "ai_group": null,
                "starting_position": null,
                "starting_traveler": null,
                "generic": false
            },
            {
                "nid": "Civ_1",
                "variant": null,
                "level": 1,
                "klass": "Citizen",
                "faction": "Civilian",
                "starting_items": [],
                "starting_skills": [],
                "team": "other",
                "ai": "Flee",
                "roam_ai": null,
                "ai_group": "",
                "starting_position": null,
                "starting_traveler": null,
                "generic": true
            },
            {
                "nid": "Civ_2",
                "variant": "Female",
                "level": 1,
                "klass": "Citizen",
                "faction": "Civilian",
                "starting_items": [],
                "starting_skills": [],
                "team": "other",
                "ai": "Flee",
                "roam_ai": null,
                "ai_group": "",
                "starting_position": null,
                "starting_traveler": null,
                "generic": true
            },
            {
                "nid": "Snag_1",
                "variant": null,
                "level": 1,
                "klass": "Wall25",
                "faction": "Wall",
                "starting_items": [],
                "starting_skills": [],
                "team": "enemy",
                "ai": "None",
                "roam_ai": null,
                "ai_group": null,
                "starting_position": [
                    2,
                    12
                ],
                "starting_traveler": null,
                "generic": true
            },
            {
                "nid": "Snag_2",
                "variant": null,
                "level": 1,
                "klass": "Wall25",
                "faction": "Wall",
                "starting_items": [],
                "starting_skills": [],
                "team": "enemy",
                "ai": "None",
                "roam_ai": null,
                "ai_group": null,
                "starting_position": [
                    3,
                    15
                ],
                "starting_traveler": null,
                "generic": true
            },
            {
                "nid": "101",
                "variant": null,
                "level": 7,
                "klass": "Bow_Bonewalker",
                "faction": "Monster",
                "starting_items": [
                    [
                        "Steel_Bow",
                        false
                    ]
                ],
                "starting_skills": [
                    "Commander"
                ],
                "team": "enemy",
                "ai": "Guard",
                "roam_ai": null,
                "ai_group": "",
                "starting_position": [
                    19,
                    14
                ],
                "starting_traveler": null,
                "generic": true
            },
            {
                "nid": "102",
                "variant": null,
                "level": 7,
                "klass": "Bow_Bonewalker",
                "faction": "Monster",
                "starting_items": [
                    [
                        "Steel_Bow",
                        false
                    ]
                ],
                "starting_skills": [
                    "Commander"
                ],
                "team": "enemy",
                "ai": "Guard",
                "roam_ai": null,
                "ai_group": "",
                "starting_position": [
                    19,
                    15
                ],
                "starting_traveler": null,
                "generic": true
            },
            {
                "nid": "103",
                "variant": null,
                "level": 7,
                "klass": "Sword_Bonewalker",
                "faction": "Monster",
                "starting_items": [
                    [
                        "Zanbato",
                        false
                    ]
                ],
                "starting_skills": [],
                "team": "enemy",
                "ai": "Defend",
                "roam_ai": null,
                "ai_group": "",
                "starting_position": [
                    1,
                    15
                ],
                "starting_traveler": null,
                "generic": true
            },
            {
                "nid": "104",
                "variant": null,
                "level": 6,
                "klass": "Mauthe_Doog",
                "faction": "Monster",
                "starting_items": [
                    [
                        "Poison_Fang",
                        false
                    ]
                ],
                "starting_skills": [],
                "team": "enemy",
                "ai": "Pursue",
                "roam_ai": null,
                "ai_group": "",
                "starting_position": [
                    11,
                    0
                ],
                "starting_traveler": null,
                "generic": true
            },
            {
                "nid": "105",
                "variant": null,
                "level": 6,
                "klass": "Mauthe_Doog",
                "faction": "Monster",
                "starting_items": [
                    [
                        "Fiery Fang",
                        false
                    ]
                ],
                "starting_skills": [],
                "team": "enemy",
                "ai": "Pursue",
                "roam_ai": null,
                "ai_group": "",
                "starting_position": [
                    13,
                    1
                ],
                "starting_traveler": null,
                "generic": true
            },
            {
                "nid": "106",
                "variant": null,
                "level": 7,
                "klass": "Sword_Bonewalker",
                "faction": "Monster",
                "starting_items": [
                    [
                        "Poison_Sword",
                        false
                    ]
                ],
                "starting_skills": [],
                "team": "enemy",
                "ai": "Defend",
                "roam_ai": null,
                "ai_group": "",
                "starting_position": [
                    17,
                    2
                ],
                "starting_traveler": null,
                "generic": true
            },
            {
                "nid": "107",
                "variant": null,
                "level": 7,
                "klass": "Revenant",
                "faction": "Monster",
                "starting_items": [
                    [
                        "Fetid Claw",
                        false
                    ]
                ],
                "starting_skills": [],
                "team": "enemy",
                "ai": "Guard",
                "roam_ai": null,
                "ai_group": "",
                "starting_position": [
                    16,
                    5
                ],
                "starting_traveler": null,
                "generic": true
            },
            {
                "nid": "108",
                "variant": null,
                "level": 7,
                "klass": "Revenant",
                "faction": "Monster",
                "starting_items": [
                    [
                        "Fetid Claw",
                        false
                    ]
                ],
                "starting_skills": [],
                "team": "enemy",
                "ai": "Guard",
                "roam_ai": null,
                "ai_group": "",
                "starting_position": [
                    17,
                    5
                ],
                "starting_traveler": null,
                "generic": true
            },
            {
                "nid": "109",
                "variant": null,
                "level": 7,
                "klass": "Bow_Bonewalker",
                "faction": "Monster",
                "starting_items": [
                    [
                        "Steel_Bow",
                        false
                    ]
                ],
                "starting_skills": [],
                "team": "enemy",
                "ai": "Defend",
                "roam_ai": null,
                "ai_group": "",
                "starting_position": [
                    14,
                    7
                ],
                "starting_traveler": null,
                "generic": true
            },
            {
                "nid": "110",
                "variant": null,
                "level": 6,
                "klass": "Mauthe_Doog",
                "faction": "Monster",
                "starting_items": [
                    [
                        "Poison_Fang",
                        false
                    ]
                ],
                "starting_skills": [],
                "team": "enemy",
                "ai": "Defend",
                "roam_ai": null,
                "ai_group": "1",
                "starting_position": [
                    9,
                    7
                ],
                "starting_traveler": null,
                "generic": true
            },
            {
                "nid": "111",
                "variant": null,
                "level": 6,
                "klass": "Mauthe_Doog",
                "faction": "Monster",
                "starting_items": [
                    [
                        "Firesweep_Fang",
                        false
                    ]
                ],
                "starting_skills": [],
                "team": "enemy",
                "ai": "Defend",
                "roam_ai": null,
                "ai_group": "1",
                "starting_position": [
                    12,
                    10
                ],
                "starting_traveler": null,
                "generic": true
            },
            {
                "nid": "112",
                "variant": null,
                "level": 8,
                "klass": "Mogall",
                "faction": "Monster",
                "starting_items": [
                    [
                        "Miasma",
                        false
                    ]
                ],
                "starting_skills": [],
                "team": "enemy",
                "ai": "Defend",
                "roam_ai": null,
                "ai_group": "1",
                "starting_position": null,
                "starting_traveler": null,
                "generic": true
            },
            {
                "nid": "113",
                "variant": null,
                "level": 7,
                "klass": "Sword_Bonewalker",
                "faction": "Monster",
                "starting_items": [
                    [
                        "Armorslayer",
                        false
                    ]
                ],
                "starting_skills": [],
                "team": "enemy",
                "ai": "Defend",
                "roam_ai": null,
                "ai_group": "2",
                "starting_position": [
                    6,
                    9
                ],
                "starting_traveler": null,
                "generic": true
            },
            {
                "nid": "114",
                "variant": null,
                "level": 7,
                "klass": "Bow_Bonewalker",
                "faction": "Monster",
                "starting_items": [
                    [
                        "Poison_Bow",
                        false
                    ]
                ],
                "starting_skills": [],
                "team": "enemy",
                "ai": "Defend",
                "roam_ai": null,
                "ai_group": "2",
                "starting_position": [
                    5,
                    9
                ],
                "starting_traveler": null,
                "generic": true
            },
            {
                "nid": "115",
                "variant": null,
                "level": 6,
                "klass": "Entombed",
                "faction": "Monster",
                "starting_items": [
                    [
                        "Fetid Claw",
                        false
                    ],
                    [
                        "War_Banner",
                        false
                    ]
                ],
                "starting_skills": [],
                "team": "enemy",
                "ai": "Defend",
                "roam_ai": null,
                "ai_group": "",
                "starting_position": [
                    2,
                    10
                ],
                "starting_traveler": null,
                "generic": true
            },
            {
                "nid": "116",
                "variant": null,
                "level": 8,
                "klass": "Gargoyle",
                "faction": "Monster",
                "starting_items": [
                    [
                        "Short_Spear",
                        false
                    ]
                ],
                "starting_skills": [],
                "team": "enemy",
                "ai": "Defend",
                "roam_ai": null,
                "ai_group": "",
                "starting_position": null,
                "starting_traveler": null,
                "generic": true
            },
            {
                "nid": "117",
                "variant": null,
                "level": 8,
                "klass": "Gargoyle",
                "faction": "Monster",
                "starting_items": [
                    [
                        "Short_Spear",
                        false
                    ]
                ],
                "starting_skills": [],
                "team": "enemy",
                "ai": "Defend",
                "roam_ai": null,
                "ai_group": "",
                "starting_position": null,
                "starting_traveler": null,
                "generic": true
            },
            {
                "nid": "118",
                "variant": null,
                "level": 6,
                "klass": "Mauthe_Doog",
                "faction": "Monster",
                "starting_items": [
                    [
                        "Firesweep_Fang",
                        false
                    ]
                ],
                "starting_skills": [],
                "team": "enemy",
                "ai": "Defend",
                "roam_ai": null,
                "ai_group": "3",
                "starting_position": [
                    11,
                    16
                ],
                "starting_traveler": null,
                "generic": true
            },
            {
                "nid": "119",
                "variant": null,
                "level": 6,
                "klass": "Mauthe_Doog",
                "faction": "Monster",
                "starting_items": [
                    [
                        "Poison_Fang",
                        false
                    ]
                ],
                "starting_skills": [],
                "team": "enemy",
                "ai": "Defend",
                "roam_ai": null,
                "ai_group": "3",
                "starting_position": [
                    12,
                    15
                ],
                "starting_traveler": null,
                "generic": true
            },
            {
                "nid": "120",
                "variant": null,
                "level": 7,
                "klass": "Sword_Bonewalker",
                "faction": "Monster",
                "starting_items": [
                    [
                        "Wyrmslayer",
                        false
                    ]
                ],
                "starting_skills": [],
                "team": "enemy",
                "ai": "Defend",
                "roam_ai": null,
                "ai_group": "",
                "starting_position": [
                    16,
                    15
                ],
                "starting_traveler": null,
                "generic": true
            },
            {
                "nid": "pursuer_1",
                "variant": null,
                "level": 8,
                "klass": "Gargoyle",
                "faction": "Monster",
                "starting_items": [
                    [
                        "Frostfaire_Lance",
                        false
                    ]
                ],
                "starting_skills": [],
                "team": "enemy",
                "ai": "Pursue",
                "roam_ai": null,
                "ai_group": "",
                "starting_position": null,
                "starting_traveler": null,
                "generic": true
            },
            {
                "nid": "pursuer_2",
                "variant": null,
                "level": 8,
                "klass": "Gargoyle",
                "faction": "Monster",
                "starting_items": [
                    [
                        "Toxin_Lance",
                        false
                    ]
                ],
                "starting_skills": [],
                "team": "enemy",
                "ai": "Pursue",
                "roam_ai": null,
                "ai_group": "",
                "starting_position": null,
                "starting_traveler": null,
                "generic": true
            },
            {
                "nid": "121",
                "variant": null,
                "level": 8,
                "klass": "Mauthe_Doog",
                "faction": "Monster",
                "starting_items": [
                    [
                        "Firesweep_Fang",
                        false
                    ]
                ],
                "starting_skills": [],
                "team": "enemy",
                "ai": "Pursue",
                "roam_ai": null,
                "ai_group": "",
                "starting_position": null,
                "starting_traveler": null,
                "generic": true
            },
            {
                "nid": "122",
                "variant": null,
                "level": 8,
                "klass": "Mauthe_Doog",
                "faction": "Monster",
                "starting_items": [
                    [
                        "Firesweep_Fang",
                        false
                    ]
                ],
                "starting_skills": [],
                "team": "enemy",
                "ai": "Pursue",
                "roam_ai": null,
                "ai_group": "",
                "starting_position": null,
                "starting_traveler": null,
                "generic": true
            }
        ],
        "regions": [
            {
                "nid": "Formation_1",
                "region_type": "formation",
                "position": [
                    10,
                    1
                ],
                "size": [
                    1,
                    1
                ],
                "sub_nid": "",
                "condition": "True",
                "time_left": null,
                "only_once": false,
                "interrupt_move": false
            },
            {
                "nid": "Formation_2",
                "region_type": "formation",
                "position": [
                    9,
                    2
                ],
                "size": [
                    1,
                    1
                ],
                "sub_nid": null,
                "condition": "True",
                "time_left": null,
                "only_once": false,
                "interrupt_move": false
            },
            {
                "nid": "Formation_3",
                "region_type": "formation",
                "position": [
                    8,
                    1
                ],
                "size": [
                    1,
                    1
                ],
                "sub_nid": null,
                "condition": "True",
                "time_left": null,
                "only_once": false,
                "interrupt_move": false
            },
            {
                "nid": "Formation_4",
                "region_type": "formation",
                "position": [
                    10,
                    2
                ],
                "size": [
                    1,
                    1
                ],
                "sub_nid": null,
                "condition": "True",
                "time_left": null,
                "only_once": false,
                "interrupt_move": false
            },
            {
                "nid": "Formation_5",
                "region_type": "formation",
                "position": [
                    9,
                    1
                ],
                "size": [
                    1,
                    1
                ],
                "sub_nid": null,
                "condition": "True",
                "time_left": null,
                "only_once": false,
                "interrupt_move": false
            },
            {
                "nid": "Formation_6",
                "region_type": "formation",
                "position": [
                    9,
                    0
                ],
                "size": [
                    1,
                    1
                ],
                "sub_nid": null,
                "condition": "True",
                "time_left": null,
                "only_once": false,
                "interrupt_move": false
            },
            {
                "nid": "Escape",
                "region_type": "event",
                "position": [
                    19,
                    14
                ],
                "size": [
                    1,
                    2
                ],
                "sub_nid": "Escape",
                "condition": "(unit.team in ['player','other'] and not 'Temporary' in unit.tags) or unit.nid == 'Loreia_T'",
                "time_left": null,
                "only_once": false,
                "interrupt_move": false
            },
            {
                "nid": "rein_zone",
                "region_type": "normal",
                "position": [
                    0,
                    7
                ],
                "size": [
                    12,
                    10
                ],
                "sub_nid": null,
                "condition": "True",
                "time_left": null,
                "only_once": false,
                "interrupt_move": false
            }
        ],
        "unit_groups": [
            {
                "nid": "hm_1",
                "units": [
                    "112",
                    "116",
                    "117"
                ],
                "positions": {
                    "112": [
                        5,
                        6
                    ],
                    "116": [
                        7,
                        13
                    ],
                    "117": [
                        14,
                        13
                    ]
                }
            },
            {
                "nid": "hm_rein",
                "units": [
                    "121",
                    "122"
                ],
                "positions": {
                    "121": [
                        16,
                        0
                    ],
                    "122": [
                        17,
                        0
                    ]
                }
            }
        ],
        "ai_groups": [
            {
                "nid": "3",
                "trigger_threshold": 1
            },
            {
                "nid": "1",
                "trigger_threshold": 1
            },
            {
                "nid": "2",
                "trigger_threshold": 1
            }
        ]
    }
]