[
    {
        "nid": "Alexander",
        "name": "Alexander",
        "desc": "Submitted by Malfaria.",
        "variant": "",
        "level": 1,
        "klass": "Monk",
        "tags": [],
        "bases": {
            "HP": 20,
            "STR": 8,
            "MAG": 4,
            "SKL": 9,
            "SPD": 8,
            "LCK": 6,
            "DEF": 4,
            "RES": 4,
            "CON": 6,
            "MOV": 4
        },
        "growths": {
            "HP": 60,
            "STR": 40,
            "MAG": 35,
            "SKL": 40,
            "SPD": 40,
            "LCK": 35,
            "DEF": 35,
            "RES": 35,
            "CON": 0,
            "MOV": 0
        },
        "stat_cap_modifiers": {},
        "starting_items": [
            [
                "Iron_Lance",
                false
            ],
            [
                "Varna",
                false
            ]
        ],
        "learned_skills": [
            [
                1,
                "BrothersInArms_Alexander"
            ],
            [
                1,
                "HiddenLanceAccess"
            ],
            [
                1,
                "WhiteVisage"
            ]
        ],
        "unit_notes": [],
        "wexp_gain": {
            "Sword": [
                false,
                0,
                251
            ],
            "Lance": [
                false,
                1,
                251
            ],
            "Axe": [
                false,
                0,
                251
            ],
            "Bow": [
                false,
                1,
                251
            ],
            "Knife": [
                false,
                0,
                251
            ],
            "Anima": [
                false,
                0,
                251
            ],
            "Light": [
                false,
                1,
                251
            ],
            "Dark": [
                false,
                0,
                251
            ],
            "Staff": [
                false,
                0,
                251
            ],
            "Dragonstone": [
                false,
                0,
                251
            ],
            "Default": [
                false,
                0,
                251
            ],
            "Stone": [
                false,
                0,
                251
            ]
        },
        "alternate_classes": [],
        "portrait_nid": "Alexander (Ganondorf)",
        "affinity": "Light",
        "fields": []
    }
]