[
    {
        "nid": "Azazels_Eye",
        "name": "Azazel's Eye",
        "desc": "Submitted by LichMaestro.",
        "variant": "",
        "level": 1,
        "klass": "Mogall",
        "tags": [],
        "bases": {
            "HP": 16,
            "STR": 0,
            "MAG": 6,
            "SKL": 7,
            "SPD": 10,
            "LCK": 9,
            "DEF": 2,
            "RES": 3,
            "CON": 6,
            "MOV": 5
        },
        "growths": {
            "HP": 50,
            "STR": 0,
            "MAG": 35,
            "SKL": 45,
            "SPD": 45,
            "LCK": 45,
            "DEF": 10,
            "RES": 15,
            "CON": 0,
            "MOV": 0
        },
        "stat_cap_modifiers": {},
        "starting_items": [
            [
                "Accumulate",
                false
            ]
        ],
        "learned_skills": [
            [
                1,
                "Shadow_Call"
            ],
            [
                1,
                "Wicked_Darkness"
            ],
            [
                1,
                "Wicked_Darkness_E"
            ]
        ],
        "unit_notes": [],
        "wexp_gain": {
            "Sword": [
                false,
                0,
                51
            ],
            "Lance": [
                false,
                0,
                51
            ],
            "Axe": [
                false,
                0,
                51
            ],
            "Bow": [
                false,
                0,
                51
            ],
            "Knife": [
                false,
                0,
                51
            ],
            "Anima": [
                false,
                0,
                51
            ],
            "Light": [
                false,
                0,
                51
            ],
            "Dark": [
                false,
                7,
                51
            ],
            "Staff": [
                false,
                0,
                51
            ],
            "Stone": [
                false,
                0,
                51
            ],
            "Default": [
                false,
                0,
                51
            ]
        },
        "alternate_classes": [],
        "portrait_nid": "Mogall {Dutch Introvert}",
        "affinity": "Dark",
        "fields": []
    }
]