[
    {
        "nid": "Big_Oak",
        "name": "Big Oak",
        "desc": "Submitted by Godspetturtle.",
        "variant": "",
        "level": 1,
        "klass": "Treant",
        "tags": [],
        "bases": {
            "HP": 25,
            "STR": 6,
            "MAG": 8,
            "SKL": 8,
            "SPD": 1,
            "LCK": 7,
            "DEF": 10,
            "RES": 5,
            "CON": 7,
            "MOV": 4
        },
        "growths": {
            "HP": 65,
            "STR": 45,
            "MAG": 45,
            "SKL": 35,
            "SPD": 5,
            "LCK": 40,
            "DEF": 50,
            "RES": 35,
            "CON": 0,
            "MOV": 0
        },
        "stat_cap_modifiers": {},
        "starting_items": [
            [
                "Heal",
                false
            ],
            [
                "Assault",
                false
            ]
        ],
        "learned_skills": [
            [
                1,
                "Conservationist"
            ],
            [
                1,
                "Ancient_Advance"
            ],
            [
                1,
                "Forests_Shelter"
            ]
        ],
        "unit_notes": [],
        "wexp_gain": {
            "Sword": [
                false,
                0,
                251
            ],
            "Lance": [
                false,
                0,
                251
            ],
            "Axe": [
                false,
                0,
                251
            ],
            "Bow": [
                false,
                0,
                251
            ],
            "Knife": [
                false,
                0,
                251
            ],
            "Anima": [
                false,
                0,
                251
            ],
            "Light": [
                false,
                0,
                251
            ],
            "Dark": [
                false,
                0,
                251
            ],
            "Staff": [
                false,
                1,
                251
            ],
            "Dragonstone": [
                false,
                0,
                251
            ],
            "Default": [
                false,
                0,
                251
            ],
            "Stone": [
                false,
                1,
                251
            ]
        },
        "alternate_classes": [],
        "portrait_nid": "RandomWizard F2E 1",
        "affinity": "Earth",
        "fields": []
    }
]