[
    {
        "nid": "Bronos",
        "name": "Bronos",
        "desc": "Submitted by SigmaRaven.",
        "variant": "",
        "level": 1,
        "klass": "Civilian_Bronos",
        "tags": [],
        "bases": {
            "HP": 20,
            "STR": 4,
            "MAG": 4,
            "SKL": 4,
            "SPD": 4,
            "LCK": 4,
            "DEF": 3,
            "RES": 3,
            "CON": 10,
            "MOV": 4
        },
        "growths": {
            "HP": 60,
            "STR": 35,
            "MAG": 35,
            "SKL": 35,
            "SPD": 35,
            "LCK": 40,
            "DEF": 15,
            "RES": 15,
            "CON": 0,
            "MOV": 0
        },
        "stat_cap_modifiers": {},
        "starting_items": [],
        "learned_skills": [
            [
                1,
                "Spur_Summon"
            ],
            [
                1,
                "Copycat"
            ],
            [
                1,
                "Copycat_Sword"
            ],
            [
                1,
                "Copycat_Lance"
            ],
            [
                1,
                "Copycat_Axe"
            ],
            [
                1,
                "Copycat_Bow"
            ],
            [
                1,
                "Copycat_Knife"
            ],
            [
                1,
                "Copycat_Anima"
            ],
            [
                1,
                "Copycat_Light"
            ],
            [
                1,
                "Copycat_Dark"
            ],
            [
                1,
                "Copycat_Stone"
            ],
            [
                1,
                "Copycat_Staff"
            ],
            [
                1,
                "One"
            ],
            [
                1,
                "Bye"
            ]
        ],
        "unit_notes": [],
        "wexp_gain": {
            "Sword": [
                false,
                1,
                251
            ],
            "Lance": [
                false,
                1,
                251
            ],
            "Axe": [
                false,
                1,
                251
            ],
            "Bow": [
                false,
                1,
                251
            ],
            "Knife": [
                false,
                1,
                251
            ],
            "Anima": [
                false,
                1,
                251
            ],
            "Light": [
                false,
                1,
                251
            ],
            "Dark": [
                false,
                1,
                251
            ],
            "Staff": [
                false,
                1,
                251
            ],
            "Stone": [
                false,
                1,
                251
            ],
            "Default": [
                false,
                0,
                251
            ]
        },
        "alternate_classes": [],
        "portrait_nid": "Bronos",
        "affinity": "Anima",
        "fields": []
    }
]