[
    {
        "nid": "Buddy",
        "name": "Buddy",
        "desc": "Submitted by Xilirite.",
        "variant": "",
        "level": 1,
        "klass": "Outlaw",
        "tags": [],
        "bases": {
            "HP": 22,
            "STR": 8,
            "MAG": 2,
            "SKL": 2,
            "SPD": 3,
            "LCK": 4,
            "DEF": 2,
            "RES": 0,
            "CON": 9,
            "MOV": 4
        },
        "growths": {
            "HP": 75,
            "STR": 50,
            "MAG": 15,
            "SKL": 30,
            "SPD": 25,
            "LCK": 25,
            "DEF": 15,
            "RES": 15,
            "CON": 0,
            "MOV": 0
        },
        "stat_cap_modifiers": {
            "HP": 0,
            "STR": 0,
            "MAG": 0,
            "SKL": 0,
            "SPD": 0,
            "LCK": 0,
            "DEF": 0,
            "RES": 0,
            "CON": 0,
            "MOV": 0
        },
        "starting_items": [
            [
                "BackupBow",
                false
            ],
            [
                "Iron_Bow",
                false
            ]
        ],
        "learned_skills": [
            [
                1,
                "PowerOfBuddyship"
            ],
            [
                1,
                "Master_Swap"
            ]
        ],
        "unit_notes": [],
        "wexp_gain": {
            "Sword": [
                false,
                0,
                51
            ],
            "Lance": [
                false,
                0,
                51
            ],
            "Axe": [
                false,
                1,
                51
            ],
            "Bow": [
                false,
                7,
                51
            ],
            "Knife": [
                false,
                0,
                51
            ],
            "Anima": [
                false,
                0,
                51
            ],
            "Light": [
                false,
                0,
                51
            ],
            "Dark": [
                false,
                0,
                51
            ],
            "Staff": [
                false,
                0,
                51
            ],
            "Stone": [
                false,
                0,
                51
            ],
            "Default": [
                false,
                0,
                51
            ]
        },
        "alternate_classes": [],
        "portrait_nid": "Buddy (ZessDynamite)",
        "affinity": "Fire",
        "fields": []
    }
]