[
    {
        "nid": "Bug",
        "name": "Bug",
        "desc": "Submitted by Xilirite.",
        "variant": "",
        "level": 1,
        "klass": "Thief",
        "tags": [],
        "bases": {
            "HP": 17,
            "STR": 5,
            "MAG": 5,
            "SKL": 8,
            "SPD": 9,
            "LCK": 9,
            "DEF": 2,
            "RES": 4,
            "CON": 6,
            "MOV": 4
        },
        "growths": {
            "HP": 50,
            "STR": 35,
            "MAG": 35,
            "SKL": 40,
            "SPD": 55,
            "LCK": 50,
            "DEF": 10,
            "RES": 20,
            "CON": 0,
            "MOV": 0
        },
        "stat_cap_modifiers": {
            "STR": 0,
            "SPD": 0,
            "MOV": 0,
            "CON": 0,
            "DEF": 0,
            "HP": 0,
            "MAG": 0,
            "LCK": 0,
            "RES": 0,
            "SKL": 0
        },
        "starting_items": [
            [
                "Vorpal_Dirk",
                false
            ]
        ],
        "learned_skills": [
            [
                1,
                "Lethality"
            ],
            [
                1,
                "Serial"
            ],
            [
                1,
                "Fade_Step"
            ]
        ],
        "unit_notes": [],
        "wexp_gain": {
            "Sword": [
                false,
                0,
                251
            ],
            "Lance": [
                false,
                0,
                251
            ],
            "Axe": [
                false,
                0,
                251
            ],
            "Bow": [
                false,
                0,
                251
            ],
            "Knife": [
                false,
                1,
                251
            ],
            "Anima": [
                false,
                0,
                251
            ],
            "Light": [
                false,
                0,
                251
            ],
            "Dark": [
                false,
                0,
                251
            ],
            "Staff": [
                false,
                0,
                251
            ],
            "Stone": [
                false,
                0,
                251
            ],
            "Default": [
                false,
                0,
                251
            ]
        },
        "alternate_classes": [],
        "portrait_nid": "bug_-_Copy",
        "affinity": "Ice",
        "fields": []
    }
]