[
    {
        "nid": "Caeille",
        "name": "Caeille",
        "desc": "Submitted by Xilirite.",
        "variant": "Female",
        "level": 1,
        "klass": "Thief",
        "tags": [
            "Female"
        ],
        "bases": {
            "HP": 16,
            "STR": 6,
            "MAG": 1,
            "SKL": 9,
            "SPD": 10,
            "LCK": 5,
            "DEF": 0,
            "RES": 0,
            "CON": 3,
            "MOV": 4
        },
        "growths": {
            "HP": 70,
            "STR": 45,
            "MAG": 10,
            "SKL": 30,
            "SPD": 55,
            "LCK": 30,
            "DEF": 10,
            "RES": 10,
            "CON": 0,
            "MOV": 0
        },
        "stat_cap_modifiers": {},
        "starting_items": [
            [
                "Iron_Knife",
                false
            ],
            [
                "Karlei_Point",
                false
            ]
        ],
        "learned_skills": [
            [
                1,
                "Base_MOV_Plus"
            ],
            [
                1,
                "Locktouch"
            ],
            [
                1,
                "Summon_Bird"
            ],
            [
                1,
                "Pathlight"
            ],
            [
                1,
                "Spirited_Exsanguination"
            ]
        ],
        "unit_notes": [],
        "wexp_gain": {
            "Sword": [
                false,
                1,
                251
            ],
            "Lance": [
                false,
                0,
                251
            ],
            "Axe": [
                false,
                0,
                251
            ],
            "Bow": [
                false,
                0,
                251
            ],
            "Knife": [
                false,
                1,
                251
            ],
            "Anima": [
                false,
                0,
                251
            ],
            "Light": [
                false,
                0,
                251
            ],
            "Dark": [
                false,
                0,
                251
            ],
            "Staff": [
                false,
                0,
                251
            ],
            "Dragonstone": [
                false,
                0,
                251
            ],
            "Default": [
                false,
                0,
                251
            ],
            "Stone": [
                false,
                0,
                251
            ]
        },
        "alternate_classes": [],
        "portrait_nid": "Caeille",
        "affinity": "Ice",
        "fields": []
    }
]