[
    {
        "nid": "Dallas",
        "name": "Dallas",
        "desc": "Submitted by DonutPlains.",
        "variant": "",
        "level": 1,
        "klass": "Mercenary",
        "tags": [],
        "bases": {
            "HP": 20,
            "STR": 9,
            "MAG": 8,
            "SKL": 7,
            "SPD": 7,
            "LCK": 6,
            "DEF": 5,
            "RES": 5,
            "CON": 11,
            "MOV": 4
        },
        "growths": {
            "HP": 55,
            "STR": 50,
            "MAG": 45,
            "SKL": 40,
            "SPD": 35,
            "LCK": 35,
            "DEF": 25,
            "RES": 25,
            "CON": 0,
            "MOV": 0
        },
        "stat_cap_modifiers": {},
        "starting_items": [
            [
                "Iron_Sword",
                false
            ],
            [
                "Iron_Lance",
                false
            ],
            [
                "Iron_Axe",
                false
            ]
        ],
        "learned_skills": [
            [
                1,
                "TriangleDevout"
            ],
            [
                1,
                "TriangleDevout_Helper"
            ],
            [
                1,
                "TriangleReversal"
            ],
            [
                1,
                "HiddenLanceAccess"
            ],
            [
                1,
                "HiddenAxe"
            ]
        ],
        "unit_notes": [],
        "wexp_gain": {
            "Sword": [
                false,
                1,
                51
            ],
            "Lance": [
                false,
                1,
                51
            ],
            "Axe": [
                false,
                1,
                51
            ],
            "Bow": [
                false,
                0,
                51
            ],
            "Knife": [
                false,
                0,
                51
            ],
            "Anima": [
                false,
                1,
                51
            ],
            "Light": [
                false,
                1,
                51
            ],
            "Dark": [
                false,
                1,
                51
            ],
            "Staff": [
                false,
                0,
                51
            ],
            "Stone": [
                false,
                0,
                51
            ],
            "Default": [
                false,
                0,
                51
            ]
        },
        "alternate_classes": [],
        "portrait_nid": "Dallas JiroPaiPai",
        "affinity": "Water",
        "fields": []
    }
]