[
    {
        "nid": "Drake",
        "name": "Drake",
        "desc": "A disgraced Imperial knight now in Althea's service.",
        "variant": "",
        "level": 1,
        "klass": "Paladin",
        "tags": [],
        "bases": {
            "HP": 17,
            "STR": 6,
            "MAG": 1,
            "SKL": 6,
            "SPD": 5,
            "LCK": 7,
            "DEF": 5,
            "RES": 3,
            "CON": 7,
            "MOV": 6
        },
        "growths": {
            "HP": 95,
            "STR": 65,
            "MAG": 5,
            "SKL": 60,
            "SPD": 40,
            "LCK": 40,
            "DEF": 55,
            "RES": 40,
            "CON": 0,
            "MOV": 0
        },
        "stat_cap_modifiers": {},
        "starting_items": [
            [
                "Iron_Sword",
                false
            ],
            [
                "Iron_Lance",
                false
            ]
        ],
        "learned_skills": [
            [
                1,
                "Ophie_Emblem"
            ]
        ],
        "unit_notes": [],
        "wexp_gain": {
            "Sword": [
                true,
                7,
                251
            ],
            "Lance": [
                true,
                15,
                251
            ],
            "Axe": [
                false,
                0,
                251
            ],
            "Bow": [
                false,
                0,
                251
            ],
            "Light": [
                false,
                0,
                251
            ],
            "Anima": [
                false,
                0,
                251
            ],
            "Dark": [
                false,
                0,
                251
            ],
            "Default": [
                false,
                0,
                251
            ]
        },
        "alternate_classes": [],
        "portrait_nid": "Drake",
        "affinity": "Fire",
        "fields": []
    }
]