[
    {
        "nid": "Ecila",
        "name": "Ecila",
        "desc": "Submitted by BBHood217.\nA young necromancer seeking the secret of immortality.",
        "variant": "Female",
        "level": 1,
        "klass": "Shaman",
        "tags": [
            "Female"
        ],
        "bases": {
            "HP": 16,
            "STR": 1,
            "MAG": 8,
            "SKL": 8,
            "SPD": 6,
            "LCK": 5,
            "DEF": 4,
            "RES": 8,
            "CON": 6,
            "MOV": 4
        },
        "growths": {
            "HP": 70,
            "STR": 5,
            "MAG": 45,
            "SKL": 40,
            "SPD": 35,
            "LCK": 25,
            "DEF": 25,
            "RES": 45,
            "CON": 0,
            "MOV": 0
        },
        "stat_cap_modifiers": {
            "SKL": 0,
            "MAG": 0,
            "RES": 0
        },
        "starting_items": [
            [
                "Flux",
                false
            ],
            [
                "Vulnerary",
                false
            ]
        ],
        "learned_skills": [
            [
                1,
                "Skeleton_Buddy"
            ]
        ],
        "unit_notes": [],
        "wexp_gain": {
            "Sword": [
                false,
                0,
                251
            ],
            "Lance": [
                false,
                0,
                251
            ],
            "Axe": [
                false,
                0,
                251
            ],
            "Bow": [
                false,
                0,
                251
            ],
            "Knife": [
                false,
                0,
                251
            ],
            "Anima": [
                false,
                0,
                251
            ],
            "Light": [
                false,
                0,
                251
            ],
            "Dark": [
                false,
                7,
                251
            ],
            "Staff": [
                false,
                1,
                251
            ],
            "Dragonstone": [
                false,
                0,
                251
            ],
            "Default": [
                false,
                0,
                251
            ],
            "Stone": [
                false,
                0,
                251
            ]
        },
        "alternate_classes": [],
        "portrait_nid": "Ecila",
        "affinity": "Dark",
        "fields": []
    }
]