[
    {
        "nid": "Esteban",
        "name": "Esteban",
        "desc": "Submitted by Edea.",
        "variant": "",
        "level": 1,
        "klass": "Mercenary",
        "tags": [],
        "bases": {
            "HP": 21,
            "STR": 9,
            "MAG": 2,
            "SKL": 7,
            "SPD": 8,
            "LCK": 5,
            "DEF": 6,
            "RES": 3,
            "CON": 10,
            "MOV": 4
        },
        "growths": {
            "HP": 70,
            "STR": 50,
            "MAG": 15,
            "SKL": 45,
            "SPD": 50,
            "LCK": 30,
            "DEF": 25,
            "RES": 20,
            "CON": 0,
            "MOV": 0
        },
        "stat_cap_modifiers": {},
        "starting_items": [
            [
                "Iron_Sword",
                false
            ],
            [
                "Ramona",
                false
            ],
            [
                "Fragrance",
                false
            ]
        ],
        "learned_skills": [
            [
                1,
                "Philanderer"
            ],
            [
                1,
                "White_Knight"
            ],
            [
                1,
                "Show_Off"
            ],
            [
                1,
                "Ladies_Man"
            ]
        ],
        "unit_notes": [],
        "wexp_gain": {
            "Sword": [
                false,
                1,
                51
            ],
            "Lance": [
                false,
                0,
                51
            ],
            "Axe": [
                false,
                1,
                51
            ],
            "Bow": [
                false,
                0,
                51
            ],
            "Knife": [
                false,
                0,
                51
            ],
            "Anima": [
                false,
                0,
                51
            ],
            "Light": [
                false,
                0,
                51
            ],
            "Dark": [
                false,
                0,
                51
            ],
            "Staff": [
                false,
                0,
                51
            ],
            "Stone": [
                false,
                0,
                51
            ],
            "Default": [
                false,
                0,
                51
            ]
        },
        "alternate_classes": [],
        "portrait_nid": "Esteban",
        "affinity": "Fire",
        "fields": []
    }
]