[
    {
        "nid": "Faenia",
        "name": "Faenia",
        "desc": "An army leader of the rebellion.\nShe's quiet, but very determined.",
        "variant": "Female",
        "level": 15,
        "klass": "Templar",
        "tags": [
            "Boss",
            "Female"
        ],
        "bases": {
            "HP": 40,
            "STR": 11,
            "MAG": 12,
            "SKL": 12,
            "SPD": 14,
            "LCK": 10,
            "DEF": 7,
            "RES": 10,
            "CON": 10,
            "MOV": 6
        },
        "growths": {
            "HP": 65,
            "STR": 35,
            "MAG": 35,
            "SKL": 35,
            "SPD": 40,
            "LCK": 25,
            "DEF": 15,
            "RES": 20,
            "CON": 0,
            "MOV": 0
        },
        "stat_cap_modifiers": {},
        "starting_items": [
            [
                "Varna",
                false
            ],
            [
                "Frost_Fangs",
                false
            ],
            [
                "Baselard",
                false
            ]
        ],
        "learned_skills": [
            [
                1,
                "Legend"
            ]
        ],
        "unit_notes": [],
        "wexp_gain": {
            "Sword": [
                false,
                0,
                251
            ],
            "Lance": [
                false,
                0,
                251
            ],
            "Axe": [
                false,
                0,
                251
            ],
            "Bow": [
                false,
                0,
                251
            ],
            "Knife": [
                false,
                25,
                251
            ],
            "Anima": [
                false,
                0,
                251
            ],
            "Light": [
                false,
                25,
                251
            ],
            "Dark": [
                false,
                0,
                251
            ],
            "Staff": [
                false,
                0,
                251
            ],
            "Stone": [
                false,
                0,
                251
            ],
            "Default": [
                false,
                0,
                251
            ]
        },
        "alternate_classes": [],
        "portrait_nid": "Faenia",
        "affinity": "Anima",
        "fields": []
    }
]