[
    {
        "nid": "ForgottenOne",
        "name": "Forgotten",
        "desc": "Submitted by JACK.",
        "variant": "",
        "level": 1,
        "klass": "Cavalier",
        "tags": [],
        "bases": {
            "HP": 16,
            "STR": 7,
            "MAG": 0,
            "SKL": 4,
            "SPD": 4,
            "LCK": 8,
            "DEF": 10,
            "RES": 6,
            "CON": 15,
            "MOV": 5
        },
        "growths": {
            "HP": 70,
            "STR": 45,
            "MAG": 0,
            "SKL": 15,
            "SPD": 15,
            "LCK": 40,
            "DEF": 60,
            "RES": 35,
            "CON": 0,
            "MOV": 0
        },
        "stat_cap_modifiers": {},
        "starting_items": [
            [
                "Iron_Lance",
                false
            ],
            [
                "Heavy_Spear",
                false
            ]
        ],
        "learned_skills": [
            [
                1,
                "Unflinching"
            ],
            [
                1,
                "Chisel"
            ],
            [
                1,
                "Brittle"
            ]
        ],
        "unit_notes": [],
        "wexp_gain": {
            "Sword": [
                false,
                0,
                51
            ],
            "Lance": [
                false,
                7,
                51
            ],
            "Axe": [
                false,
                1,
                51
            ],
            "Bow": [
                false,
                0,
                51
            ],
            "Knife": [
                false,
                0,
                51
            ],
            "Anima": [
                false,
                0,
                51
            ],
            "Light": [
                false,
                0,
                51
            ],
            "Dark": [
                false,
                0,
                51
            ],
            "Staff": [
                false,
                0,
                51
            ],
            "Stone": [
                false,
                0,
                51
            ],
            "Default": [
                false,
                0,
                51
            ]
        },
        "alternate_classes": [],
        "portrait_nid": "Forgotten_One",
        "affinity": "Earth",
        "fields": []
    }
]