[
    {
        "nid": "Freya",
        "name": "Freya",
        "desc": "Submitted by ~Alex~.",
        "variant": "Female",
        "level": 1,
        "klass": "Monk",
        "tags": [
            "Female"
        ],
        "bases": {
            "HP": 17,
            "STR": 0,
            "MAG": 7,
            "SKL": 6,
            "SPD": 8,
            "LCK": 5,
            "DEF": 1,
            "RES": 3,
            "CON": 7,
            "MOV": 4
        },
        "growths": {
            "HP": 50,
            "STR": 5,
            "MAG": 40,
            "SKL": 60,
            "SPD": 50,
            "LCK": 0,
            "DEF": 5,
            "RES": 35,
            "CON": 0,
            "MOV": 0
        },
        "stat_cap_modifiers": {},
        "starting_items": [
            [
                "Renpet",
                false
            ]
        ],
        "learned_skills": [
            [
                1,
                "Conscientious"
            ],
            [
                1,
                "Absolute_Focus"
            ],
            [
                1,
                "Ninth_Life_Rio"
            ]
        ],
        "unit_notes": [],
        "wexp_gain": {
            "Sword": [
                false,
                0,
                51
            ],
            "Lance": [
                false,
                0,
                51
            ],
            "Axe": [
                false,
                0,
                51
            ],
            "Bow": [
                false,
                0,
                51
            ],
            "Knife": [
                false,
                0,
                51
            ],
            "Anima": [
                false,
                0,
                51
            ],
            "Light": [
                false,
                7,
                51
            ],
            "Dark": [
                false,
                0,
                51
            ],
            "Staff": [
                false,
                1,
                51
            ],
            "Stone": [
                false,
                0,
                51
            ],
            "Default": [
                false,
                0,
                51
            ]
        },
        "alternate_classes": [],
        "portrait_nid": "Freya",
        "affinity": "Light",
        "fields": []
    }
]