[
    {
        "nid": "Kirlsig",
        "name": "Kirlsig",
        "desc": "Submitted by Rasta.",
        "variant": "",
        "level": 1,
        "klass": "Manakete",
        "tags": [],
        "bases": {
            "HP": 21,
            "STR": 10,
            "MAG": 10,
            "SKL": 4,
            "SPD": 2,
            "LCK": 5,
            "DEF": 9,
            "RES": 4,
            "CON": 15,
            "MOV": 4
        },
        "growths": {
            "HP": 65,
            "STR": 50,
            "MAG": 50,
            "SKL": 30,
            "SPD": 25,
            "LCK": 20,
            "DEF": 50,
            "RES": 20,
            "CON": 0,
            "MOV": 0
        },
        "stat_cap_modifiers": {},
        "starting_items": [
            [
                "Fire_Stone",
                false
            ],
            [
                "Earth_Stone",
                false
            ],
            [
                "Geo_Pebble",
                false
            ]
        ],
        "learned_skills": [
            [
                1,
                "EarthenWall"
            ],
            [
                1,
                "SturdyClaws"
            ]
        ],
        "unit_notes": [],
        "wexp_gain": {
            "Sword": [
                false,
                0,
                251
            ],
            "Lance": [
                false,
                0,
                251
            ],
            "Axe": [
                false,
                0,
                251
            ],
            "Bow": [
                false,
                0,
                251
            ],
            "Knife": [
                false,
                0,
                251
            ],
            "Anima": [
                false,
                1,
                251
            ],
            "Light": [
                false,
                0,
                251
            ],
            "Dark": [
                false,
                0,
                251
            ],
            "Staff": [
                false,
                0,
                251
            ],
            "Dragonstone": [
                false,
                15,
                251
            ],
            "Default": [
                false,
                0,
                251
            ],
            "Stone": [
                false,
                7,
                251
            ]
        },
        "alternate_classes": [],
        "portrait_nid": "Termin",
        "affinity": "Earth",
        "fields": []
    }
]