[
    {
        "nid": "Leechmonger",
        "name": "Leechmonger",
        "desc": "Submitted by RandomWizard.",
        "variant": "",
        "level": 1,
        "klass": "Shaman",
        "tags": [],
        "bases": {
            "HP": 18,
            "STR": 3,
            "MAG": 8,
            "SKL": 5,
            "SPD": 2,
            "LCK": 6,
            "DEF": 4,
            "RES": 6,
            "CON": 7,
            "MOV": 4
        },
        "growths": {
            "HP": 60,
            "STR": 20,
            "MAG": 50,
            "SKL": 40,
            "SPD": 20,
            "LCK": 35,
            "DEF": 30,
            "RES": 40,
            "CON": 0,
            "MOV": 0
        },
        "stat_cap_modifiers": {
            "HP": 0,
            "STR": 0,
            "MAG": 0,
            "SKL": 0,
            "SPD": 0,
            "LCK": 0,
            "DEF": 0,
            "RES": 0,
            "CON": 0,
            "MOV": 0
        },
        "starting_items": [
            [
                "Flux",
                false
            ],
            [
                "Hunger",
                false
            ],
            [
                "Ghostmaker",
                false
            ]
        ],
        "learned_skills": [
            [
                1,
                "FungalPuppetry"
            ],
            [
                1,
                "Detonate"
            ]
        ],
        "unit_notes": [],
        "wexp_gain": {
            "Sword": [
                false,
                0,
                51
            ],
            "Lance": [
                false,
                0,
                51
            ],
            "Axe": [
                false,
                0,
                51
            ],
            "Bow": [
                false,
                0,
                51
            ],
            "Knife": [
                false,
                0,
                51
            ],
            "Anima": [
                false,
                1,
                51
            ],
            "Light": [
                false,
                0,
                51
            ],
            "Dark": [
                false,
                1,
                51
            ],
            "Staff": [
                false,
                0,
                51
            ],
            "Stone": [
                false,
                0,
                51
            ],
            "Default": [
                false,
                0,
                51
            ]
        },
        "alternate_classes": [],
        "portrait_nid": "Tweed Leechmonger",
        "affinity": "Dark",
        "fields": []
    }
]