[
    {
        "nid": "Libra_P",
        "name": "Libra",
        "desc": "The Fell Dragon, and master of the Fog.",
        "variant": "Female",
        "level": 1,
        "klass": "Fell_Dragon",
        "tags": [
            "Female",
            "FellDragon"
        ],
        "bases": {
            "HP": 20,
            "STR": 10,
            "MAG": 10,
            "SKL": 10,
            "SPD": 10,
            "LCK": 10,
            "DEF": 10,
            "CON": 10,
            "MOV": 5,
            "RES": 10
        },
        "growths": {
            "HP": 70,
            "STR": 50,
            "MAG": 50,
            "SKL": 50,
            "SPD": 50,
            "LCK": 50,
            "DEF": 35,
            "CON": 0,
            "MOV": 0,
            "RES": 35
        },
        "stat_cap_modifiers": {
            "STR": 0,
            "MAG": 0,
            "SKL": 0,
            "SPD": 0,
            "LCK": 0,
            "DEF": 0,
            "RES": 0
        },
        "starting_items": [
            [
                "Eternal_Fog",
                false
            ]
        ],
        "learned_skills": [
            [
                1,
                "Greater_Assimilation"
            ]
        ],
        "unit_notes": [],
        "wexp_gain": {
            "Sword": [
                true,
                0,
                251
            ],
            "Lance": [
                false,
                0,
                251
            ],
            "Axe": [
                false,
                0,
                251
            ],
            "Bow": [
                false,
                0,
                251
            ],
            "Staff": [
                false,
                0,
                251
            ],
            "Light": [
                false,
                0,
                251
            ],
            "Anima": [
                false,
                0,
                251
            ],
            "Dark": [
                false,
                0,
                251
            ],
            "Default": [
                false,
                0,
                251
            ],
            "Dragonstone": [
                false,
                1,
                251
            ],
            "Stone": [
                false,
                1,
                251
            ]
        },
        "alternate_classes": [],
        "portrait_nid": "Libra",
        "affinity": "Water",
        "fields": []
    }
]