[
    {
        "nid": "Melody",
        "name": "Melody",
        "desc": "Submitted by RandomWizard.",
        "variant": "Female",
        "level": 1,
        "klass": "Apprentice_Melody",
        "tags": [
            "Female"
        ],
        "bases": {
            "HP": 18,
            "STR": 0,
            "MAG": 7,
            "SKL": 8,
            "SPD": 6,
            "LCK": 9,
            "DEF": 3,
            "RES": 6,
            "CON": 10,
            "MOV": 4
        },
        "growths": {
            "HP": 65,
            "STR": 5,
            "MAG": 40,
            "SKL": 50,
            "SPD": 40,
            "LCK": 60,
            "DEF": 5,
            "RES": 30,
            "CON": 0,
            "MOV": 0
        },
        "stat_cap_modifiers": {},
        "starting_items": [
            [
                "Fire",
                false
            ],
            [
                "Lightning",
                false
            ],
            [
                "Flux",
                false
            ]
        ],
        "learned_skills": [
            [
                1,
                "Base_MOV_Plus"
            ],
            [
                1,
                "Rhythm_Of_Magic"
            ],
            [
                1,
                "Discipline"
            ]
        ],
        "unit_notes": [],
        "wexp_gain": {
            "Sword": [
                false,
                0,
                251
            ],
            "Lance": [
                false,
                0,
                251
            ],
            "Axe": [
                false,
                0,
                251
            ],
            "Bow": [
                false,
                0,
                251
            ],
            "Knife": [
                false,
                0,
                251
            ],
            "Anima": [
                false,
                1,
                251
            ],
            "Light": [
                false,
                1,
                251
            ],
            "Dark": [
                false,
                1,
                251
            ],
            "Staff": [
                false,
                0,
                251
            ],
            "Dragonstone": [
                false,
                0,
                251
            ],
            "Default": [
                false,
                0,
                251
            ],
            "Stone": [
                false,
                0,
                251
            ]
        },
        "alternate_classes": [],
        "portrait_nid": "Tweed_Melody",
        "affinity": "Anima",
        "fields": []
    }
]