[
    {
        "nid": "Ophie",
        "name": "Ophie",
        "desc": "A strong-hearted renegade who often acts before he thinks.",
        "variant": "",
        "level": 1,
        "klass": "Swordmaster",
        "tags": [
            "Lord"
        ],
        "bases": {
            "HP": 12,
            "STR": 3,
            "MAG": 1,
            "SKL": 5,
            "SPD": 7,
            "LCK": 2,
            "DEF": 1,
            "RES": 1,
            "CON": 5,
            "MOV": 5
        },
        "growths": {
            "HP": 105,
            "STR": 55,
            "MAG": 35,
            "SKL": 75,
            "SPD": 80,
            "LCK": 80,
            "DEF": 40,
            "RES": 40,
            "CON": 0,
            "MOV": 0
        },
        "stat_cap_modifiers": {},
        "starting_items": [
            [
                "Epee",
                false
            ]
        ],
        "learned_skills": [
            [
                1,
                "Critical"
            ],
            [
                1,
                "Feat_EOTF"
            ],
            [
                1,
                "Ophiuchus_Rex"
            ],
            [
                1,
                "Ophie_Emblem"
            ]
        ],
        "unit_notes": [],
        "wexp_gain": {
            "Sword": [
                true,
                15,
                251
            ],
            "Lance": [
                false,
                0,
                251
            ],
            "Axe": [
                false,
                0,
                251
            ],
            "Bow": [
                false,
                0,
                251
            ],
            "Light": [
                false,
                0,
                251
            ],
            "Anima": [
                false,
                0,
                251
            ],
            "Dark": [
                false,
                0,
                251
            ],
            "Default": [
                false,
                0,
                251
            ]
        },
        "alternate_classes": [],
        "portrait_nid": "Ophie",
        "affinity": "Fire",
        "fields": []
    }
]