[
    {
        "nid": "Player_4",
        "name": "Lute",
        "desc": "The princess of the Kingdom of\nRenais. She's elegant and kind.",
        "variant": "Female",
        "level": 1,
        "klass": "Mage",
        "tags": [],
        "bases": {
            "HP": 16,
            "STR": 4,
            "MAG": 2,
            "SKL": 8,
            "SPD": 9,
            "LCK": 5,
            "DEF": 3,
            "CON": 5,
            "MOV": 5,
            "RES": 1
        },
        "growths": {
            "HP": 70,
            "STR": 40,
            "MAG": 20,
            "SKL": 60,
            "SPD": 60,
            "LCK": 60,
            "DEF": 30,
            "CON": 0,
            "MOV": 0,
            "RES": 30
        },
        "stat_cap_modifiers": {},
        "starting_items": [
            [
                "Fire",
                false
            ]
        ],
        "learned_skills": [],
        "unit_notes": [],
        "wexp_gain": {
            "Sword": [
                true,
                0,
                251
            ],
            "Lance": [
                false,
                0,
                251
            ],
            "Axe": [
                false,
                0,
                251
            ],
            "Bow": [
                false,
                0,
                251
            ],
            "Staff": [
                false,
                0,
                251
            ],
            "Light": [
                false,
                0,
                251
            ],
            "Anima": [
                false,
                1,
                251
            ],
            "Dark": [
                false,
                0,
                251
            ],
            "Default": [
                false,
                0,
                251
            ]
        },
        "alternate_classes": [],
        "portrait_nid": "Lute",
        "affinity": "Light",
        "fields": []
    }
]