[
    {
        "nid": "Poggles",
        "name": "Poggles",
        "desc": "Submitted by Rammerrush.\nA beloved pup brought back to life through nefarious draconian magic. Loyal to a fault, with a new-found taste for death.",
        "variant": "Male",
        "level": 1,
        "klass": "Dragon_Mutt",
        "tags": [],
        "bases": {
            "HP": 23,
            "STR": 2,
            "MAG": 7,
            "SKL": 4,
            "SPD": 10,
            "LCK": 2,
            "DEF": 3,
            "RES": 4,
            "CON": 6,
            "MOV": 5
        },
        "growths": {
            "HP": 110,
            "STR": 15,
            "MAG": 35,
            "SKL": 25,
            "SPD": 55,
            "LCK": 25,
            "DEF": 15,
            "RES": 25,
            "CON": 0,
            "MOV": 0
        },
        "stat_cap_modifiers": {
            "HP": 0
        },
        "starting_items": [
            [
                "Gravestone",
                false
            ]
        ],
        "learned_skills": [
            [
                1,
                "Connection_to_Life"
            ],
            [
                1,
                "Painful_Existence"
            ],
            [
                1,
                "Necro_Breath"
            ]
        ],
        "unit_notes": [],
        "wexp_gain": {
            "Sword": [
                false,
                0,
                251
            ],
            "Lance": [
                false,
                0,
                251
            ],
            "Axe": [
                false,
                0,
                251
            ],
            "Bow": [
                false,
                0,
                251
            ],
            "Knife": [
                false,
                0,
                251
            ],
            "Anima": [
                false,
                0,
                251
            ],
            "Light": [
                false,
                0,
                251
            ],
            "Dark": [
                false,
                0,
                251
            ],
            "Staff": [
                false,
                0,
                251
            ],
            "Dragonstone": [
                false,
                1,
                251
            ],
            "Default": [
                false,
                0,
                251
            ],
            "Stone": [
                false,
                1,
                251
            ]
        },
        "alternate_classes": [],
        "portrait_nid": "Poggles",
        "affinity": "Earth",
        "fields": []
    }
]