[
    {
        "nid": "Renae",
        "name": "Renae",
        "desc": "An energetic thief with a kleptomanic streak.",
        "variant": "Female",
        "level": 1,
        "klass": "Assassin",
        "tags": [
            "Female"
        ],
        "bases": {
            "HP": 14,
            "STR": 3,
            "MAG": 4,
            "SKL": 6,
            "SPD": 10,
            "LCK": 4,
            "DEF": 2,
            "RES": 4,
            "CON": 4,
            "MOV": 5
        },
        "growths": {
            "HP": 95,
            "STR": 45,
            "MAG": 60,
            "SKL": 50,
            "SPD": 95,
            "LCK": 60,
            "DEF": 35,
            "RES": 50,
            "CON": 0,
            "MOV": 0
        },
        "stat_cap_modifiers": {},
        "starting_items": [
            [
                "Iron_Knife",
                false
            ],
            [
                "Vulnerary",
                false
            ]
        ],
        "learned_skills": [
            [
                1,
                "HiddenBow"
            ],
            [
                1,
                "Ophie_Emblem"
            ]
        ],
        "unit_notes": [],
        "wexp_gain": {
            "Sword": [
                true,
                0,
                251
            ],
            "Lance": [
                false,
                0,
                251
            ],
            "Axe": [
                false,
                0,
                251
            ],
            "Bow": [
                false,
                7,
                251
            ],
            "Light": [
                false,
                0,
                251
            ],
            "Anima": [
                false,
                0,
                251
            ],
            "Dark": [
                false,
                0,
                251
            ],
            "Default": [
                false,
                0,
                251
            ],
            "Knife": [
                false,
                7,
                51
            ]
        },
        "alternate_classes": [],
        "portrait_nid": "Renae",
        "affinity": "Wind",
        "fields": []
    }
]