[
    {
        "nid": "Rio",
        "name": "Rio",
        "desc": "Submitted by Rasta.",
        "variant": "Female",
        "level": 1,
        "klass": "Thief",
        "tags": [
            "Female"
        ],
        "bases": {
            "HP": 14,
            "STR": 7,
            "MAG": 3,
            "SKL": 11,
            "SPD": 11,
            "LCK": 25,
            "DEF": 2,
            "RES": 2,
            "CON": 6,
            "MOV": 4
        },
        "growths": {
            "HP": 100,
            "STR": 45,
            "MAG": 15,
            "SKL": 50,
            "SPD": 80,
            "LCK": -25,
            "DEF": 10,
            "RES": 10,
            "CON": 0,
            "MOV": 0
        },
        "stat_cap_modifiers": {},
        "starting_items": [
            [
                "Rio_Wish",
                false
            ],
            [
                "RazorsEdge",
                false
            ]
        ],
        "learned_skills": [
            [
                1,
                "Ninth_Life_Rio"
            ],
            [
                1,
                "Sacrifice"
            ],
            [
                1,
                "Master_Swap"
            ],
            [
                1,
                "Locktouch"
            ]
        ],
        "unit_notes": [],
        "wexp_gain": {
            "Sword": [
                false,
                1,
                251
            ],
            "Lance": [
                false,
                0,
                251
            ],
            "Axe": [
                false,
                0,
                251
            ],
            "Bow": [
                false,
                0,
                251
            ],
            "Knife": [
                false,
                1,
                251
            ],
            "Anima": [
                false,
                0,
                251
            ],
            "Light": [
                false,
                0,
                251
            ],
            "Dark": [
                false,
                0,
                251
            ],
            "Staff": [
                false,
                0,
                251
            ],
            "Dragonstone": [
                false,
                0,
                251
            ],
            "Default": [
                false,
                0,
                251
            ],
            "Stone": [
                false,
                0,
                251
            ]
        },
        "alternate_classes": [],
        "portrait_nid": "Rio (Flasuban)",
        "affinity": "Dark",
        "fields": []
    }
]