[
    {
        "nid": "Swift",
        "name": "Swift",
        "desc": "Submitted by Leche.",
        "variant": "",
        "level": 1,
        "klass": "Thief",
        "tags": [],
        "bases": {
            "HP": 18,
            "STR": 7,
            "MAG": 1,
            "SKL": 11,
            "SPD": 9,
            "LCK": 10,
            "DEF": 1,
            "RES": 3,
            "CON": 3,
            "MOV": 4
        },
        "growths": {
            "HP": 50,
            "STR": 40,
            "MAG": 15,
            "SKL": 50,
            "SPD": 45,
            "LCK": 50,
            "DEF": 10,
            "RES": 25,
            "CON": 0,
            "MOV": 0
        },
        "stat_cap_modifiers": {},
        "starting_items": [
            [
                "Iron_Knife",
                false
            ]
        ],
        "learned_skills": [
            [
                1,
                "Base_MOV_Plus"
            ],
            [
                1,
                "Steal"
            ],
            [
                1,
                "Locktouch"
            ],
            [
                1,
                "Canto_Plus"
            ],
            [
                1,
                "Master_Swap"
            ],
            [
                1,
                "Master_Pivot"
            ]
        ],
        "unit_notes": [],
        "wexp_gain": {
            "Sword": [
                false,
                1,
                251
            ],
            "Lance": [
                false,
                0,
                251
            ],
            "Axe": [
                false,
                0,
                251
            ],
            "Bow": [
                false,
                0,
                251
            ],
            "Knife": [
                false,
                1,
                251
            ],
            "Anima": [
                false,
                0,
                251
            ],
            "Light": [
                false,
                0,
                251
            ],
            "Dark": [
                false,
                0,
                251
            ],
            "Staff": [
                false,
                0,
                251
            ],
            "Dragonstone": [
                false,
                0,
                251
            ],
            "Default": [
                false,
                0,
                251
            ],
            "Stone": [
                false,
                0,
                251
            ]
        },
        "alternate_classes": [],
        "portrait_nid": "Swift - Leche",
        "affinity": "Wind",
        "fields": []
    }
]