[
    {
        "nid": "Tinola",
        "name": "Tinola",
        "desc": "Submitted by BBHood217.\nA country girl raised on a farm wielding a magic bow.",
        "variant": "Female",
        "level": 1,
        "klass": "Archer",
        "tags": [
            "Female"
        ],
        "bases": {
            "HP": 20,
            "STR": 9,
            "MAG": 7,
            "SKL": 6,
            "SPD": 7,
            "LCK": 5,
            "DEF": 3,
            "RES": 3,
            "CON": 5,
            "MOV": 4
        },
        "growths": {
            "HP": 55,
            "STR": 45,
            "MAG": 40,
            "SKL": 40,
            "SPD": 35,
            "LCK": 35,
            "DEF": 20,
            "RES": 20,
            "CON": 0,
            "MOV": 0
        },
        "stat_cap_modifiers": {},
        "starting_items": [
            [
                "Iron_Bow",
                false
            ],
            [
                "ShiningBow",
                false
            ]
        ],
        "learned_skills": [
            [
                1,
                "SureShot"
            ]
        ],
        "unit_notes": [],
        "wexp_gain": {
            "Sword": [
                false,
                0,
                251
            ],
            "Lance": [
                false,
                0,
                251
            ],
            "Axe": [
                false,
                0,
                251
            ],
            "Bow": [
                false,
                7,
                251
            ],
            "Knife": [
                false,
                0,
                251
            ],
            "Anima": [
                false,
                0,
                251
            ],
            "Light": [
                false,
                0,
                251
            ],
            "Dark": [
                false,
                0,
                251
            ],
            "Staff": [
                false,
                0,
                251
            ],
            "Dragonstone": [
                false,
                0,
                251
            ],
            "Default": [
                false,
                0,
                251
            ],
            "Stone": [
                false,
                0,
                251
            ]
        },
        "alternate_classes": [],
        "portrait_nid": "TinolaPortrait",
        "affinity": "Fire",
        "fields": []
    }
]