[
    {
        "nid": "Trinity",
        "name": "Trinity",
        "desc": "The Dragonslayer, and humanity's last hope.\nSecretly, she is the Fell Dragon's daughter.",
        "variant": "Female",
        "level": 1,
        "klass": "Soldier",
        "tags": [
            "Dragon",
            "Female"
        ],
        "bases": {
            "HP": 20,
            "STR": 9,
            "MAG": 7,
            "SKL": 6,
            "SPD": 6,
            "LCK": 9,
            "DEF": 5,
            "RES": 3,
            "CON": 9,
            "MOV": 4
        },
        "growths": {
            "HP": 70,
            "STR": 45,
            "MAG": 35,
            "SKL": 40,
            "SPD": 35,
            "LCK": 40,
            "DEF": 20,
            "RES": 10,
            "CON": 0,
            "MOV": 0
        },
        "stat_cap_modifiers": {},
        "starting_items": [
            [
                "Iron_Lance",
                false
            ],
            [
                "Dragonspear",
                false
            ],
            [
                "Holy_Guard_Plus",
                false
            ]
        ],
        "learned_skills": [
            [
                1,
                "Charging_Descent_P"
            ],
            [
                1,
                "HiddenStone"
            ],
            [
                1,
                "Draconic_Impulse"
            ]
        ],
        "unit_notes": [],
        "wexp_gain": {
            "Sword": [
                false,
                0,
                251
            ],
            "Lance": [
                false,
                1,
                251
            ],
            "Axe": [
                false,
                0,
                251
            ],
            "Bow": [
                false,
                0,
                251
            ],
            "Knife": [
                false,
                0,
                251
            ],
            "Anima": [
                false,
                0,
                251
            ],
            "Light": [
                false,
                0,
                251
            ],
            "Dark": [
                false,
                0,
                251
            ],
            "Staff": [
                false,
                0,
                251
            ],
            "Stone": [
                false,
                1,
                251
            ],
            "Default": [
                false,
                0,
                251
            ]
        },
        "alternate_classes": [],
        "portrait_nid": "Trinity",
        "affinity": "Light",
        "fields": []
    }
]