[
    {
        "nid": "Chpt1",
        "terrain_grid": {},
        "autotiles": {
            "8,0": 0,
            "9,0": 1,
            "9,1": 2,
            "10,0": 3,
            "10,1": 4,
            "10,2": 0,
            "11,0": 5,
            "11,1": 6,
            "11,2": 7,
            "11,3": 0,
            "12,0": 8,
            "12,1": 9,
            "12,2": 3,
            "12,3": 5,
            "13,2": 6,
            "13,3": 1,
            "13,4": 10,
            "14,0": 0,
            "14,1": 11,
            "14,2": 4,
            "14,3": 12
        }
    },
    {
        "nid": "Prologue",
        "terrain_grid": {},
        "autotiles": {
            "0,2": 0,
            "2,1": 1,
            "2,2": 2,
            "3,1": 3,
            "4,1": 4,
            "5,0": 5,
            "5,1": 2,
            "6,0": 6
        }
    },
    {
        "nid": "Chpt2",
        "terrain_grid": {},
        "autotiles": {}
    },
    {
        "nid": "SacredStonesBase",
        "terrain_grid": {},
        "autotiles": {}
    },
    {
        "nid": "Chpt3",
        "terrain_grid": {},
        "autotiles": {}
    },
    {
        "nid": "SacredStonesVillage",
        "terrain_grid": {},
        "autotiles": {}
    },
    {
        "nid": "GradoKeep",
        "terrain_grid": {},
        "autotiles": {}
    },
    {
        "nid": "Chpt14B",
        "terrain_grid": {},
        "autotiles": {}
    },
    {
        "nid": "Chpt4",
        "terrain_grid": {},
        "autotiles": {
            "0,8": 0,
            "2,8": 0,
            "2,14": 1,
            "3,9": 2,
            "3,13": 3,
            "3,14": 4,
            "4,11": 1,
            "4,13": 4,
            "5,9": 5,
            "5,10": 3,
            "5,11": 4,
            "6,8": 3,
            "6,9": 6,
            "6,10": 4,
            "8,7": 1,
            "8,8": 4,
            "10,8": 2,
            "11,8": 7,
            "11,9": 2,
            "13,10": 0
        }
    },
    {
        "nid": "Chpt5",
        "terrain_grid": {},
        "autotiles": {}
    },
    {
        "nid": "MagvelWorldMap",
        "terrain_grid": {},
        "autotiles": {}
    },
    {
        "nid": "Valni_1",
        "terrain_grid": {},
        "autotiles": {}
    },
    {
        "nid": "Temple Tiles",
        "terrain_grid": {},
        "autotiles": {}
    },
    {
        "nid": "start_field",
        "terrain_grid": {},
        "autotiles": {}
    },
    {
        "nid": "field_fort",
        "terrain_grid": {},
        "autotiles": {}
    },
    {
        "nid": "Overworld Dark Green",
        "terrain_grid": {},
        "autotiles": {}
    },
    {
        "nid": "RW_1",
        "terrain_grid": {},
        "autotiles": {}
    },
    {
        "nid": "ZeroXA_1",
        "terrain_grid": {},
        "autotiles": {}
    },
    {
        "nid": "zeroXA_2",
        "terrain_grid": {},
        "autotiles": {}
    },
    {
        "nid": "rammerrush_1",
        "terrain_grid": {},
        "autotiles": {}
    },
    {
        "nid": "rammerrush_2",
        "terrain_grid": {},
        "autotiles": {}
    },
    {
        "nid": "kinetic1000_1",
        "terrain_grid": {},
        "autotiles": {}
    },
    {
        "nid": "Fort 1 Tiles",
        "terrain_grid": {},
        "autotiles": {}
    },
    {
        "nid": "unfinished_town",
        "terrain_grid": {},
        "autotiles": {}
    },
    {
        "nid": "Fort 3 Tiles",
        "terrain_grid": {},
        "autotiles": {}
    },
    {
        "nid": "ruin_hall",
        "terrain_grid": {},
        "autotiles": {}
    },
    {
        "nid": "snowy_stretch",
        "terrain_grid": {},
        "autotiles": {}
    },
    {
        "nid": "training_fort",
        "terrain_grid": {},
        "autotiles": {}
    },
    {
        "nid": "Temple 2 Tiles",
        "terrain_grid": {},
        "autotiles": {}
    },
    {
        "nid": "RW_2",
        "terrain_grid": {},
        "autotiles": {}
    },
    {
        "nid": "RW_3",
        "terrain_grid": {},
        "autotiles": {}
    },
    {
        "nid": "RW_4",
        "terrain_grid": {},
        "autotiles": {}
    },
    {
        "nid": "RW_5",
        "terrain_grid": {},
        "autotiles": {}
    },
    {
        "nid": "Leche_1",
        "terrain_grid": {},
        "autotiles": {}
    },
    {
        "nid": "RW_6",
        "terrain_grid": {},
        "autotiles": {}
    },
    {
        "nid": "RW_6_2",
        "terrain_grid": {},
        "autotiles": {}
    },
    {
        "nid": "rw frontier",
        "terrain_grid": {},
        "autotiles": {}
    },
    {
        "nid": "rw cave",
        "terrain_grid": {},
        "autotiles": {}
    },
    {
        "nid": "rw plainscastle",
        "terrain_grid": {},
        "autotiles": {}
    },
    {
        "nid": "dragz town",
        "terrain_grid": {},
        "autotiles": {}
    },
    {
        "nid": "ee_ch6",
        "terrain_grid": {},
        "autotiles": {}
    },
    {
        "nid": "temp6",
        "terrain_grid": {},
        "autotiles": {}
    },
    {
        "nid": "temp6a",
        "terrain_grid": {},
        "autotiles": {}
    },
    {
        "nid": "rw bridge",
        "terrain_grid": {},
        "autotiles": {}
    },
    {
        "nid": "rw bank",
        "terrain_grid": {},
        "autotiles": {}
    },
    {
        "nid": "rw bank2",
        "terrain_grid": {},
        "autotiles": {}
    },
    {
        "nid": "entwining_out_rn",
        "terrain_grid": {},
        "autotiles": {}
    },
    {
        "nid": "temp5",
        "terrain_grid": {},
        "autotiles": {}
    },
    {
        "nid": "xilirite_1",
        "terrain_grid": {},
        "autotiles": {}
    },
    {
        "nid": "cliffsmap",
        "terrain_grid": {},
        "autotiles": {}
    },
    {
        "nid": "Canes_1",
        "terrain_grid": {},
        "autotiles": {}
    },
    {
        "nid": "mountains",
        "terrain_grid": {},
        "autotiles": {}
    },
    {
        "nid": "FE_XiangqiBoard",
        "terrain_grid": {},
        "autotiles": {}
    },
    {
        "nid": "rwfrontown",
        "terrain_grid": {},
        "autotiles": {}
    },
    {
        "nid": "rwfrontown_2",
        "terrain_grid": {},
        "autotiles": {}
    },
    {
        "nid": "rw garden",
        "terrain_grid": {},
        "autotiles": {}
    },
    {
        "nid": "infinisteppe",
        "terrain_grid": {},
        "autotiles": {}
    },
    {
        "nid": "watertemple_1",
        "terrain_grid": {},
        "autotiles": {}
    },
    {
        "nid": "watertemple_2",
        "terrain_grid": {},
        "autotiles": {}
    },
    {
        "nid": "bg4c",
        "terrain_grid": {},
        "autotiles": {}
    },
    {
        "nid": "ferdop3",
        "terrain_grid": {},
        "autotiles": {}
    },
    {
        "nid": "ferdop3_1",
        "terrain_grid": {},
        "autotiles": {}
    },
    {
        "nid": "temp2",
        "terrain_grid": {},
        "autotiles": {}
    },
    {
        "nid": "Dragon's Gate",
        "terrain_grid": {},
        "autotiles": {}
    },
    {
        "nid": "Dragon's Gate Tiles",
        "terrain_grid": {},
        "autotiles": {}
    },
    {
        "nid": "Rasta_1",
        "terrain_grid": {},
        "autotiles": {}
    },
    {
        "nid": "RW_7",
        "terrain_grid": {},
        "autotiles": {}
    },
    {
        "nid": "RW_8",
        "terrain_grid": {},
        "autotiles": {}
    },
    {
        "nid": "RW_8_2",
        "terrain_grid": {},
        "autotiles": {}
    },
    {
        "nid": "tweed_hub_map",
        "terrain_grid": {},
        "autotiles": {}
    },
    {
        "nid": "Elite_Flagbearer",
        "terrain_grid": {},
        "autotiles": {}
    },
    {
        "nid": "Returned",
        "terrain_grid": {},
        "autotiles": {}
    },
    {
        "nid": "01005B03",
        "terrain_grid": {},
        "autotiles": {}
    },
    {
        "nid": "bridges1",
        "terrain_grid": {},
        "autotiles": {}
    },
    {
        "nid": "bridges2",
        "terrain_grid": {},
        "autotiles": {}
    },
    {
        "nid": "cool_desert_map",
        "terrain_grid": {},
        "autotiles": {}
    },
    {
        "nid": "PortTownMap",
        "terrain_grid": {},
        "autotiles": {}
    },
    {
        "nid": "act_3",
        "terrain_grid": {},
        "autotiles": {}
    },
    {
        "nid": "cliffside",
        "terrain_grid": {},
        "autotiles": {}
    },
    {
        "nid": "Trinity",
        "terrain_grid": {},
        "autotiles": {}
    },
    {
        "nid": "trial_6",
        "terrain_grid": {},
        "autotiles": {}
    },
    {
        "nid": "SNES - Final Fantasy 6 - Narshe Tiles",
        "terrain_grid": {},
        "autotiles": {}
    },
    {
        "nid": "boat_map",
        "terrain_grid": {},
        "autotiles": {}
    },
    {
        "nid": "Sandcliffs",
        "terrain_grid": {},
        "autotiles": {}
    },
    {
        "nid": "TwoBridge",
        "terrain_grid": {},
        "autotiles": {}
    },
    {
        "nid": "flasuban_village",
        "terrain_grid": {},
        "autotiles": {}
    },
    {
        "nid": "FF6_Interior_NOT_CORRECTED",
        "terrain_grid": {},
        "autotiles": {}
    },
    {
        "nid": "Boss2bridge",
        "terrain_grid": {},
        "autotiles": {}
    },
    {
        "nid": "fb_trial",
        "terrain_grid": {},
        "autotiles": {}
    },
    {
        "nid": "fog_moon_bg_1",
        "terrain_grid": {},
        "autotiles": {}
    },
    {
        "nid": "Temple Tiles_Transparent",
        "terrain_grid": {},
        "autotiles": {}
    },
    {
        "nid": "temple_gates",
        "terrain_grid": {},
        "autotiles": {}
    },
    {
        "nid": "Suspended_platform",
        "terrain_grid": {},
        "autotiles": {}
    },
    {
        "nid": "chessboard",
        "terrain_grid": {},
        "autotiles": {}
    },
    {
        "nid": "Bridge",
        "terrain_grid": {},
        "autotiles": {}
    },
    {
        "nid": "Beach",
        "terrain_grid": {},
        "autotiles": {}
    },
    {
        "nid": "Three_Huts_fixed",
        "terrain_grid": {},
        "autotiles": {}
    },
    {
        "nid": "FortGate",
        "terrain_grid": {},
        "autotiles": {}
    },
    {
        "nid": "act1hub",
        "terrain_grid": {},
        "autotiles": {}
    },
    {
        "nid": "The_Wall",
        "terrain_grid": {},
        "autotiles": {}
    },
    {
        "nid": "act4hub",
        "terrain_grid": {},
        "autotiles": {}
    },
    {
        "nid": "Cliffs",
        "terrain_grid": {},
        "autotiles": {}
    },
    {
        "nid": "BigFort",
        "terrain_grid": {},
        "autotiles": {}
    },
    {
        "nid": "Improved Castle Tileset Palette 1",
        "terrain_grid": {},
        "autotiles": {}
    },
    {
        "nid": "trial_L",
        "terrain_grid": {},
        "autotiles": {}
    },
    {
        "nid": "wide_lad",
        "terrain_grid": {},
        "autotiles": {}
    },
    {
        "nid": "tweed_map_1",
        "terrain_grid": {},
        "autotiles": {}
    },
    {
        "nid": "Village v2 - Night Tileset",
        "terrain_grid": {},
        "autotiles": {}
    },
    {
        "nid": "Updated Village Tileset Night",
        "terrain_grid": {},
        "autotiles": {}
    },
    {
        "nid": "zombie_farmhouse",
        "terrain_grid": {},
        "autotiles": {}
    },
    {
        "nid": "smol_cave",
        "terrain_grid": {},
        "autotiles": {}
    },
    {
        "nid": "SNES - Final Fantasy 6 - Magitek Research Facility Tiles",
        "terrain_grid": {},
        "autotiles": {}
    },
    {
        "nid": "SNES - Final Fantasy 6 - Imperial Castle Tiles",
        "terrain_grid": {},
        "autotiles": {}
    },
    {
        "nid": "SNES - Final Fantasy 6 - Vector Tiles",
        "terrain_grid": {},
        "autotiles": {}
    },
    {
        "nid": "CliffBeach",
        "terrain_grid": {},
        "autotiles": {}
    },
    {
        "nid": "Ruinedhouses",
        "terrain_grid": {},
        "autotiles": {}
    },
    {
        "nid": "Woodenhouse",
        "terrain_grid": {},
        "autotiles": {}
    },
    {
        "nid": "Escort_Dragz",
        "terrain_grid": {},
        "autotiles": {}
    },
    {
        "nid": "Village 1 Tiles",
        "terrain_grid": {},
        "autotiles": {}
    },
    {
        "nid": "rind_1",
        "terrain_grid": {},
        "autotiles": {}
    },
    {
        "nid": "rind_3",
        "terrain_grid": {},
        "autotiles": {}
    },
    {
        "nid": "rind_5",
        "terrain_grid": {},
        "autotiles": {}
    },
    {
        "nid": "4rooms",
        "terrain_grid": {},
        "autotiles": {}
    },
    {
        "nid": "3monuments_1",
        "terrain_grid": {},
        "autotiles": {}
    },
    {
        "nid": "3monuments_2",
        "terrain_grid": {},
        "autotiles": {}
    },
    {
        "nid": "ferdopc1",
        "terrain_grid": {},
        "autotiles": {}
    },
    {
        "nid": "Elite_Blademaster",
        "terrain_grid": {},
        "autotiles": {}
    },
    {
        "nid": "Plains Castle Tiles",
        "terrain_grid": {},
        "autotiles": {}
    },
    {
        "nid": "Black Temple Tiles",
        "terrain_grid": {},
        "autotiles": {}
    },
    {
        "nid": "Link_Arena",
        "terrain_grid": {},
        "autotiles": {}
    },
    {
        "nid": "Overworld Snow",
        "terrain_grid": {},
        "autotiles": {}
    },
    {
        "nid": "FE6 Snow Fields Update 2",
        "terrain_grid": {},
        "autotiles": {}
    },
    {
        "nid": "Mountainous 1 Tiles",
        "terrain_grid": {},
        "autotiles": {}
    },
    {
        "nid": "demon_quest",
        "terrain_grid": {},
        "autotiles": {}
    },
    {
        "nid": "demon_map",
        "terrain_grid": {},
        "autotiles": {}
    },
    {
        "nid": "rw_ring_fort",
        "terrain_grid": {},
        "autotiles": {}
    },
    {
        "nid": "rw_defend_church",
        "terrain_grid": {},
        "autotiles": {}
    },
    {
        "nid": "rw_six_houses",
        "terrain_grid": {},
        "autotiles": {}
    },
    {
        "nid": "rw_six_houses_closed",
        "terrain_grid": {},
        "autotiles": {}
    },
    {
        "nid": "rw_warp_tiles",
        "terrain_grid": {},
        "autotiles": {}
    },
    {
        "nid": "TelephonisCh3",
        "terrain_grid": {},
        "autotiles": {}
    },
    {
        "nid": "rw_snowy_escape",
        "terrain_grid": {},
        "autotiles": {}
    },
    {
        "nid": "rw_snowy_escape_doorsopen",
        "terrain_grid": {},
        "autotiles": {}
    },
    {
        "nid": "HatsuneMiku7",
        "terrain_grid": {},
        "autotiles": {}
    },
    {
        "nid": "Sage_Map",
        "terrain_grid": {},
        "autotiles": {}
    },
    {
        "nid": "red_tiles",
        "terrain_grid": {},
        "autotiles": {}
    },
    {
        "nid": "Lava Cave Tiles",
        "terrain_grid": {},
        "autotiles": {}
    },
    {
        "nid": "Castle 4 Tiles",
        "terrain_grid": {},
        "autotiles": {}
    },
    {
        "nid": "TLT_P",
        "terrain_grid": {},
        "autotiles": {}
    },
    {
        "nid": "tlt_10",
        "terrain_grid": {},
        "autotiles": {}
    }
]