[
    {
        "nid": "Sky",
        "size": [
            15,
            10
        ],
        "autotile_fps": 29,
        "layers": [
            {
                "nid": "base",
                "visible": true,
                "foreground": false,
                "terrain_grid": {},
                "sprite_grid": {
                    "7,3": [
                        "bg4c",
                        [
                            7,
                            3
                        ]
                    ],
                    "6,9": [
                        "bg4c",
                        [
                            6,
                            9
                        ]
                    ],
                    "12,1": [
                        "bg4c",
                        [
                            12,
                            1
                        ]
                    ],
                    "14,4": [
                        "bg4c",
                        [
                            14,
                            4
                        ]
                    ],
                    "13,4": [
                        "bg4c",
                        [
                            13,
                            4
                        ]
                    ],
                    "0,7": [
                        "bg4c",
                        [
                            0,
                            7
                        ]
                    ],
                    "1,6": [
                        "bg4c",
                        [
                            1,
                            6
                        ]
                    ],
                    "3,7": [
                        "bg4c",
                        [
                            3,
                            7
                        ]
                    ],
                    "2,5": [
                        "bg4c",
                        [
                            2,
                            5
                        ]
                    ],
                    "8,5": [
                        "bg4c",
                        [
                            8,
                            5
                        ]
                    ],
                    "5,8": [
                        "bg4c",
                        [
                            5,
                            8
                        ]
                    ],
                    "4,0": [
                        "bg4c",
                        [
                            4,
                            0
                        ]
                    ],
                    "10,8": [
                        "bg4c",
                        [
                            10,
                            8
                        ]
                    ],
                    "9,0": [
                        "bg4c",
                        [
                            9,
                            0
                        ]
                    ],
                    "6,7": [
                        "bg4c",
                        [
                            6,
                            7
                        ]
                    ],
                    "5,5": [
                        "bg4c",
                        [
                            5,
                            5
                        ]
                    ],
                    "11,5": [
                        "bg4c",
                        [
                            11,
                            5
                        ]
                    ],
                    "10,7": [
                        "bg4c",
                        [
                            10,
                            7
                        ]
                    ],
                    "7,6": [
                        "bg4c",
                        [
                            7,
                            6
                        ]
                    ],
                    "12,6": [
                        "bg4c",
                        [
                            12,
                            6
                        ]
                    ],
                    "14,1": [
                        "bg4c",
                        [
                            14,
                            1
                        ]
                    ],
                    "13,7": [
                        "bg4c",
                        [
                            13,
                            7
                        ]
                    ],
                    "0,4": [
                        "bg4c",
                        [
                            0,
                            4
                        ]
                    ],
                    "1,1": [
                        "bg4c",
                        [
                            1,
                            1
                        ]
                    ],
                    "3,2": [
                        "bg4c",
                        [
                            3,
                            2
                        ]
                    ],
                    "2,6": [
                        "bg4c",
                        [
                            2,
                            6
                        ]
                    ],
                    "8,2": [
                        "bg4c",
                        [
                            8,
                            2
                        ]
                    ],
                    "4,5": [
                        "bg4c",
                        [
                            4,
                            5
                        ]
                    ],
                    "9,3": [
                        "bg4c",
                        [
                            9,
                            3
                        ]
                    ],
                    "6,0": [
                        "bg4c",
                        [
                            6,
                            0
                        ]
                    ],
                    "11,0": [
                        "bg4c",
                        [
                            11,
                            0
                        ]
                    ],
                    "7,5": [
                        "bg4c",
                        [
                            7,
                            5
                        ]
                    ],
                    "14,2": [
                        "bg4c",
                        [
                            14,
                            2
                        ]
                    ],
                    "0,1": [
                        "bg4c",
                        [
                            0,
                            1
                        ]
                    ],
                    "3,1": [
                        "bg4c",
                        [
                            3,
                            1
                        ]
                    ],
                    "9,9": [
                        "bg4c",
                        [
                            9,
                            9
                        ]
                    ],
                    "7,8": [
                        "bg4c",
                        [
                            7,
                            8
                        ]
                    ],
                    "14,8": [
                        "bg4c",
                        [
                            14,
                            8
                        ]
                    ],
                    "13,0": [
                        "bg4c",
                        [
                            13,
                            0
                        ]
                    ],
                    "12,8": [
                        "bg4c",
                        [
                            12,
                            8
                        ]
                    ],
                    "2,1": [
                        "bg4c",
                        [
                            2,
                            1
                        ]
                    ],
                    "8,9": [
                        "bg4c",
                        [
                            8,
                            9
                        ]
                    ],
                    "9,4": [
                        "bg4c",
                        [
                            9,
                            4
                        ]
                    ],
                    "5,1": [
                        "bg4c",
                        [
                            5,
                            1
                        ]
                    ],
                    "10,3": [
                        "bg4c",
                        [
                            10,
                            3
                        ]
                    ],
                    "7,2": [
                        "bg4c",
                        [
                            7,
                            2
                        ]
                    ],
                    "12,2": [
                        "bg4c",
                        [
                            12,
                            2
                        ]
                    ],
                    "14,5": [
                        "bg4c",
                        [
                            14,
                            5
                        ]
                    ],
                    "13,3": [
                        "bg4c",
                        [
                            13,
                            3
                        ]
                    ],
                    "1,5": [
                        "bg4c",
                        [
                            1,
                            5
                        ]
                    ],
                    "3,6": [
                        "bg4c",
                        [
                            3,
                            6
                        ]
                    ],
                    "2,2": [
                        "bg4c",
                        [
                            2,
                            2
                        ]
                    ],
                    "8,6": [
                        "bg4c",
                        [
                            8,
                            6
                        ]
                    ],
                    "4,1": [
                        "bg4c",
                        [
                            4,
                            1
                        ]
                    ],
                    "10,9": [
                        "bg4c",
                        [
                            10,
                            9
                        ]
                    ],
                    "9,7": [
                        "bg4c",
                        [
                            9,
                            7
                        ]
                    ],
                    "6,4": [
                        "bg4c",
                        [
                            6,
                            4
                        ]
                    ],
                    "5,4": [
                        "bg4c",
                        [
                            5,
                            4
                        ]
                    ],
                    "11,4": [
                        "bg4c",
                        [
                            11,
                            4
                        ]
                    ],
                    "10,4": [
                        "bg4c",
                        [
                            10,
                            4
                        ]
                    ],
                    "7,1": [
                        "bg4c",
                        [
                            7,
                            1
                        ]
                    ],
                    "12,7": [
                        "bg4c",
                        [
                            12,
                            7
                        ]
                    ],
                    "11,9": [
                        "bg4c",
                        [
                            11,
                            9
                        ]
                    ],
                    "14,6": [
                        "bg4c",
                        [
                            14,
                            6
                        ]
                    ],
                    "13,6": [
                        "bg4c",
                        [
                            13,
                            6
                        ]
                    ],
                    "0,5": [
                        "bg4c",
                        [
                            0,
                            5
                        ]
                    ],
                    "1,0": [
                        "bg4c",
                        [
                            1,
                            0
                        ]
                    ],
                    "0,8": [
                        "bg4c",
                        [
                            0,
                            8
                        ]
                    ],
                    "3,5": [
                        "bg4c",
                        [
                            3,
                            5
                        ]
                    ],
                    "2,7": [
                        "bg4c",
                        [
                            2,
                            7
                        ]
                    ],
                    "8,3": [
                        "bg4c",
                        [
                            8,
                            3
                        ]
                    ],
                    "4,6": [
                        "bg4c",
                        [
                            4,
                            6
                        ]
                    ],
                    "9,2": [
                        "bg4c",
                        [
                            9,
                            2
                        ]
                    ],
                    "6,1": [
                        "bg4c",
                        [
                            6,
                            1
                        ]
                    ],
                    "5,7": [
                        "bg4c",
                        [
                            5,
                            7
                        ]
                    ],
                    "11,3": [
                        "bg4c",
                        [
                            11,
                            3
                        ]
                    ],
                    "7,4": [
                        "bg4c",
                        [
                            7,
                            4
                        ]
                    ],
                    "12,4": [
                        "bg4c",
                        [
                            12,
                            4
                        ]
                    ],
                    "14,3": [
                        "bg4c",
                        [
                            14,
                            3
                        ]
                    ],
                    "13,9": [
                        "bg4c",
                        [
                            13,
                            9
                        ]
                    ],
                    "0,2": [
                        "bg4c",
                        [
                            0,
                            2
                        ]
                    ],
                    "1,3": [
                        "bg4c",
                        [
                            1,
                            3
                        ]
                    ],
                    "4,8": [
                        "bg4c",
                        [
                            4,
                            8
                        ]
                    ],
                    "3,0": [
                        "bg4c",
                        [
                            3,
                            0
                        ]
                    ],
                    "2,8": [
                        "bg4c",
                        [
                            2,
                            8
                        ]
                    ],
                    "9,8": [
                        "bg4c",
                        [
                            9,
                            8
                        ]
                    ],
                    "8,0": [
                        "bg4c",
                        [
                            8,
                            0
                        ]
                    ],
                    "6,2": [
                        "bg4c",
                        [
                            6,
                            2
                        ]
                    ],
                    "14,9": [
                        "bg4c",
                        [
                            14,
                            9
                        ]
                    ],
                    "12,9": [
                        "bg4c",
                        [
                            12,
                            9
                        ]
                    ],
                    "5,0": [
                        "bg4c",
                        [
                            5,
                            0
                        ]
                    ],
                    "10,0": [
                        "bg4c",
                        [
                            10,
                            0
                        ]
                    ],
                    "12,3": [
                        "bg4c",
                        [
                            12,
                            3
                        ]
                    ],
                    "13,2": [
                        "bg4c",
                        [
                            13,
                            2
                        ]
                    ],
                    "1,4": [
                        "bg4c",
                        [
                            1,
                            4
                        ]
                    ],
                    "3,9": [
                        "bg4c",
                        [
                            3,
                            9
                        ]
                    ],
                    "2,3": [
                        "bg4c",
                        [
                            2,
                            3
                        ]
                    ],
                    "1,9": [
                        "bg4c",
                        [
                            1,
                            9
                        ]
                    ],
                    "8,7": [
                        "bg4c",
                        [
                            8,
                            7
                        ]
                    ],
                    "4,2": [
                        "bg4c",
                        [
                            4,
                            2
                        ]
                    ],
                    "9,6": [
                        "bg4c",
                        [
                            9,
                            6
                        ]
                    ],
                    "6,5": [
                        "bg4c",
                        [
                            6,
                            5
                        ]
                    ],
                    "5,3": [
                        "bg4c",
                        [
                            5,
                            3
                        ]
                    ],
                    "11,7": [
                        "bg4c",
                        [
                            11,
                            7
                        ]
                    ],
                    "10,5": [
                        "bg4c",
                        [
                            10,
                            5
                        ]
                    ],
                    "7,0": [
                        "bg4c",
                        [
                            7,
                            0
                        ]
                    ],
                    "6,8": [
                        "bg4c",
                        [
                            6,
                            8
                        ]
                    ],
                    "12,0": [
                        "bg4c",
                        [
                            12,
                            0
                        ]
                    ],
                    "11,8": [
                        "bg4c",
                        [
                            11,
                            8
                        ]
                    ],
                    "14,7": [
                        "bg4c",
                        [
                            14,
                            7
                        ]
                    ],
                    "13,5": [
                        "bg4c",
                        [
                            13,
                            5
                        ]
                    ],
                    "0,6": [
                        "bg4c",
                        [
                            0,
                            6
                        ]
                    ],
                    "1,7": [
                        "bg4c",
                        [
                            1,
                            7
                        ]
                    ],
                    "0,9": [
                        "bg4c",
                        [
                            0,
                            9
                        ]
                    ],
                    "3,4": [
                        "bg4c",
                        [
                            3,
                            4
                        ]
                    ],
                    "2,4": [
                        "bg4c",
                        [
                            2,
                            4
                        ]
                    ],
                    "8,4": [
                        "bg4c",
                        [
                            8,
                            4
                        ]
                    ],
                    "5,9": [
                        "bg4c",
                        [
                            5,
                            9
                        ]
                    ],
                    "4,7": [
                        "bg4c",
                        [
                            4,
                            7
                        ]
                    ],
                    "9,1": [
                        "bg4c",
                        [
                            9,
                            1
                        ]
                    ],
                    "6,6": [
                        "bg4c",
                        [
                            6,
                            6
                        ]
                    ],
                    "5,6": [
                        "bg4c",
                        [
                            5,
                            6
                        ]
                    ],
                    "11,2": [
                        "bg4c",
                        [
                            11,
                            2
                        ]
                    ],
                    "10,6": [
                        "bg4c",
                        [
                            10,
                            6
                        ]
                    ],
                    "7,7": [
                        "bg4c",
                        [
                            7,
                            7
                        ]
                    ],
                    "12,5": [
                        "bg4c",
                        [
                            12,
                            5
                        ]
                    ],
                    "14,0": [
                        "bg4c",
                        [
                            14,
                            0
                        ]
                    ],
                    "13,8": [
                        "bg4c",
                        [
                            13,
                            8
                        ]
                    ],
                    "0,3": [
                        "bg4c",
                        [
                            0,
                            3
                        ]
                    ],
                    "1,2": [
                        "bg4c",
                        [
                            1,
                            2
                        ]
                    ],
                    "4,9": [
                        "bg4c",
                        [
                            4,
                            9
                        ]
                    ],
                    "3,3": [
                        "bg4c",
                        [
                            3,
                            3
                        ]
                    ],
                    "2,9": [
                        "bg4c",
                        [
                            2,
                            9
                        ]
                    ],
                    "8,1": [
                        "bg4c",
                        [
                            8,
                            1
                        ]
                    ],
                    "4,4": [
                        "bg4c",
                        [
                            4,
                            4
                        ]
                    ],
                    "6,3": [
                        "bg4c",
                        [
                            6,
                            3
                        ]
                    ],
                    "11,1": [
                        "bg4c",
                        [
                            11,
                            1
                        ]
                    ],
                    "0,0": [
                        "bg4c",
                        [
                            0,
                            0
                        ]
                    ],
                    "10,1": [
                        "bg4c",
                        [
                            10,
                            1
                        ]
                    ],
                    "7,9": [
                        "bg4c",
                        [
                            7,
                            9
                        ]
                    ],
                    "13,1": [
                        "bg4c",
                        [
                            13,
                            1
                        ]
                    ],
                    "3,8": [
                        "bg4c",
                        [
                            3,
                            8
                        ]
                    ],
                    "2,0": [
                        "bg4c",
                        [
                            2,
                            0
                        ]
                    ],
                    "1,8": [
                        "bg4c",
                        [
                            1,
                            8
                        ]
                    ],
                    "8,8": [
                        "bg4c",
                        [
                            8,
                            8
                        ]
                    ],
                    "4,3": [
                        "bg4c",
                        [
                            4,
                            3
                        ]
                    ],
                    "9,5": [
                        "bg4c",
                        [
                            9,
                            5
                        ]
                    ],
                    "5,2": [
                        "bg4c",
                        [
                            5,
                            2
                        ]
                    ],
                    "11,6": [
                        "bg4c",
                        [
                            11,
                            6
                        ]
                    ],
                    "10,2": [
                        "bg4c",
                        [
                            10,
                            2
                        ]
                    ]
                }
            }
        ],
        "tilesets": [
            "bg4c"
        ]
    }
]